%!PS-Adobe-3.0 EPSF-3.0
%%Creator: cairo 1.16.0 (https://cairographics.org)
%%CreationDate: Thu Aug  6 20:33:57 2020
%%Pages: 1
%%DocumentData: Clean7Bit
%%LanguageLevel: 2
%%BoundingBox: 26 33 424 422
%%EndComments
%%BeginProlog
50 dict begin
/q { gsave } bind def
/Q { grestore } bind def
/cm { 6 array astore concat } bind def
/w { setlinewidth } bind def
/J { setlinecap } bind def
/j { setlinejoin } bind def
/M { setmiterlimit } bind def
/d { setdash } bind def
/m { moveto } bind def
/l { lineto } bind def
/c { curveto } bind def
/h { closepath } bind def
/re { exch dup neg 3 1 roll 5 3 roll moveto 0 rlineto
      0 exch rlineto 0 rlineto closepath } bind def
/S { stroke } bind def
/f { fill } bind def
/f* { eofill } bind def
/n { newpath } bind def
/W { clip } bind def
/W* { eoclip } bind def
/BT { } bind def
/ET { } bind def
/BDC { mark 3 1 roll /BDC pdfmark } bind def
/EMC { mark /EMC pdfmark } bind def
/cairo_store_point { /cairo_point_y exch def /cairo_point_x exch def } def
/Tj { show currentpoint cairo_store_point } bind def
/TJ {
  {
    dup
    type /stringtype eq
    { show } { -0.001 mul 0 cairo_font_matrix dtransform rmoveto } ifelse
  } forall
  currentpoint cairo_store_point
} bind def
/cairo_selectfont { cairo_font_matrix aload pop pop pop 0 0 6 array astore
    cairo_font exch selectfont cairo_point_x cairo_point_y moveto } bind def
/Tf { pop /cairo_font exch def /cairo_font_matrix where
      { pop cairo_selectfont } if } bind def
/Td { matrix translate cairo_font_matrix matrix concatmatrix dup
      /cairo_font_matrix exch def dup 4 get exch 5 get cairo_store_point
      /cairo_font where { pop cairo_selectfont } if } bind def
/Tm { 2 copy 8 2 roll 6 array astore /cairo_font_matrix exch def
      cairo_store_point /cairo_font where { pop cairo_selectfont } if } bind def
/g { setgray } bind def
/rg { setrgbcolor } bind def
/d1 { setcachedevice } bind def
/cairo_data_source {
  CairoDataIndex CairoData length lt
    { CairoData CairoDataIndex get /CairoDataIndex CairoDataIndex 1 add def }
    { () } ifelse
} def
/cairo_flush_ascii85_file { cairo_ascii85_file status { cairo_ascii85_file flushfile } if } def
/cairo_image { image cairo_flush_ascii85_file } def
/cairo_imagemask { imagemask cairo_flush_ascii85_file } def
%%EndProlog
%%BeginSetup
%%EndSetup
%%Page: 1 1
%%BeginPageSetup
%%PageBoundingBox: 26 33 424 422
%%EndPageSetup
q 26 33 398 389 rectclip
1 0 0 -1 0 450 cm q
0.972549 0.662745 0.0352941 rg
270.641 73.023 m 270.641 61.09 265.902 49.641 257.461 41.207 c 249.027 
32.766 237.574 28.023 225.641 28.023 c 213.707 28.023 202.258 32.766 193.824
 41.207 c 185.383 49.641 180.641 61.09 180.641 73.023 c 180.641 84.957 185.383
 96.41 193.824 104.844 c 202.258 113.285 213.707 118.023 225.641 118.023
 c 237.574 118.023 249.027 113.285 257.461 104.844 c 265.902 96.41 270.641
 84.957 270.641 73.023 c h
270.641 73.023 m f
1 g
224.684 84.754 m 223.219 84.75 221.777 84.473 220.355 83.91 c 218.926 83.352
 217.699 82.66 216.672 81.824 c 219 78.633 l 219.941 79.391 220.887 79.973
 221.824 80.383 c 222.754 80.805 223.766 81.008 224.859 81.004 c 226.008
 81.008 226.855 80.773 227.402 80.293 c 227.945 79.824 228.215 79.211 228.219
 78.461 c 228.215 78.031 228.09 77.652 227.828 77.324 c 227.57 76.992 227.223
 76.699 226.797 76.438 c 226.363 76.18 225.875 75.945 225.336 75.73 c 224.781
 75.52 224.234 75.289 223.695 75.059 c 222.996 74.805 222.293 74.504 221.582
 74.156 c 220.863 73.812 220.227 73.398 219.664 72.906 c 219.102 72.418 
218.637 71.852 218.281 71.203 c 217.922 70.559 217.75 69.789 217.75 68.895
 c 217.75 67.031 218.434 65.504 219.816 64.324 c 221.188 63.148 223.066 
62.559 225.461 62.559 c 226.922 62.559 228.242 62.824 229.43 63.34 c 230.602
 63.863 231.621 64.445 232.488 65.102 c 230.203 68.121 l 229.445 67.578 
228.695 67.141 227.938 66.809 c 227.18 66.477 226.383 66.309 225.551 66.309
 c 224.48 66.309 223.699 66.531 223.199 66.977 c 222.695 67.422 222.441 
67.977 222.449 68.637 c 222.441 69.07 222.562 69.434 222.809 69.734 c 223.051
 70.035 223.375 70.309 223.777 70.535 c 224.18 70.77 224.648 70.98 225.18
 71.18 c 225.707 71.383 226.262 71.59 226.844 71.781 c 227.559 72.043 228.273
 72.34 228.996 72.672 c 229.703 73 230.359 73.41 230.957 73.898 c 231.539
 74.391 232.012 74.984 232.375 75.688 c 232.734 76.391 232.914 77.234 232.914
 78.199 c 232.914 79.125 232.734 79.98 232.375 80.77 c 232.012 81.562 231.492
 82.254 230.805 82.836 c 230.113 83.43 229.25 83.895 228.219 84.238 c 227.18
 84.578 226.004 84.75 224.684 84.754 c h
224.684 84.754 m f
0.811765 0.0705882 0.176471 rg
392.48 132.02 m 392.48 120.082 387.738 108.633 379.297 100.199 c 370.863
 91.758 359.414 87.02 347.48 87.02 c 335.543 87.02 324.094 91.758 315.66
 100.199 c 307.219 108.633 302.48 120.082 302.48 132.02 c 302.48 143.953
 307.219 155.402 315.66 163.836 c 324.094 172.277 335.543 177.02 347.48 
177.02 c 359.414 177.02 370.863 172.277 379.297 163.836 c 387.738 155.402
 392.48 143.953 392.48 132.02 c h
392.48 132.02 m f
1 g
327.816 143.414 m 327.816 112.988 l 332.688 112.988 l 332.688 131.992 l
 332.82 131.992 l 340.66 122.258 l 346.086 122.258 l 338.848 130.875 l 346.82
 143.414 l 341.434 143.414 l 336.004 134.234 l 332.688 138.027 l 332.688
 143.414 l h
327.816 143.414 m f
357.684 152.762 m 356.418 152.758 355.246 152.641 354.172 152.422 c 353.09
 152.184 352.164 151.844 351.387 151.387 c 350.613 150.922 350 150.344 349.559
 149.66 c 349.109 148.969 348.887 148.164 348.895 147.25 c 348.887 146.355
 349.145 145.531 349.668 144.773 c 350.18 144.008 350.926 143.328 351.906
 142.723 c 351.906 142.555 l 351.352 142.219 350.902 141.754 350.547 141.18
 c 350.188 140.602 350.004 139.887 350.012 139.02 c 350.004 138.191 350.246
 137.434 350.719 136.758 c 351.195 136.086 351.73 135.535 352.336 135.102
 c 352.336 134.926 l 351.617 134.387 350.98 133.629 350.422 132.664 c 349.855
 131.703 349.57 130.59 349.578 129.324 c 349.57 128.121 349.809 127.043 
350.27 126.094 c 350.727 125.152 351.332 124.352 352.102 123.703 c 352.859
 123.055 353.746 122.566 354.75 122.234 c 355.754 121.906 356.816 121.734
 357.941 121.734 c 358.512 121.734 359.062 121.789 359.602 121.891 c 360.129
 121.996 360.609 122.113 361.043 122.258 c 368.629 122.258 l 368.629 125.922
 l 364.75 125.922 l 365.094 126.324 365.379 126.832 365.613 127.445 c 365.836
 128.066 365.949 128.75 365.953 129.496 c 365.949 130.68 365.746 131.715
 365.328 132.598 c 364.906 133.496 364.336 134.238 363.629 134.84 c 362.906
 135.449 362.059 135.906 361.086 136.219 c 360.105 136.535 359.059 136.699
 357.941 136.691 c 357.477 136.699 357.004 136.656 356.516 136.566 c 356.027
 136.484 355.543 136.34 355.055 136.133 c 354.738 136.422 354.484 136.703
 354.297 136.992 c 354.109 137.281 354.02 137.672 354.02 138.16 c 354.02
 138.766 354.266 139.242 354.773 139.578 c 355.273 139.926 356.172 140.098
 357.465 140.098 c 361.219 140.098 l 363.773 140.098 365.703 140.512 367.012
 141.328 c 368.316 142.152 368.973 143.473 368.973 145.309 c 368.973 146.344
 368.703 147.316 368.172 148.234 c 367.637 149.156 366.887 149.949 365.914
 150.609 c 364.934 151.273 363.75 151.793 362.352 152.18 c 360.957 152.562
 359.402 152.758 357.684 152.762 c h
357.941 133.59 m 358.945 133.598 359.805 133.23 360.527 132.492 c 361.234
 131.762 361.598 130.707 361.602 129.324 c 361.598 128.008 361.242 126.977
 360.543 126.246 c 359.832 125.512 358.969 125.145 357.941 125.145 c 356.902
 125.145 356.023 125.504 355.312 126.223 c 354.594 126.941 354.238 127.977
 354.238 129.324 c 354.238 130.707 354.594 131.762 355.312 132.492 c 356.023
 133.23 356.902 133.598 357.941 133.59 c h
358.457 149.535 m 360.176 149.527 361.559 149.191 362.613 148.52 c 363.656
 147.844 364.18 147.047 364.188 146.133 c 364.18 145.289 363.863 144.73 
363.219 144.449 c 362.57 144.152 361.645 144.008 360.441 144.016 c 357.551
 144.016 l 356.395 144.008 355.434 143.906 354.664 143.715 c 353.57 144.543
 353.027 145.484 353.027 146.516 c 353.027 147.465 353.508 148.207 354.473
 148.734 c 355.434 149.262 356.762 149.527 358.457 149.535 c h
358.457 149.535 m f
0.670588 0.215686 0.54902 rg
423.734 265.398 m 423.734 253.465 418.996 242.016 410.555 233.582 c 402.121
 225.141 390.668 220.398 378.734 220.398 c 366.801 220.398 355.352 225.141
 346.918 233.582 c 338.477 242.016 333.734 253.465 333.734 265.398 c 333.734
 277.332 338.477 288.785 346.918 297.219 c 355.352 305.66 366.801 310.398
 378.734 310.398 c 390.668 310.398 402.121 305.66 410.555 297.219 c 418.996
 288.785 423.734 277.332 423.734 265.398 c h
423.734 265.398 m f
1 g
345.016 279.82 m 345.016 258.664 l 349.109 258.664 l 349.457 261.551 l 
349.629 261.551 l 350.516 260.602 351.484 259.797 352.535 259.133 c 353.582
 258.473 354.766 258.145 356.09 258.145 c 357.641 258.145 358.887 258.473
 359.816 259.133 c 360.75 259.797 361.457 260.734 361.949 261.938 c 362.957
 260.855 364 259.945 365.094 259.227 c 366.184 258.504 367.41 258.145 368.762
 258.145 c 371 258.145 372.645 258.871 373.715 260.32 c 374.773 261.773 
375.309 263.848 375.309 266.547 c 375.309 279.82 l 370.312 279.82 l 370.312
 267.195 l 370.312 265.449 370.043 264.215 369.512 263.492 c 368.98 262.777
 368.168 262.418 367.078 262.41 c 365.758 262.418 364.277 263.297 362.641
 265.039 c 362.641 279.82 l 357.688 279.82 l 357.688 267.195 l 357.688 265.449
 357.418 264.215 356.891 263.492 c 356.348 262.777 355.523 262.418 354.414
 262.41 c 353.086 262.418 351.605 263.297 349.977 265.039 c 349.977 279.82
 l h
345.016 279.82 m f
390.004 280.34 m 388.676 280.332 387.414 280.094 386.211 279.605 c 385.004
 279.117 383.934 278.402 383 277.453 c 382.062 276.508 381.324 275.344 380.781
 273.961 c 380.234 272.582 379.965 271.02 379.965 269.266 c 379.965 267.516
 380.234 265.953 380.781 264.57 c 381.324 263.191 382.062 262.027 383 261.078
 c 383.934 260.133 385.004 259.406 386.211 258.902 c 387.414 258.395 388.676
 258.145 390.004 258.145 c 391.32 258.145 392.598 258.395 393.816 258.902
 c 395.035 259.406 396.105 260.133 397.027 261.078 c 397.945 262.027 398.688
 263.191 399.246 264.57 c 399.805 265.953 400.082 267.516 400.086 269.266
 c 400.082 271.02 399.805 272.582 399.246 273.961 c 398.688 275.344 397.945
 276.508 397.027 277.453 c 396.105 278.402 395.035 279.117 393.816 279.605
 c 392.598 280.094 391.32 280.332 390.004 280.34 c h
390.004 276.285 m 391.551 276.285 392.77 275.648 393.664 274.367 c 394.555
 273.094 395.008 271.395 395.008 269.266 c 395.008 267.113 394.555 265.395
 393.664 264.113 c 392.77 262.84 391.551 262.199 390.004 262.195 c 388.449
 262.199 387.234 262.84 386.363 264.113 c 385.484 265.395 385.051 267.113
 385.051 269.266 c 385.051 271.395 385.484 273.094 386.363 274.367 c 387.234
 275.648 388.449 276.285 390.004 276.285 c h
390.004 276.285 m f
409.828 280.34 m 408.047 280.332 406.797 279.809 406.074 278.746 c 405.355
 277.688 404.992 276.23 405 274.391 c 405 249.395 l 409.961 249.395 l 409.961
 274.652 l 409.953 275.258 410.066 275.68 410.301 275.918 c 410.523 276.168
 410.77 276.285 411.035 276.285 c 411.145 276.285 411.246 276.285 411.355
 276.285 c 411.449 276.285 411.605 276.262 411.812 276.203 c 412.453 279.906
 l 411.785 280.188 410.914 280.332 409.828 280.34 c h
409.828 280.34 m f
0.254902 0.156863 0.517647 rg
338.613 371.848 m 338.613 359.91 333.875 348.461 325.434 340.027 c 317 
331.586 305.547 326.848 293.613 326.848 c 281.68 326.848 270.23 331.586 
261.797 340.027 c 253.355 348.461 248.613 359.91 248.613 371.848 c 248.613
 383.781 253.355 395.23 261.797 403.664 c 270.23 412.105 281.68 416.848 
293.613 416.848 c 305.547 416.848 317 412.105 325.434 403.664 c 333.875 
395.23 338.613 383.781 338.613 371.848 c h
338.613 371.848 m f
1 g
282.371 386.418 m 280.926 386.41 279.582 386.172 278.336 385.684 c 277.086
 385.195 276.004 384.48 275.082 383.531 c 274.164 382.586 273.449 381.422
 272.934 380.039 c 272.414 378.66 272.156 377.098 272.156 375.344 c 272.156
 373.594 272.438 372.031 273.016 370.648 c 273.586 369.273 274.363 368.105
 275.344 367.156 c 276.316 366.211 277.445 365.484 278.727 364.98 c 280 
364.473 281.344 364.223 282.754 364.223 c 284.125 364.223 285.309 364.457
 286.309 364.914 c 287.293 365.383 288.18 365.941 288.957 366.598 c 286.547
 369.824 l 285.973 369.34 285.398 368.961 284.848 368.684 c 284.281 368.418
 283.676 368.281 283.012 368.273 c 281.289 368.281 279.895 368.918 278.836
 370.191 c 277.77 371.473 277.242 373.191 277.242 375.344 c 277.242 377.473
 277.766 379.172 278.812 380.449 c 279.855 381.727 281.215 382.367 282.887
 382.367 c 283.715 382.367 284.5 382.191 285.23 381.832 c 285.965 381.477
 286.633 381.047 287.238 380.555 c 289.266 383.832 l 288.254 384.699 287.156
 385.34 285.965 385.773 c 284.77 386.203 283.574 386.41 282.371 386.418 
c h
282.371 386.418 m f
300.852 386.418 m 298.176 386.41 296.062 385.449 294.5 383.508 c 292.93
 381.57 292.141 378.848 292.148 375.344 c 292.141 373.625 292.395 372.074
 292.898 370.691 c 293.398 369.312 294.066 368.152 294.906 367.203 c 295.738
 366.262 296.691 365.527 297.77 365.004 c 298.844 364.488 299.957 364.223
 301.113 364.223 c 302.312 364.223 303.336 364.434 304.172 364.848 c 305
 365.27 305.836 365.84 306.672 366.555 c 306.5 363.145 l 306.5 355.477 l
 311.453 355.477 l 311.453 385.902 l 307.363 385.902 l 307.016 383.617 l
 306.848 383.617 l 306.066 384.398 305.164 385.059 304.129 385.602 c 303.094
 386.148 302 386.41 300.852 386.418 c h
302.062 382.324 m 303.637 382.328 305.117 381.543 306.5 379.957 c 306.5
 370.082 l 305.746 369.422 305.02 368.965 304.32 368.707 c 303.613 368.449
 302.902 368.316 302.188 368.316 c 300.805 368.316 299.637 368.922 298.695
 370.133 c 297.746 371.34 297.277 373.066 297.277 375.301 c 297.277 377.605
 297.684 379.348 298.504 380.539 c 299.32 381.734 300.504 382.328 302.062
 382.324 c h
302.062 382.324 m f
0.0980392 0.364706 0.662745 rg
201.387 371.848 m 201.387 359.91 196.645 348.461 188.203 340.027 c 179.77
 331.586 168.32 326.848 156.387 326.848 c 144.453 326.848 133 331.586 124.566
 340.027 c 116.125 348.461 111.387 359.91 111.387 371.848 c 111.387 383.781
 116.125 395.23 124.566 403.664 c 133 412.105 144.453 416.848 156.387 416.848
 c 168.32 416.848 179.77 412.105 188.203 403.664 c 196.645 395.23 201.387
 383.781 201.387 371.848 c h
201.387 371.848 m f
1 g
147.426 387.328 m 147.426 359.145 l 152.422 359.145 l 152.422 371.945 l
 152.555 371.945 l 162.594 359.145 l 168.156 359.145 l 159.492 370.133 l
 169.617 387.328 l 164.102 387.328 l 156.473 374.055 l 152.422 379.098 l
 152.422 387.328 l h
147.426 387.328 m f
0.384314 0.658824 0.188235 rg
116.742 265.398 m 116.742 253.465 112 242.016 103.559 233.582 c 95.125 
225.141 83.676 220.398 71.742 220.398 c 59.805 220.398 48.355 225.141 39.922
 233.582 c 31.48 242.016 26.742 253.465 26.742 265.398 c 26.742 277.332 
31.48 288.785 39.922 297.219 c 48.355 305.66 59.805 310.398 71.742 310.398
 c 83.676 310.398 95.125 305.66 103.559 297.219 c 112 288.785 116.742 277.332
 116.742 265.398 c h
116.742 265.398 m f
1 g
68.902 265.727 m 67.918 269.172 l 75.113 269.172 l 74.121 265.727 l 73.652
 264.238 73.211 262.699 72.805 261.117 c 72.383 259.535 71.973 257.973 71.578
 256.414 c 71.402 256.414 l 71 258.004 70.598 259.57 70.195 261.137 c 69.793
 262.703 69.359 264.238 68.902 265.727 c h
59.469 280.723 m 68.645 252.539 l 74.504 252.539 l 83.684 280.723 l 78.43
 280.723 l 76.23 273.094 l 66.75 273.094 l 64.551 280.723 l h
59.469 280.723 m f
0.92549 0.403922 0.156863 rg
147.52 132.02 m 147.52 120.082 142.781 108.633 134.34 100.199 c 125.906
 91.758 114.457 87.02 102.52 87.02 c 90.586 87.02 79.137 91.758 70.703 100.199
 c 62.262 108.633 57.52 120.082 57.52 132.02 c 57.52 143.953 62.262 155.402
 70.703 163.836 c 79.137 172.277 90.586 177.02 102.52 177.02 c 114.457 177.02
 125.906 172.277 134.34 163.836 c 142.781 155.402 147.52 143.953 147.52 
132.02 c h
147.52 132.02 m f
1 g
86.789 143.414 m 86.789 122.258 l 90.883 122.258 l 91.23 125.145 l 91.398
 125.145 l 92.289 124.195 93.254 123.391 94.309 122.727 c 95.355 122.066
 96.539 121.734 97.859 121.734 c 99.41 121.734 100.656 122.066 101.59 122.727
 c 102.52 123.391 103.23 124.328 103.723 125.531 c 104.727 124.445 105.773
 123.539 106.867 122.816 c 107.953 122.098 109.18 121.734 110.535 121.734
 c 112.77 121.734 114.418 122.465 115.488 123.914 c 116.547 125.367 117.082
 127.441 117.082 130.141 c 117.082 143.414 l 112.086 143.414 l 112.086 130.789
 l 112.086 129.039 111.812 127.809 111.285 127.086 c 110.75 126.371 109.938
 126.012 108.852 126.004 c 107.527 126.012 106.051 126.887 104.414 128.633
 c 104.414 143.414 l 99.461 143.414 l 99.461 130.789 l 99.461 129.039 99.188
 127.809 98.66 127.086 c 98.121 126.371 97.297 126.012 96.184 126.004 c 
94.855 126.012 93.375 126.887 91.746 128.633 c 91.746 143.414 l h
86.789 143.414 m f
Q Q
showpage
%%Trailer
end
%%EOF
