<?xml version="1.0" encoding="UTF-8" standalone="no"?>
<svg
   xmlns:dc="http://purl.org/dc/elements/1.1/"
   xmlns:cc="http://creativecommons.org/ns#"
   xmlns:rdf="http://www.w3.org/1999/02/22-rdf-syntax-ns#"
   xmlns:svg="http://www.w3.org/2000/svg"
   xmlns="http://www.w3.org/2000/svg"
   xmlns:sodipodi="http://sodipodi.sourceforge.net/DTD/sodipodi-0.dtd"
   xmlns:inkscape="http://www.inkscape.org/namespaces/inkscape"
   width="576pt"
   height="432pt"
   viewBox="0 0 576 432"
   version="1.1"
   id="svg1686"
   sodipodi:docname="ch1p24_plot1.svg"
   inkscape:version="0.92.4 (5da689c313, 2019-01-14)">
  <title
     id="title2456">Vapor pressure example</title>
  <metadata
     id="metadata1690">
    <rdf:RDF>
      <cc:Work
         rdf:about="">
        <dc:format>image/svg+xml</dc:format>
        <dc:type
           rdf:resource="http://purl.org/dc/dcmitype/StillImage" />
        <dc:title>Vapor pressure example</dc:title>
        <cc:license
           rdf:resource="http://creativecommons.org/licenses/by-sa/4.0/" />
        <dc:creator>
          <cc:Agent>
            <dc:title>Steven Baltakatei Sandoval</dc:title>
          </cc:Agent>
        </dc:creator>
        <dc:date>2020-08-29</dc:date>
      </cc:Work>
      <cc:License
         rdf:about="http://creativecommons.org/licenses/by-sa/4.0/">
        <cc:permits
           rdf:resource="http://creativecommons.org/ns#Reproduction" />
        <cc:permits
           rdf:resource="http://creativecommons.org/ns#Distribution" />
        <cc:requires
           rdf:resource="http://creativecommons.org/ns#Notice" />
        <cc:requires
           rdf:resource="http://creativecommons.org/ns#Attribution" />
        <cc:permits
           rdf:resource="http://creativecommons.org/ns#DerivativeWorks" />
        <cc:requires
           rdf:resource="http://creativecommons.org/ns#ShareAlike" />
      </cc:License>
    </rdf:RDF>
  </metadata>
  <sodipodi:namedview
     pagecolor="#ffffff"
     bordercolor="#666666"
     borderopacity="1"
     objecttolerance="10"
     gridtolerance="10"
     guidetolerance="10"
     inkscape:pageopacity="0"
     inkscape:pageshadow="2"
     inkscape:window-width="1920"
     inkscape:window-height="1013"
     id="namedview1688"
     showgrid="false"
     inkscape:zoom="0.40972222"
     inkscape:cx="74.033898"
     inkscape:cy="288"
     inkscape:window-x="0"
     inkscape:window-y="30"
     inkscape:window-maximized="1"
     inkscape:current-layer="svg1686" />
  <desc
     id="desc1543">
Creator: GL2PS 1.4.0, (C) 1999-2017 C. Geuzaine
For: Octave
CreationDate: Sat Aug 29 03:44:59 2020
</desc>
  <defs
     id="defs1545" />
  <polygon
     points="576,432 0,432 0,0 576,0 "
     id="polygon1547"
     style="display:none;fill:#ffffff" />
  <g
     id="g1684">
    <polygon
       points="576,432 576,0 0,0 0,432 "
       id="polygon1549"
       style="display:none;fill:#ffffff;shape-rendering:crispEdges" />
    <clipPath
       id="cp00576432">
      <polygon
         points="0,0 0,432 576,432 576,0 "
         id="polygon1551" />
    </clipPath>
    <g
       clip-path="url(#cp00576432)"
       id="g1682">
      <polygon
         points="74.88,384.48 521.28,384.48 74.88,32.4 "
         id="polygon1554"
         style="fill:#ffffff;shape-rendering:crispEdges" />
      <polygon
         points="521.28,384.48 521.28,32.4 74.88,32.4 "
         id="polygon1556"
         style="fill:#ffffff;shape-rendering:crispEdges" />
      <polyline
         points="74.88,384.48 74.88,32.4"
         id="polyline1558"
         style="fill:none;stroke:#262626;stroke-width:0.5;stroke-linecap:butt;stroke-linejoin:miter;stroke-dasharray:16, 0;stroke-opacity:0.15" />
      <polyline
         points="164.16,384.48 164.16,32.4"
         id="polyline1560"
         style="fill:none;stroke:#262626;stroke-width:0.5;stroke-linecap:butt;stroke-linejoin:miter;stroke-dasharray:16, 0;stroke-opacity:0.15" />
      <polyline
         points="253.44,384.48 253.44,32.4"
         id="polyline1562"
         style="fill:none;stroke:#262626;stroke-width:0.5;stroke-linecap:butt;stroke-linejoin:miter;stroke-dasharray:16, 0;stroke-opacity:0.15" />
      <polyline
         points="342.72,384.48 342.72,32.4"
         id="polyline1564"
         style="fill:none;stroke:#262626;stroke-width:0.5;stroke-linecap:butt;stroke-linejoin:miter;stroke-dasharray:16, 0;stroke-opacity:0.15" />
      <polyline
         points="432,384.48 432,32.4"
         id="polyline1566"
         style="fill:none;stroke:#262626;stroke-width:0.5;stroke-linecap:butt;stroke-linejoin:miter;stroke-dasharray:16, 0;stroke-opacity:0.15" />
      <polyline
         points="521.28,384.48 521.28,32.4"
         id="polyline1568"
         style="fill:none;stroke:#262626;stroke-width:0.5;stroke-linecap:butt;stroke-linejoin:miter;stroke-dasharray:16, 0;stroke-opacity:0.15" />
      <polyline
         points="74.88,384.48 74.88,380.015"
         id="polyline1570"
         style="fill:none;stroke:#262626;stroke-width:0.5;stroke-linecap:butt;stroke-linejoin:miter" />
      <polyline
         points="164.16,384.48 164.16,380.015"
         id="polyline1572"
         style="fill:none;stroke:#262626;stroke-width:0.5;stroke-linecap:butt;stroke-linejoin:miter" />
      <polyline
         points="253.44,384.48 253.44,380.015"
         id="polyline1574"
         style="fill:none;stroke:#262626;stroke-width:0.5;stroke-linecap:butt;stroke-linejoin:miter" />
      <polyline
         points="342.72,384.48 342.72,380.015"
         id="polyline1576"
         style="fill:none;stroke:#262626;stroke-width:0.5;stroke-linecap:butt;stroke-linejoin:miter" />
      <polyline
         points="432,384.48 432,380.015"
         id="polyline1578"
         style="fill:none;stroke:#262626;stroke-width:0.5;stroke-linecap:butt;stroke-linejoin:miter" />
      <polyline
         points="521.28,384.48 521.28,380.015"
         id="polyline1580"
         style="fill:none;stroke:#262626;stroke-width:0.5;stroke-linecap:butt;stroke-linejoin:miter" />
      <text
         xml:space="preserve"
         transform="translate(67.38,400.481)"
         font-weight="normal"
         font-style="normal"
         font-size="10"
         id="text1584"
         style="font-style:normal;font-weight:normal;font-size:10px;font-family:FreeSans"><tspan
           y="-1"
           x="0 3 9"
           id="tspan1582"
           style="fill:#262626">-20</tspan></text>
      <text
         xml:space="preserve"
         transform="translate(161.16,400.481)"
         font-weight="normal"
         font-style="normal"
         font-size="10"
         id="text1588"
         style="font-style:normal;font-weight:normal;font-size:10px;font-family:FreeSans"><tspan
           y="-1"
           x="0"
           id="tspan1586"
           style="fill:#262626">0</tspan></text>
      <text
         xml:space="preserve"
         transform="translate(247.44,400.481)"
         font-weight="normal"
         font-style="normal"
         font-size="10"
         id="text1592"
         style="font-style:normal;font-weight:normal;font-size:10px;font-family:FreeSans"><tspan
           y="-1"
           x="0 6"
           id="tspan1590"
           style="fill:#262626">20</tspan></text>
      <text
         xml:space="preserve"
         transform="translate(336.72,400.481)"
         font-weight="normal"
         font-style="normal"
         font-size="10"
         id="text1596"
         style="font-style:normal;font-weight:normal;font-size:10px;font-family:FreeSans"><tspan
           y="-1"
           x="0 6"
           id="tspan1594"
           style="fill:#262626">40</tspan></text>
      <text
         xml:space="preserve"
         transform="translate(426,400.481)"
         font-weight="normal"
         font-style="normal"
         font-size="10"
         id="text1600"
         style="font-style:normal;font-weight:normal;font-size:10px;font-family:FreeSans"><tspan
           y="-1"
           x="0 6"
           id="tspan1598"
           style="fill:#262626">60</tspan></text>
      <text
         xml:space="preserve"
         transform="translate(515.28,400.481)"
         font-weight="normal"
         font-style="normal"
         font-size="10"
         id="text1604"
         style="font-style:normal;font-weight:normal;font-size:10px;font-family:FreeSans"><tspan
           y="-1"
           x="0 6"
           id="tspan1602"
           style="fill:#262626">80</tspan></text>
      <polyline
         points="74.88,384.48 521.28,384.48"
         id="polyline1606"
         style="fill:none;stroke:#262626;stroke-width:0.5;stroke-linecap:butt;stroke-linejoin:miter;stroke-dasharray:16, 0;stroke-opacity:0.15" />
      <polyline
         points="74.88,296.46 521.28,296.46"
         id="polyline1608"
         style="fill:none;stroke:#262626;stroke-width:0.5;stroke-linecap:butt;stroke-linejoin:miter;stroke-dasharray:16, 0;stroke-opacity:0.15" />
      <polyline
         points="74.88,208.44 521.28,208.44"
         id="polyline1610"
         style="fill:none;stroke:#262626;stroke-width:0.5;stroke-linecap:butt;stroke-linejoin:miter;stroke-dasharray:16, 0;stroke-opacity:0.15" />
      <polyline
         points="74.88,120.42 521.28,120.42"
         id="polyline1612"
         style="fill:none;stroke:#262626;stroke-width:0.5;stroke-linecap:butt;stroke-linejoin:miter;stroke-dasharray:16, 0;stroke-opacity:0.15" />
      <polyline
         points="74.88,32.4 521.28,32.4"
         id="polyline1614"
         style="fill:none;stroke:#262626;stroke-width:0.5;stroke-linecap:butt;stroke-linejoin:miter;stroke-dasharray:16, 0;stroke-opacity:0.15" />
      <polyline
         points="74.88,384.48 79.348,384.48"
         id="polyline1616"
         style="fill:none;stroke:#262626;stroke-width:0.5;stroke-linecap:butt;stroke-linejoin:miter" />
      <polyline
         points="74.88,296.46 79.348,296.46"
         id="polyline1618"
         style="fill:none;stroke:#262626;stroke-width:0.5;stroke-linecap:butt;stroke-linejoin:miter" />
      <polyline
         points="74.88,208.44 79.348,208.44"
         id="polyline1620"
         style="fill:none;stroke:#262626;stroke-width:0.5;stroke-linecap:butt;stroke-linejoin:miter" />
      <polyline
         points="74.88,120.42 79.348,120.42"
         id="polyline1622"
         style="fill:none;stroke:#262626;stroke-width:0.5;stroke-linecap:butt;stroke-linejoin:miter" />
      <polyline
         points="74.88,32.4 79.348,32.4"
         id="polyline1624"
         style="fill:none;stroke:#262626;stroke-width:0.5;stroke-linecap:butt;stroke-linejoin:miter" />
      <text
         xml:space="preserve"
         transform="translate(63.8755,389.98)"
         font-weight="normal"
         font-style="normal"
         font-size="10"
         id="text1628"
         style="font-style:normal;font-weight:normal;font-size:10px;font-family:FreeSans"><tspan
           y="-1"
           x="0"
           id="tspan1626"
           style="fill:#262626">0</tspan></text>
      <text
         xml:space="preserve"
         transform="translate(57.8755,301.96)"
         font-weight="normal"
         font-style="normal"
         font-size="10"
         id="text1632"
         style="font-style:normal;font-weight:normal;font-size:10px;font-family:FreeSans"><tspan
           y="-1"
           x="0 6"
           id="tspan1630"
           style="fill:#262626">50</tspan></text>
      <text
         xml:space="preserve"
         transform="translate(51.8755,213.94)"
         font-weight="normal"
         font-style="normal"
         font-size="10"
         id="text1636"
         style="font-style:normal;font-weight:normal;font-size:10px;font-family:FreeSans"><tspan
           y="-1"
           x="0 6 12"
           id="tspan1634"
           style="fill:#262626">100</tspan></text>
      <text
         xml:space="preserve"
         transform="translate(51.8755,125.92)"
         font-weight="normal"
         font-style="normal"
         font-size="10"
         id="text1640"
         style="font-style:normal;font-weight:normal;font-size:10px;font-family:FreeSans"><tspan
           y="-1"
           x="0 6 12"
           id="tspan1638"
           style="fill:#262626">150</tspan></text>
      <text
         xml:space="preserve"
         transform="translate(51.8755,37.9)"
         font-weight="normal"
         font-style="normal"
         font-size="10"
         id="text1644"
         style="font-style:normal;font-weight:normal;font-size:10px;font-family:FreeSans"><tspan
           y="-1"
           x="0 6 12"
           id="tspan1642"
           style="fill:#262626">200</tspan></text>
      <polyline
         points="74.88,384.48 521.28,384.48"
         id="polyline1646"
         style="fill:none;stroke:#262626;stroke-width:0.5;stroke-linecap:square;stroke-linejoin:miter;stroke-dasharray:16, 0" />
      <polyline
         points="74.88,384.48 74.88,32.4"
         id="polyline1648"
         style="fill:none;stroke:#262626;stroke-width:0.5;stroke-linecap:square;stroke-linejoin:miter;stroke-dasharray:16, 0" />
      <text
         xml:space="preserve"
         transform="translate(254.58,413.481)"
         font-weight="normal"
         font-style="normal"
         font-size="11"
         id="text1652"
         style="font-style:normal;font-weight:normal;font-size:11px;font-family:FreeSans"><tspan
           y="-2"
           x="0 7 13 22 28 34 38 44 47 53 57 63 66 69 76 84"
           id="tspan1650"
           style="fill:#262626">Temperature [°C]</tspan></text>
      <text
         xml:space="preserve"
         transform="rotate(-90,145.90775,98.03225)"
         font-weight="normal"
         font-style="normal"
         font-size="11"
         id="text1656"
         style="font-style:normal;font-weight:normal;font-size:11px;font-family:FreeSans"><tspan
           y="-2"
           x="0 7 11 17 22 27 33 37 43 46 49 55 62 68"
           id="tspan1654"
           style="fill:#262626">Pressure [kPa]</tspan></text>
      <text
         xml:space="preserve"
         transform="translate(186.08,22.4)"
         font-weight="bold"
         font-style="normal"
         font-size="11"
         id="text1660"
         style="font-style:normal;font-weight:bold;font-size:11px;font-family:FreeSans"><tspan
           y="-2"
           x="0 7 13 20 27 31 34 41 45 51 57 63 70 74 80 83 87 93 100 106 110 113 119 125 128 131 138 144 154 161 167 171 177 181 188 192 198 201 205 212 220"
           id="tspan1658"
           style="fill:#000000">Vapor pressure (kPa) vs. Temperature (°C)</tspan></text>
      <polyline
         points="84.576,378.882 84.0031,380.645 82.5031,381.735 80.6489,381.735 79.1489,380.645 78.576,378.882 79.1489,377.119 80.6489,376.029 82.5031,376.029 84.0031,377.119 84.576,378.882"
         id="polyline1662"
         style="fill:none;stroke:#ff0000;stroke-width:0.5;stroke-linecap:round;stroke-linejoin:round" />
      <polyline
         points="124.752,374.833 124.179,376.596 122.679,377.686 120.825,377.686 119.325,376.596 118.752,374.833 119.325,373.07 120.825,371.98 122.679,371.98 124.179,373.07 124.752,374.833"
         id="polyline1664"
         style="fill:none;stroke:#ff0000;stroke-width:0.5;stroke-linecap:round;stroke-linejoin:round" />
      <polyline
         points="168.053,367.844 167.48,369.608 165.98,370.697 164.126,370.697 162.626,369.608 162.053,367.844 162.626,366.081 164.126,364.991 165.98,364.991 167.48,366.081 168.053,367.844"
         id="polyline1666"
         style="fill:none;stroke:#ff0000;stroke-width:0.5;stroke-linecap:round;stroke-linejoin:round" />
      <polyline
         points="219.835,354.729 219.262,356.493 217.762,357.582 215.908,357.582 214.408,356.493 213.835,354.729 214.408,352.966 215.908,351.876 217.762,351.876 219.262,352.966 219.835,354.729"
         id="polyline1668"
         style="fill:none;stroke:#ff0000;stroke-width:0.5;stroke-linecap:round;stroke-linejoin:round" />
      <polyline
         points="270.278,334.837 269.705,336.6 268.205,337.69 266.351,337.69 264.851,336.6 264.278,334.837 264.851,333.073 266.351,331.984 268.205,331.984 269.705,333.073 270.278,334.837"
         id="polyline1670"
         style="fill:none;stroke:#ff0000;stroke-width:0.5;stroke-linecap:round;stroke-linejoin:round" />
      <polyline
         points="313.133,310.719 312.56,312.483 311.06,313.572 309.206,313.572 307.706,312.483 307.133,310.719 307.706,308.956 309.206,307.866 311.06,307.866 312.56,308.956 313.133,310.719"
         id="polyline1672"
         style="fill:none;stroke:#ff0000;stroke-width:0.5;stroke-linecap:round;stroke-linejoin:round" />
      <polyline
         points="365.362,267.237 364.789,269.001 363.289,270.091 361.435,270.091 359.935,269.001 359.362,267.237 359.935,265.474 361.435,264.384 363.289,264.384 364.789,265.474 365.362,267.237"
         id="polyline1674"
         style="fill:none;stroke:#ff0000;stroke-width:0.5;stroke-linecap:round;stroke-linejoin:round" />
      <polyline
         points="399.734,226.924 399.161,228.688 397.661,229.777 395.807,229.777 394.307,228.688 393.734,226.924 394.307,225.161 395.807,224.071 397.661,224.071 399.161,225.161 399.734,226.924"
         id="polyline1676"
         style="fill:none;stroke:#ff0000;stroke-width:0.5;stroke-linecap:round;stroke-linejoin:round" />
      <polyline
         points="449.731,157.388 449.158,159.152 447.658,160.242 445.804,160.242 444.304,159.152 443.731,157.388 444.304,155.625 445.804,154.535 447.658,154.535 449.158,155.625 449.731,157.388"
         id="polyline1678"
         style="fill:none;stroke:#ff0000;stroke-width:0.5;stroke-linecap:round;stroke-linejoin:round" />
      <polyline
         points="504.192,55.2852 503.619,57.0486 502.119,58.1384 500.265,58.1384 498.765,57.0486 498.192,55.2852 498.765,53.5219 500.265,52.432 502.119,52.432 503.619,53.5219 504.192,55.2852"
         id="polyline1680"
         style="fill:none;stroke:#ff0000;stroke-width:0.5;stroke-linecap:round;stroke-linejoin:round" />
    </g>
  </g>
</svg>
