<?xml version="1.0" encoding="UTF-8" standalone="no"?>
<svg
   xmlns:dc="http://purl.org/dc/elements/1.1/"
   xmlns:cc="http://creativecommons.org/ns#"
   xmlns:rdf="http://www.w3.org/1999/02/22-rdf-syntax-ns#"
   xmlns:svg="http://www.w3.org/2000/svg"
   xmlns="http://www.w3.org/2000/svg"
   id="svg1245"
   version="1.1"
   viewBox="0 0 576 432"
   height="432pt"
   width="576pt">
  <title
     id="title1274">Vapor pressure example antoine equation</title>
  <metadata
     id="metadata1249">
    <rdf:RDF>
      <cc:Work
         rdf:about="">
        <dc:format>image/svg+xml</dc:format>
        <dc:type
           rdf:resource="http://purl.org/dc/dcmitype/StillImage" />
        <dc:title>Vapor pressure example antoine equation</dc:title>
        <cc:license
           rdf:resource="http://creativecommons.org/licenses/by-sa/4.0/" />
        <dc:creator>
          <cc:Agent>
            <dc:title>Steven Baltakatei Sandoval</dc:title>
          </cc:Agent>
        </dc:creator>
        <dc:date>2020-08-29</dc:date>
      </cc:Work>
      <cc:License
         rdf:about="http://creativecommons.org/licenses/by-sa/4.0/">
        <cc:permits
           rdf:resource="http://creativecommons.org/ns#Reproduction" />
        <cc:permits
           rdf:resource="http://creativecommons.org/ns#Distribution" />
        <cc:requires
           rdf:resource="http://creativecommons.org/ns#Notice" />
        <cc:requires
           rdf:resource="http://creativecommons.org/ns#Attribution" />
        <cc:permits
           rdf:resource="http://creativecommons.org/ns#DerivativeWorks" />
        <cc:requires
           rdf:resource="http://creativecommons.org/ns#ShareAlike" />
      </cc:License>
    </rdf:RDF>
  </metadata>
  <desc
     id="desc1062">
Creator: GL2PS 1.4.0, (C) 1999-2017 C. Geuzaine
For: Octave
CreationDate: Sat Aug 29 03:13:17 2020
</desc>
  <defs
     id="defs1064" />
  <polygon
     style="display:none;fill:#ffffff"
     id="polygon1066"
     points="576,432 0,432 0,0 576,0 " />
  <g
     id="g1243">
    <polygon
       style="display:none;fill:#ffffff;shape-rendering:crispEdges"
       id="polygon1068"
       points="576,432 576,0 0,0 0,432 " />
    <clipPath
       id="cp00576432">
      <polygon
         id="polygon1070"
         points="0,0 0,432 576,432 576,0 " />
    </clipPath>
    <g
       id="g1211"
       clip-path="url(#cp00576432)">
      <polygon
         style="fill:#ffffff;shape-rendering:crispEdges"
         id="polygon1073"
         points="521.28,384.48 74.88,32.4 74.88,384.48 " />
      <polygon
         style="fill:#ffffff;shape-rendering:crispEdges"
         id="polygon1075"
         points="521.28,32.4 74.88,32.4 521.28,384.48 " />
      <polyline
         style="fill:none;stroke:#262626;stroke-width:0.5;stroke-linecap:butt;stroke-linejoin:miter;stroke-dasharray:16, 0;stroke-opacity:0.15"
         id="polyline1077"
         points="74.88,384.48 74.88,32.4" />
      <polyline
         style="fill:none;stroke:#262626;stroke-width:0.5;stroke-linecap:butt;stroke-linejoin:miter;stroke-dasharray:16, 0;stroke-opacity:0.15"
         id="polyline1079"
         points="164.16,384.48 164.16,32.4" />
      <polyline
         style="fill:none;stroke:#262626;stroke-width:0.5;stroke-linecap:butt;stroke-linejoin:miter;stroke-dasharray:16, 0;stroke-opacity:0.15"
         id="polyline1081"
         points="253.44,384.48 253.44,32.4" />
      <polyline
         style="fill:none;stroke:#262626;stroke-width:0.5;stroke-linecap:butt;stroke-linejoin:miter;stroke-dasharray:16, 0;stroke-opacity:0.15"
         id="polyline1083"
         points="342.72,384.48 342.72,32.4" />
      <polyline
         style="fill:none;stroke:#262626;stroke-width:0.5;stroke-linecap:butt;stroke-linejoin:miter;stroke-dasharray:16, 0;stroke-opacity:0.15"
         id="polyline1085"
         points="432,384.48 432,32.4" />
      <polyline
         style="fill:none;stroke:#262626;stroke-width:0.5;stroke-linecap:butt;stroke-linejoin:miter;stroke-dasharray:16, 0;stroke-opacity:0.15"
         id="polyline1087"
         points="521.28,384.48 521.28,32.4" />
      <polyline
         style="fill:none;stroke:#262626;stroke-width:0.5;stroke-linecap:butt;stroke-linejoin:miter"
         id="polyline1089"
         points="74.88,384.48 74.88,380.015" />
      <polyline
         style="fill:none;stroke:#262626;stroke-width:0.5;stroke-linecap:butt;stroke-linejoin:miter"
         id="polyline1091"
         points="164.16,384.48 164.16,380.015" />
      <polyline
         style="fill:none;stroke:#262626;stroke-width:0.5;stroke-linecap:butt;stroke-linejoin:miter"
         id="polyline1093"
         points="253.44,384.48 253.44,380.015" />
      <polyline
         style="fill:none;stroke:#262626;stroke-width:0.5;stroke-linecap:butt;stroke-linejoin:miter"
         id="polyline1095"
         points="342.72,384.48 342.72,380.015" />
      <polyline
         style="fill:none;stroke:#262626;stroke-width:0.5;stroke-linecap:butt;stroke-linejoin:miter"
         id="polyline1097"
         points="432,384.48 432,380.015" />
      <polyline
         style="fill:none;stroke:#262626;stroke-width:0.5;stroke-linecap:butt;stroke-linejoin:miter"
         id="polyline1099"
         points="521.28,384.48 521.28,380.015" />
      <text
         style="font-style:normal;font-weight:normal;font-size:10px;font-family:FreeSans"
         id="text1103"
         font-size="10"
         font-style="normal"
         font-weight="normal"
         transform="translate(67.38,400.481)"
         xml:space="preserve"><tspan
           style="fill:#262626"
           id="tspan1101"
           x="0 3 9"
           y="-1">-20</tspan></text>
      <text
         style="font-style:normal;font-weight:normal;font-size:10px;font-family:FreeSans"
         id="text1107"
         font-size="10"
         font-style="normal"
         font-weight="normal"
         transform="translate(161.16,400.481)"
         xml:space="preserve"><tspan
           style="fill:#262626"
           id="tspan1105"
           x="0"
           y="-1">0</tspan></text>
      <text
         style="font-style:normal;font-weight:normal;font-size:10px;font-family:FreeSans"
         id="text1111"
         font-size="10"
         font-style="normal"
         font-weight="normal"
         transform="translate(247.44,400.481)"
         xml:space="preserve"><tspan
           style="fill:#262626"
           id="tspan1109"
           x="0 6"
           y="-1">20</tspan></text>
      <text
         style="font-style:normal;font-weight:normal;font-size:10px;font-family:FreeSans"
         id="text1115"
         font-size="10"
         font-style="normal"
         font-weight="normal"
         transform="translate(336.72,400.481)"
         xml:space="preserve"><tspan
           style="fill:#262626"
           id="tspan1113"
           x="0 6"
           y="-1">40</tspan></text>
      <text
         style="font-style:normal;font-weight:normal;font-size:10px;font-family:FreeSans"
         id="text1119"
         font-size="10"
         font-style="normal"
         font-weight="normal"
         transform="translate(426,400.481)"
         xml:space="preserve"><tspan
           style="fill:#262626"
           id="tspan1117"
           x="0 6"
           y="-1">60</tspan></text>
      <text
         style="font-style:normal;font-weight:normal;font-size:10px;font-family:FreeSans"
         id="text1123"
         font-size="10"
         font-style="normal"
         font-weight="normal"
         transform="translate(515.28,400.481)"
         xml:space="preserve"><tspan
           style="fill:#262626"
           id="tspan1121"
           x="0 6"
           y="-1">80</tspan></text>
      <polyline
         style="fill:none;stroke:#262626;stroke-width:0.5;stroke-linecap:butt;stroke-linejoin:miter;stroke-dasharray:16, 0;stroke-opacity:0.15"
         id="polyline1125"
         points="74.88,384.48 521.28,384.48" />
      <polyline
         style="fill:none;stroke:#262626;stroke-width:0.5;stroke-linecap:butt;stroke-linejoin:miter;stroke-dasharray:16, 0;stroke-opacity:0.15"
         id="polyline1127"
         points="74.88,314.064 521.28,314.064" />
      <polyline
         style="fill:none;stroke:#262626;stroke-width:0.5;stroke-linecap:butt;stroke-linejoin:miter;stroke-dasharray:16, 0;stroke-opacity:0.15"
         id="polyline1129"
         points="74.88,243.648 521.28,243.648" />
      <polyline
         style="fill:none;stroke:#262626;stroke-width:0.5;stroke-linecap:butt;stroke-linejoin:miter;stroke-dasharray:16, 0;stroke-opacity:0.15"
         id="polyline1131"
         points="74.88,173.232 521.28,173.232" />
      <polyline
         style="fill:none;stroke:#262626;stroke-width:0.5;stroke-linecap:butt;stroke-linejoin:miter;stroke-dasharray:16, 0;stroke-opacity:0.15"
         id="polyline1133"
         points="74.88,102.816 521.28,102.816" />
      <polyline
         style="fill:none;stroke:#262626;stroke-width:0.5;stroke-linecap:butt;stroke-linejoin:miter;stroke-dasharray:16, 0;stroke-opacity:0.15"
         id="polyline1135"
         points="74.88,32.4 521.28,32.4" />
      <polyline
         style="fill:none;stroke:#262626;stroke-width:0.5;stroke-linecap:butt;stroke-linejoin:miter"
         id="polyline1137"
         points="74.88,384.48 79.348,384.48" />
      <polyline
         style="fill:none;stroke:#262626;stroke-width:0.5;stroke-linecap:butt;stroke-linejoin:miter"
         id="polyline1139"
         points="74.88,314.064 79.348,314.064" />
      <polyline
         style="fill:none;stroke:#262626;stroke-width:0.5;stroke-linecap:butt;stroke-linejoin:miter"
         id="polyline1141"
         points="74.88,243.648 79.348,243.648" />
      <polyline
         style="fill:none;stroke:#262626;stroke-width:0.5;stroke-linecap:butt;stroke-linejoin:miter"
         id="polyline1143"
         points="74.88,173.232 79.348,173.232" />
      <polyline
         style="fill:none;stroke:#262626;stroke-width:0.5;stroke-linecap:butt;stroke-linejoin:miter"
         id="polyline1145"
         points="74.88,102.816 79.348,102.816" />
      <polyline
         style="fill:none;stroke:#262626;stroke-width:0.5;stroke-linecap:butt;stroke-linejoin:miter"
         id="polyline1147"
         points="74.88,32.4 79.348,32.4" />
      <text
         style="font-style:normal;font-weight:normal;font-size:10px;font-family:FreeSans"
         id="text1151"
         font-size="10"
         font-style="normal"
         font-weight="normal"
         transform="translate(63.8755,389.98)"
         xml:space="preserve"><tspan
           style="fill:#262626"
           id="tspan1149"
           x="0"
           y="-1">0</tspan></text>
      <text
         style="font-style:normal;font-weight:normal;font-size:10px;font-family:FreeSans"
         id="text1155"
         font-size="10"
         font-style="normal"
         font-weight="normal"
         transform="translate(57.8755,319.564)"
         xml:space="preserve"><tspan
           style="fill:#262626"
           id="tspan1153"
           x="0 6"
           y="-1">50</tspan></text>
      <text
         style="font-style:normal;font-weight:normal;font-size:10px;font-family:FreeSans"
         id="text1159"
         font-size="10"
         font-style="normal"
         font-weight="normal"
         transform="translate(51.8755,249.148)"
         xml:space="preserve"><tspan
           style="fill:#262626"
           id="tspan1157"
           x="0 6 12"
           y="-1">100</tspan></text>
      <text
         style="font-style:normal;font-weight:normal;font-size:10px;font-family:FreeSans"
         id="text1163"
         font-size="10"
         font-style="normal"
         font-weight="normal"
         transform="translate(51.8755,178.732)"
         xml:space="preserve"><tspan
           style="fill:#262626"
           id="tspan1161"
           x="0 6 12"
           y="-1">150</tspan></text>
      <text
         style="font-style:normal;font-weight:normal;font-size:10px;font-family:FreeSans"
         id="text1167"
         font-size="10"
         font-style="normal"
         font-weight="normal"
         transform="translate(51.8755,108.316)"
         xml:space="preserve"><tspan
           style="fill:#262626"
           id="tspan1165"
           x="0 6 12"
           y="-1">200</tspan></text>
      <text
         style="font-style:normal;font-weight:normal;font-size:10px;font-family:FreeSans"
         id="text1171"
         font-size="10"
         font-style="normal"
         font-weight="normal"
         transform="translate(51.8755,37.9)"
         xml:space="preserve"><tspan
           style="fill:#262626"
           id="tspan1169"
           x="0 6 12"
           y="-1">250</tspan></text>
      <polyline
         style="fill:none;stroke:#262626;stroke-width:0.5;stroke-linecap:square;stroke-linejoin:miter;stroke-dasharray:16, 0"
         id="polyline1173"
         points="74.88,384.48 521.28,384.48" />
      <polyline
         style="fill:none;stroke:#262626;stroke-width:0.5;stroke-linecap:square;stroke-linejoin:miter;stroke-dasharray:16, 0"
         id="polyline1175"
         points="74.88,384.48 74.88,32.4" />
      <text
         style="font-style:normal;font-weight:normal;font-size:11px;font-family:FreeSans"
         id="text1179"
         font-size="11"
         font-style="normal"
         font-weight="normal"
         transform="translate(254.58,413.481)"
         xml:space="preserve"><tspan
           style="fill:#262626"
           id="tspan1177"
           x="0 7 13 22 28 34 38 44 47 53 57 63 66 69 76 84"
           y="-2">Temperature [°C]</tspan></text>
      <text
         style="font-style:normal;font-weight:normal;font-size:11px;font-family:FreeSans"
         id="text1183"
         font-size="11"
         font-style="normal"
         font-weight="normal"
         transform="rotate(-90,145.90775,98.03225)"
         xml:space="preserve"><tspan
           style="fill:#262626"
           id="tspan1181"
           x="0 7 11 17 22 27 33 37 43 46 49 55 62 68"
           y="-2">Pressure [kPa]</tspan></text>
      <text
         style="font-style:normal;font-weight:bold;font-size:11px;font-family:FreeSans"
         id="text1187"
         font-size="11"
         font-style="normal"
         font-weight="bold"
         transform="translate(186.08,22.4)"
         xml:space="preserve"><tspan
           style="fill:#000000"
           id="tspan1185"
           x="0 7 13 20 27 31 34 41 45 51 57 63 70 74 80 83 87 93 100 106 110 113 119 125 128 131 138 144 154 161 167 171 177 181 188 192 198 201 205 212 220"
           y="-2">Vapor pressure (kPa) vs. Temperature (°C)</tspan></text>
      <polyline
         style="fill:none;stroke:#ff0000;stroke-width:0.5;stroke-linecap:round;stroke-linejoin:round"
         id="polyline1189"
         points="84.576,380.002 84.0031,381.765 82.5031,382.855 80.6489,382.855 79.1489,381.765 78.576,380.002 79.1489,378.238 80.6489,377.148 82.5031,377.148 84.0031,378.238 84.576,380.002" />
      <polyline
         style="fill:none;stroke:#ff0000;stroke-width:0.5;stroke-linecap:round;stroke-linejoin:round"
         id="polyline1191"
         points="124.752,376.762 124.179,378.526 122.679,379.616 120.825,379.616 119.325,378.526 118.752,376.762 119.325,374.999 120.825,373.909 122.679,373.909 124.179,374.999 124.752,376.762" />
      <polyline
         style="fill:none;stroke:#ff0000;stroke-width:0.5;stroke-linecap:round;stroke-linejoin:round"
         id="polyline1193"
         points="168.053,371.171 167.48,372.935 165.98,374.025 164.126,374.025 162.626,372.935 162.053,371.171 162.626,369.408 164.126,368.318 165.98,368.318 167.48,369.408 168.053,371.171" />
      <polyline
         style="fill:none;stroke:#ff0000;stroke-width:0.5;stroke-linecap:round;stroke-linejoin:round"
         id="polyline1195"
         points="219.835,360.679 219.262,362.443 217.762,363.533 215.908,363.533 214.408,362.443 213.835,360.679 214.408,358.916 215.908,357.826 217.762,357.826 219.262,358.916 219.835,360.679" />
      <polyline
         style="fill:none;stroke:#ff0000;stroke-width:0.5;stroke-linecap:round;stroke-linejoin:round"
         id="polyline1197"
         points="270.278,344.765 269.705,346.529 268.205,347.619 266.351,347.619 264.851,346.529 264.278,344.765 264.851,343.002 266.351,341.912 268.205,341.912 269.705,343.002 270.278,344.765" />
      <polyline
         style="fill:none;stroke:#ff0000;stroke-width:0.5;stroke-linecap:round;stroke-linejoin:round"
         id="polyline1199"
         points="313.133,325.471 312.56,327.235 311.06,328.325 309.206,328.325 307.706,327.235 307.133,325.471 307.706,323.708 309.206,322.618 311.06,322.618 312.56,323.708 313.133,325.471" />
      <polyline
         style="fill:none;stroke:#ff0000;stroke-width:0.5;stroke-linecap:round;stroke-linejoin:round"
         id="polyline1201"
         points="365.362,290.686 364.789,292.449 363.289,293.539 361.435,293.539 359.935,292.449 359.362,290.686 359.935,288.923 361.435,287.833 363.289,287.833 364.789,288.923 365.362,290.686" />
      <polyline
         style="fill:none;stroke:#ff0000;stroke-width:0.5;stroke-linecap:round;stroke-linejoin:round"
         id="polyline1203"
         points="399.734,258.435 399.161,260.199 397.661,261.289 395.807,261.289 394.307,260.199 393.734,258.435 394.307,256.672 395.807,255.582 397.661,255.582 399.161,256.672 399.734,258.435" />
      <polyline
         style="fill:none;stroke:#ff0000;stroke-width:0.5;stroke-linecap:round;stroke-linejoin:round"
         id="polyline1205"
         points="449.731,202.807 449.158,204.57 447.658,205.66 445.804,205.66 444.304,204.57 443.731,202.807 444.304,201.043 445.804,199.954 447.658,199.954 449.158,201.043 449.731,202.807" />
      <polyline
         style="fill:none;stroke:#ff0000;stroke-width:0.5;stroke-linecap:round;stroke-linejoin:round"
         id="polyline1207"
         points="504.192,121.124 503.619,122.888 502.119,123.977 500.265,123.977 498.765,122.888 498.192,121.124 498.765,119.361 500.265,118.271 502.119,118.271 503.619,119.361 504.192,121.124" />
      <polyline
         style="fill:none;stroke:#0071bc;stroke-width:0.5;stroke-linecap:butt;stroke-linejoin:round"
         id="polyline1209"
         points="74.88,380.407 75.3264,380.381 75.7728,380.355 76.2192,380.329 76.6656,380.302 77.112,380.275 77.5584,380.248 78.0048,380.221 78.4512,380.194 78.8976,380.167 79.344,380.139 79.7904,380.112 80.2368,380.084 80.6832,380.056 81.1296,380.028 81.576,380 82.0224,379.972 82.4688,379.943 82.9152,379.914 83.3616,379.886 83.808,379.857 84.2544,379.828 84.7008,379.798 85.1472,379.769 85.5936,379.739 86.04,379.71 86.4864,379.68 86.9328,379.65 87.3792,379.62 87.8256,379.589 88.272,379.559 88.7184,379.528 89.1648,379.497 89.6112,379.466 90.0576,379.435 90.504,379.404 90.9504,379.372 91.3968,379.34 91.8432,379.309 92.2896,379.277 92.736,379.244 93.1824,379.212 93.6288,379.18 94.0752,379.147 94.5216,379.114 94.968,379.081 95.4144,379.048 95.8608,379.014 96.3072,378.981 96.7536,378.947 97.2,378.913 97.6464,378.879 98.0928,378.845 98.5392,378.811 98.9856,378.776 99.432,378.741 99.8784,378.706 100.325,378.671 100.771,378.636 101.218,378.6 101.664,378.565 102.11,378.529 102.557,378.493 103.003,378.457 103.45,378.42 103.896,378.384 104.342,378.347 104.789,378.31 105.235,378.273 105.682,378.236 106.128,378.198 106.574,378.16 107.021,378.122 107.467,378.084 107.914,378.046 108.36,378.008 108.806,377.969 109.253,377.93 109.699,377.891 110.146,377.852 110.592,377.812 111.038,377.773 111.485,377.733 111.931,377.693 112.378,377.652 112.824,377.612 113.27,377.571 113.717,377.531 114.163,377.49 114.61,377.448 115.056,377.407 115.502,377.365 115.949,377.323 116.395,377.281 116.842,377.239 117.288,377.196 117.734,377.154 118.181,377.111 118.627,377.068 119.074,377.024 119.52,376.981 119.966,376.937 120.413,376.893 120.859,376.849 121.306,376.804 121.752,376.76 122.198,376.715 122.645,376.67 123.091,376.625 123.538,376.579 123.984,376.533 124.43,376.487 124.877,376.441 125.323,376.395 125.77,376.348 126.216,376.301 126.662,376.254 127.109,376.207 127.555,376.159 128.002,376.112 128.448,376.064 128.894,376.015 129.341,375.967 129.787,375.918 130.234,375.869 130.68,375.82 131.126,375.771 131.573,375.721 132.019,375.671 132.466,375.621 132.912,375.571 133.358,375.52 133.805,375.47 134.251,375.419 134.698,375.367 135.144,375.316 135.59,375.264 136.037,375.212 136.483,375.16 136.93,375.107 137.376,375.054 137.822,375.001 138.269,374.948 138.715,374.895 139.162,374.841 139.608,374.787 140.054,374.732 140.501,374.678 140.947,374.623 141.394,374.568 141.84,374.513 142.286,374.457 142.733,374.401 143.179,374.345 143.626,374.289 144.072,374.232 144.518,374.176 144.965,374.119 145.411,374.061 145.858,374.003 146.304,373.946 146.75,373.887 147.197,373.829 147.643,373.77 148.09,373.711 148.536,373.652 148.982,373.592 149.429,373.533 149.875,373.473 150.322,373.412 150.768,373.352 151.214,373.291 151.661,373.229 152.107,373.168 152.554,373.106 153,373.044 153.446,372.982 153.893,372.919 154.339,372.856 154.786,372.793 155.232,372.73 155.678,372.666 156.125,372.602 156.571,372.538 157.018,372.473 157.464,372.408 157.91,372.343 158.357,372.277 158.803,372.212 159.25,372.146 159.696,372.079 160.142,372.013 160.589,371.946 161.035,371.878 161.482,371.811 161.928,371.743 162.374,371.675 162.821,371.606 163.267,371.537 163.714,371.468 164.16,371.399 164.606,371.329 165.053,371.259 165.499,371.189 165.946,371.118 166.392,371.047 166.838,370.976 167.285,370.905 167.731,370.833 168.178,370.76 168.624,370.688 169.07,370.615 169.517,370.542 169.963,370.468 170.41,370.395 170.856,370.32 171.302,370.246 171.749,370.171 172.195,370.096 172.642,370.021 173.088,369.945 173.534,369.869 173.981,369.792 174.427,369.716 174.874,369.639 175.32,369.561 175.766,369.483 176.213,369.405 176.659,369.327 177.106,369.248 177.552,369.169 177.998,369.09 178.445,369.01 178.891,368.93 179.338,368.849 179.784,368.768 180.23,368.687 180.677,368.606 181.123,368.524 181.57,368.442 182.016,368.359 182.462,368.276 182.909,368.193 183.355,368.109 183.802,368.025 184.248,367.941 184.694,367.856 185.141,367.771 185.587,367.686 186.034,367.6 186.48,367.514 186.926,367.427 187.373,367.34 187.819,367.253 188.266,367.165 188.712,367.077 189.158,366.989 189.605,366.9 190.051,366.811 190.498,366.722 190.944,366.632 191.39,366.542 191.837,366.451 192.283,366.36 192.73,366.269 193.176,366.177 193.622,366.085 194.069,365.992 194.515,365.899 194.962,365.806 195.408,365.713 195.854,365.618 196.301,365.524 196.747,365.429 197.194,365.334 197.64,365.238 198.086,365.142 198.533,365.046 198.979,364.949 199.426,364.852 199.872,364.754 200.318,364.656 200.765,364.558 201.211,364.459 201.658,364.36 202.104,364.26 202.55,364.16 202.997,364.06 203.443,363.959 203.89,363.858 204.336,363.756 204.782,363.654 205.229,363.551 205.675,363.448 206.122,363.345 206.568,363.241 207.014,363.137 207.461,363.032 207.907,362.927 208.354,362.822 208.8,362.716 209.246,362.61 209.693,362.503 210.139,362.396 210.586,362.288 211.032,362.18 211.478,362.072 211.925,361.963 212.371,361.854 212.818,361.744 213.264,361.634 213.71,361.523 214.157,361.412 214.603,361.3 215.05,361.188 215.496,361.076 215.942,360.963 216.389,360.85 216.835,360.736 217.282,360.622 217.728,360.507 218.174,360.392 218.621,360.276 219.067,360.16 219.514,360.044 219.96,359.927 220.406,359.809 220.853,359.692 221.299,359.573 221.746,359.454 222.192,359.335 222.638,359.215 223.085,359.095 223.531,358.974 223.978,358.853 224.424,358.732 224.87,358.61 225.317,358.487 225.763,358.364 226.21,358.24 226.656,358.116 227.102,357.992 227.549,357.867 227.995,357.741 228.442,357.616 228.888,357.489 229.334,357.362 229.781,357.235 230.227,357.107 230.674,356.978 231.12,356.85 231.566,356.72 232.013,356.59 232.459,356.46 232.906,356.329 233.352,356.198 233.798,356.066 234.245,355.933 234.691,355.8 235.138,355.667 235.584,355.533 236.03,355.399 236.477,355.264 236.923,355.128 237.37,354.992 237.816,354.856 238.262,354.719 238.709,354.581 239.155,354.443 239.602,354.305 240.048,354.165 240.494,354.026 240.941,353.886 241.387,353.745 241.834,353.604 242.28,353.462 242.726,353.32 243.173,353.177 243.619,353.034 244.066,352.89 244.512,352.745 244.958,352.6 245.405,352.455 245.851,352.309 246.298,352.162 246.744,352.015 247.19,351.867 247.637,351.719 248.083,351.57 248.53,351.421 248.976,351.271 249.422,351.121 249.869,350.97 250.315,350.818 250.762,350.666 251.208,350.513 251.654,350.36 252.101,350.206 252.547,350.052 252.994,349.897 253.44,349.741 253.886,349.585 254.333,349.428 254.779,349.271 255.226,349.113 255.672,348.955 256.118,348.796 256.565,348.636 257.011,348.476 257.458,348.315 257.904,348.154 258.35,347.992 258.797,347.83 259.243,347.667 259.69,347.503 260.136,347.339 260.582,347.174 261.029,347.008 261.475,346.842 261.922,346.675 262.368,346.508 262.814,346.34 263.261,346.172 263.707,346.003 264.154,345.833 264.6,345.663 265.046,345.492 265.493,345.32 265.939,345.148 266.386,344.975 266.832,344.802 267.278,344.628 267.725,344.453 268.171,344.278 268.618,344.102 269.064,343.926 269.51,343.748 269.957,343.571 270.403,343.392 270.85,343.213 271.296,343.034 271.742,342.853 272.189,342.672 272.635,342.491 273.082,342.308 273.528,342.126 273.974,341.942 274.421,341.758 274.867,341.573 275.314,341.388 275.76,341.201 276.206,341.015 276.653,340.827 277.099,340.639 277.546,340.45 277.992,340.261 278.438,340.071 278.885,339.88 279.331,339.689 279.778,339.497 280.224,339.304 280.67,339.111 281.117,338.916 281.563,338.722 282.01,338.526 282.456,338.33 282.902,338.133 283.349,337.936 283.795,337.738 284.242,337.539 284.688,337.339 285.134,337.139 285.581,336.938 286.027,336.736 286.474,336.534 286.92,336.331 287.366,336.127 287.813,335.923 288.259,335.718 288.706,335.512 289.152,335.306 289.598,335.098 290.045,334.891 290.491,334.682 290.938,334.473 291.384,334.262 291.83,334.052 292.277,333.84 292.723,333.628 293.17,333.415 293.616,333.201 294.062,332.987 294.509,332.772 294.955,332.556 295.402,332.339 295.848,332.122 296.294,331.904 296.741,331.685 297.187,331.466 297.634,331.246 298.08,331.025 298.526,330.803 298.973,330.58 299.419,330.357 299.866,330.133 300.312,329.908 300.758,329.683 301.205,329.457 301.651,329.23 302.098,329.002 302.544,328.773 302.99,328.544 303.437,328.314 303.883,328.083 304.33,327.852 304.776,327.619 305.222,327.386 305.669,327.152 306.115,326.918 306.562,326.682 307.008,326.446 307.454,326.209 307.901,325.971 308.347,325.733 308.794,325.493 309.24,325.253 309.686,325.012 310.133,324.77 310.579,324.528 311.026,324.285 311.472,324.041 311.918,323.796 312.365,323.55 312.811,323.303 313.258,323.056 313.704,322.808 314.15,322.559 314.597,322.309 315.043,322.059 315.49,321.807 315.936,321.555 316.382,321.302 316.829,321.048 317.275,320.794 317.722,320.538 318.168,320.282 318.614,320.025 319.061,319.767 319.507,319.508 319.954,319.248 320.4,318.988 320.846,318.726 321.293,318.464 321.739,318.201 322.186,317.937 322.632,317.673 323.078,317.407 323.525,317.141 323.971,316.873 324.418,316.605 324.864,316.336 325.31,316.067 325.757,315.796 326.203,315.524 326.65,315.252 327.096,314.979 327.542,314.705 327.989,314.43 328.435,314.154 328.882,313.877 329.328,313.599 329.774,313.321 330.221,313.041 330.667,312.761 331.114,312.48 331.56,312.198 332.006,311.915 332.453,311.631 332.899,311.346 333.346,311.061 333.792,310.774 334.238,310.487 334.685,310.198 335.131,309.909 335.578,309.619 336.024,309.328 336.47,309.036 336.917,308.743 337.363,308.449 337.81,308.155 338.256,307.859 338.702,307.563 339.149,307.265 339.595,306.967 340.042,306.667 340.488,306.367 340.934,306.066 341.381,305.764 341.827,305.461 342.274,305.157 342.72,304.852 343.166,304.546 343.613,304.239 344.059,303.932 344.506,303.623 344.952,303.313 345.398,303.003 345.845,302.691 346.291,302.379 346.738,302.065 347.184,301.751 347.63,301.436 348.077,301.119 348.523,300.802 348.97,300.484 349.416,300.164 349.862,299.844 350.309,299.523 350.755,299.201 351.202,298.878 351.648,298.554 352.094,298.228 352.541,297.902 352.987,297.575 353.434,297.247 353.88,296.918 354.326,296.588 354.773,296.257 355.219,295.925 355.666,295.592 356.112,295.258 356.558,294.923 357.005,294.587 357.451,294.25 357.898,293.912 358.344,293.572 358.79,293.232 359.237,292.891 359.683,292.549 360.13,292.206 360.576,291.862 361.022,291.516 361.469,291.17 361.915,290.823 362.362,290.474 362.808,290.125 363.254,289.775 363.701,289.423 364.147,289.071 364.594,288.717 365.04,288.363 365.486,288.007 365.933,287.65 366.379,287.293 366.826,286.934 367.272,286.574 367.718,286.213 368.165,285.851 368.611,285.488 369.058,285.124 369.504,284.759 369.95,284.393 370.397,284.025 370.843,283.657 371.29,283.287 371.736,282.917 372.182,282.545 372.629,282.172 373.075,281.799 373.522,281.424 373.968,281.048 374.414,280.671 374.861,280.292 375.307,279.913 375.754,279.533 376.2,279.151 376.646,278.769 377.093,278.385 377.539,278 377.986,277.614 378.432,277.227 378.878,276.839 379.325,276.45 379.771,276.059 380.218,275.668 380.664,275.275 381.11,274.881 381.557,274.487 382.003,274.09 382.45,273.693 382.896,273.295 383.342,272.896 383.789,272.495 384.235,272.093 384.682,271.69 385.128,271.286 385.574,270.881 386.021,270.475 386.467,270.067 386.914,269.659 387.36,269.249 387.806,268.838 388.253,268.426 388.699,268.012 389.146,267.598 389.592,267.182 390.038,266.765 390.485,266.347 390.931,265.928 391.378,265.508 391.824,265.086 392.27,264.663 392.717,264.239 393.163,263.814 393.61,263.388 394.056,262.96 394.502,262.532 394.949,262.102 395.395,261.671 395.842,261.238 396.288,260.805 396.734,260.37 397.181,259.934 397.627,259.497 398.074,259.058 398.52,258.619 398.966,258.178 399.413,257.736 399.859,257.293 400.306,256.848 400.752,256.402 401.198,255.955 401.645,255.507 402.091,255.058 402.538,254.607 402.984,254.155 403.43,253.702 403.877,253.247 404.323,252.791 404.77,252.334 405.216,251.876 405.662,251.417 406.109,250.956 406.555,250.494 407.002,250.031 407.448,249.566 407.894,249.1 408.341,248.633 408.787,248.165 409.234,247.695 409.68,247.224 410.126,246.752 410.573,246.279 411.019,245.804 411.466,245.328 411.912,244.85 412.358,244.372 412.805,243.892 413.251,243.41 413.698,242.928 414.144,242.444 414.59,241.959 415.037,241.472 415.483,240.985 415.93,240.495 416.376,240.005 416.822,239.513 417.269,239.02 417.715,238.526 418.162,238.03 418.608,237.533 419.054,237.034 419.501,236.535 419.947,236.034 420.394,235.531 420.84,235.027 421.286,234.522 421.733,234.016 422.179,233.508 422.626,232.999 423.072,232.488 423.518,231.976 423.965,231.463 424.411,230.949 424.858,230.433 425.304,229.915 425.75,229.397 426.197,228.876 426.643,228.355 427.09,227.832 427.536,227.308 427.982,226.782 428.429,226.255 428.875,225.727 429.322,225.197 429.768,224.666 430.214,224.133 430.661,223.599 431.107,223.064 431.554,222.527 432,221.989 432.446,221.45 432.893,220.909 433.339,220.366 433.786,219.822 434.232,219.277 434.678,218.73 435.125,218.182 435.571,217.633 436.018,217.082 436.464,216.529 436.91,215.976 437.357,215.42 437.803,214.864 438.25,214.305 438.696,213.746 439.142,213.185 439.589,212.622 440.035,212.058 440.482,211.493 440.928,210.926 441.374,210.358 441.821,209.788 442.267,209.217 442.714,208.644 443.16,208.07 443.606,207.494 444.053,206.917 444.499,206.338 444.946,205.758 445.392,205.177 445.838,204.594 446.285,204.009 446.731,203.423 447.178,202.835 447.624,202.246 448.07,201.656 448.517,201.064 448.963,200.47 449.41,199.875 449.856,199.279 450.302,198.681 450.749,198.081 451.195,197.48 451.642,196.877 452.088,196.273 452.534,195.667 452.981,195.06 453.427,194.451 453.874,193.841 454.32,193.229 454.766,192.616 455.213,192.001 455.659,191.384 456.106,190.766 456.552,190.147 456.998,189.526 457.445,188.903 457.891,188.279 458.338,187.653 458.784,187.025 459.23,186.397 459.677,185.766 460.123,185.134 460.57,184.5 461.016,183.865 461.462,183.228 461.909,182.59 462.355,181.95 462.802,181.308 463.248,180.665 463.694,180.02 464.141,179.374 464.587,178.726 465.034,178.077 465.48,177.425 465.926,176.773 466.373,176.118 466.819,175.462 467.266,174.805 467.712,174.145 468.158,173.485 468.605,172.822 469.051,172.158 469.498,171.492 469.944,170.825 470.39,170.156 470.837,169.485 471.283,168.813 471.73,168.139 472.176,167.464 472.622,166.786 473.069,166.108 473.515,165.427 473.962,164.745 474.408,164.061 474.854,163.376 475.301,162.688 475.747,162 476.194,161.309 476.64,160.617 477.086,159.923 477.533,159.228 477.979,158.53 478.426,157.831 478.872,157.131 479.318,156.429 479.765,155.725 480.211,155.019 480.658,154.312 481.104,153.603 481.55,152.892 481.997,152.179 482.443,151.465 482.89,150.749 483.336,150.032 483.782,149.312 484.229,148.591 484.675,147.869 485.122,147.144 485.568,146.418 486.014,145.69 486.461,144.96 486.907,144.229 487.354,143.496 487.8,142.761 488.246,142.024 488.693,141.286 489.139,140.546 489.586,139.804 490.032,139.06 490.478,138.314 490.925,137.567 491.371,136.818 491.818,136.068 492.264,135.315 492.71,134.561 493.157,133.805 493.603,133.047 494.05,132.287 494.496,131.526 494.942,130.763 495.389,129.998 495.835,129.231 496.282,128.463 496.728,127.692 497.174,126.92 497.621,126.146 498.067,125.37 498.514,124.593 498.96,123.813 499.406,123.032 499.853,122.249 500.299,121.464 500.746,120.678 501.192,119.889 501.638,119.099 502.085,118.307 502.531,117.513 502.978,116.717 503.424,115.919 503.87,115.12 504.317,114.318 504.763,113.515 505.21,112.71 505.656,111.903 506.102,111.094 506.549,110.283 506.995,109.471 507.442,108.656 507.888,107.84 508.334,107.022 508.781,106.202 509.227,105.38 509.674,104.556 510.12,103.731 510.566,102.903 511.013,102.074 511.459,101.242 511.906,100.409 512.352,99.574 512.798,98.737 513.245,97.8981 513.691,97.0573 514.138,96.2145 514.584,95.3698 515.03,94.5232 515.477,93.6747 515.923,92.8243 516.37,91.9719 516.816,91.1176 517.262,90.2614 517.709,89.4033 518.155,88.5432 518.602,87.6812 519.048,86.8172 519.494,85.9513 519.941,85.0834 520.387,84.2136 520.834,83.3418 521.28,82.4681" />
    </g>
    <clipPath
       id="clipPath1215">
      <polygon
         id="polygon1213"
         points="0,0 0,432 576,432 576,0 " />
    </clipPath>
    <g
       id="g1241"
       clip-path="url(#cp00576432)">
      <polygon
         style="fill:#ffffff;shape-rendering:crispEdges"
         id="polygon1217"
         points="518.659,62.8909 394.455,35.0208 394.455,62.8909 " />
      <polygon
         style="fill:#ffffff;shape-rendering:crispEdges"
         id="polygon1219"
         points="518.659,35.0208 394.455,35.0208 518.659,62.8909 " />
      <polyline
         style="fill:none;stroke:#262626;stroke-width:0.5;stroke-linecap:square;stroke-linejoin:miter;stroke-dasharray:16, 0"
         id="polyline1221"
         points="394.455,62.8909 518.659,62.8909" />
      <polyline
         style="fill:none;stroke:#262626;stroke-width:0.5;stroke-linecap:square;stroke-linejoin:miter;stroke-dasharray:16, 0"
         id="polyline1223"
         points="394.455,35.0208 518.659,35.0208" />
      <polyline
         style="fill:none;stroke:#262626;stroke-width:0.5;stroke-linecap:square;stroke-linejoin:miter;stroke-dasharray:16, 0"
         id="polyline1225"
         points="394.455,62.8909 394.455,35.0208" />
      <polyline
         style="fill:none;stroke:#262626;stroke-width:0.5;stroke-linecap:square;stroke-linejoin:miter;stroke-dasharray:16, 0"
         id="polyline1227"
         points="518.659,62.8909 518.659,35.0208" />
      <text
         style="font-style:normal;font-weight:normal;font-size:9px;font-family:FreeSans"
         id="text1231"
         font-size="9"
         font-style="normal"
         font-weight="normal"
         transform="translate(419.353,47.4883)"
         xml:space="preserve"><tspan
           style="fill:#000000"
           id="tspan1229"
           x="0 7 12 17 21 26 29 34 41 46 51 54"
           y="-1">measurements</tspan></text>
      <text
         style="font-style:normal;font-weight:normal;font-size:9px;font-family:FreeSans"
         id="text1235"
         font-size="9"
         font-style="normal"
         font-weight="normal"
         transform="translate(419.353,61.4234)"
         xml:space="preserve"><tspan
           style="fill:#000000"
           id="tspan1233"
           x="0 6 11 14 19 21 26 31 33 38 43 48 53 56 58 63 68 70 77 82 87 92"
           y="-1">Antoine equation model</tspan></text>
      <polyline
         style="fill:none;stroke:#ff0000;stroke-width:0.5;stroke-linecap:round;stroke-linejoin:round"
         id="polyline1237"
         points="409.904,41.9883 409.331,43.7517 407.831,44.8415 405.977,44.8415 404.477,43.7517 403.904,41.9883 404.477,40.225 405.977,39.1352 407.831,39.1352 409.331,40.225 409.904,41.9883" />
      <polyline
         style="fill:none;stroke:#0071bc;stroke-width:0.5;stroke-linecap:butt;stroke-linejoin:round"
         id="polyline1239"
         points="397.076,55.9234 416.732,55.9234" />
    </g>
  </g>
</svg>
