%!PS-Adobe-3.0 EPSF-3.0
%%Creator: cairo 1.16.0 (https://cairographics.org)
%%CreationDate: Tue Sep 15 03:51:29 2020
%%Pages: 1
%%DocumentData: Clean7Bit
%%LanguageLevel: 3
%%BoundingBox: 0 0 424 598
%%EndComments
%%BeginProlog
50 dict begin
/q { gsave } bind def
/Q { grestore } bind def
/cm { 6 array astore concat } bind def
/w { setlinewidth } bind def
/J { setlinecap } bind def
/j { setlinejoin } bind def
/M { setmiterlimit } bind def
/d { setdash } bind def
/m { moveto } bind def
/l { lineto } bind def
/c { curveto } bind def
/h { closepath } bind def
/re { exch dup neg 3 1 roll 5 3 roll moveto 0 rlineto
      0 exch rlineto 0 rlineto closepath } bind def
/S { stroke } bind def
/f { fill } bind def
/f* { eofill } bind def
/n { newpath } bind def
/W { clip } bind def
/W* { eoclip } bind def
/BT { } bind def
/ET { } bind def
/BDC { mark 3 1 roll /BDC pdfmark } bind def
/EMC { mark /EMC pdfmark } bind def
/cairo_store_point { /cairo_point_y exch def /cairo_point_x exch def } def
/Tj { show currentpoint cairo_store_point } bind def
/TJ {
  {
    dup
    type /stringtype eq
    { show } { -0.001 mul 0 cairo_font_matrix dtransform rmoveto } ifelse
  } forall
  currentpoint cairo_store_point
} bind def
/cairo_selectfont { cairo_font_matrix aload pop pop pop 0 0 6 array astore
    cairo_font exch selectfont cairo_point_x cairo_point_y moveto } bind def
/Tf { pop /cairo_font exch def /cairo_font_matrix where
      { pop cairo_selectfont } if } bind def
/Td { matrix translate cairo_font_matrix matrix concatmatrix dup
      /cairo_font_matrix exch def dup 4 get exch 5 get cairo_store_point
      /cairo_font where { pop cairo_selectfont } if } bind def
/Tm { 2 copy 8 2 roll 6 array astore /cairo_font_matrix exch def
      cairo_store_point /cairo_font where { pop cairo_selectfont } if } bind def
/g { setgray } bind def
/rg { setrgbcolor } bind def
/d1 { setcachedevice } bind def
/cairo_data_source {
  CairoDataIndex CairoData length lt
    { CairoData CairoDataIndex get /CairoDataIndex CairoDataIndex 1 add def }
    { () } ifelse
} def
/cairo_flush_ascii85_file { cairo_ascii85_file status { cairo_ascii85_file flushfile } if } def
/cairo_image { image cairo_flush_ascii85_file } def
/cairo_imagemask { imagemask cairo_flush_ascii85_file } def
%%EndProlog
%%BeginSetup
%%EndSetup
%%Page: 1 1
%%BeginPageSetup
%%PageBoundingBox: 0 0 424 598
%%EndPageSetup
q 0 0 424 598 rectclip
1 0 0 -1 0 598 cm q
0.776471 0.843137 0.972549 rg
1.418 1.418 420.297 594.418 re f
0 g
2.834646 w
1 J
0 j
[] 0.0 d
4 M q 1 0 0 1 0 0 cm
1.418 1.418 420.297 594.418 re S Q
1 g
54.023 175.812 236.379 389.414 re f
0 g
5.669291 w
q 1 0 0 1 0 0 cm
54.023 175.812 236.379 389.414 re S Q
q
60.031 411.223 m 283.707 411.223 l 285.07 411.223 286.168 412.324 286.168
 413.688 c 286.168 419.355 l 286.168 420.719 285.07 421.816 283.707 421.816
 c 60.031 421.816 l 58.668 421.816 57.57 420.719 57.57 419.355 c 57.57 413.688
 l 57.57 412.324 58.668 411.223 60.031 411.223 c h
60.031 411.223 m W n
[2.834646 0 0 2.834646 -18.706275 -103.925909] concat
/CairoFunction
   << /FunctionType 2
      /Domain [ 0 1 ]
      /C0 [ 0.4 0.4 0.4 ]
      /C1 [ 0.87451 0.87451 0.87451 ]
      /N 1
   >>
def
   << /ShadingType 2
      /ColorSpace /DeviceRGB
      /Coords [ 26.408531 183.60199 107.55307 183.602005 ]
      /Extend [ true true ]
      /Function CairoFunction
   >>
shfill
Q
2.834646 w
1 J
0 j
[] 0.0 d
4 M q 1 0 0 1 0 0 cm
60.031 411.223 m 283.707 411.223 l 285.07 411.223 286.168 412.324 286.168
 413.688 c 286.168 419.355 l 286.168 420.719 285.07 421.816 283.707 421.816
 c 60.031 421.816 l 58.668 421.816 57.57 420.719 57.57 419.355 c 57.57 413.688
 l 57.57 412.324 58.668 411.223 60.031 411.223 c h
60.031 411.223 m S Q
q
165.012 141.426 13.719 269.797 re W n
[2.834646 0 0 2.834646 -18.706275 -103.925909] concat
/CairoFunction
   << /FunctionType 2
      /Domain [ 0 1 ]
      /C0 [ 0.4 0.4 0.4 ]
      /C1 [ 0.87451 0.87451 0.87451 ]
      /N 1
   >>
def
   << /ShadingType 2
      /ColorSpace /DeviceRGB
      /Coords [ 64.310959 134.143906 70.150635 134.143906 ]
      /Extend [ true true ]
      /Function CairoFunction
   >>
shfill
Q
2.834646 w
1 J
0 j
[] 0.0 d
4 M q 1 0 0 1 0 0 cm
165.012 141.426 13.719 269.797 re S Q
q
76.035 128.938 m 267.703 128.938 l 269.066 128.938 270.164 130.035 270.164
 131.402 c 270.164 138.961 l 270.164 140.328 269.066 141.426 267.703 141.426
 c 76.035 141.426 l 74.672 141.426 73.574 140.328 73.574 138.961 c 73.574
 131.402 l 73.574 130.035 74.672 128.938 76.035 128.938 c h
76.035 128.938 m W n
[2.834646 0 0 2.834646 -18.706275 -103.925909] concat
/CairoFunction
   << /FunctionType 2
      /Domain [ 0 1 ]
      /C0 [ 0.4 0.4 0.4 ]
      /C1 [ 0.87451 0.87451 0.87451 ]
      /N 1
   >>
def
   << /ShadingType 2
      /ColorSpace /DeviceRGB
      /Coords [ 32.054596 84.351738 102.406998 84.351738 ]
      /Extend [ true true ]
      /Function CairoFunction
   >>
shfill
Q
2.834646 w
1 J
0 j
[] 0.0 d
4 M q 1 0 0 1 0 0 cm
76.035 128.938 m 267.703 128.938 l 269.066 128.938 270.164 130.035 270.164
 131.402 c 270.164 138.961 l 270.164 140.328 269.066 141.426 267.703 141.426
 c 76.035 141.426 l 74.672 141.426 73.574 140.328 73.574 138.961 c 73.574
 131.402 l 73.574 130.035 74.672 128.938 76.035 128.938 c h
76.035 128.938 m S Q
0.698039 g
108.922 38.699 m 234.816 38.699 l 240.156 38.699 244.457 43 244.457 48.344
 c 244.457 116.461 l 244.457 121.805 240.156 126.105 234.816 126.105 c 108.922
 126.105 l 103.582 126.105 99.281 121.805 99.281 116.461 c 99.281 48.344
 l 99.281 43 103.582 38.699 108.922 38.699 c h
108.922 38.699 m f
0 g
q 1 0 0 1 0 0 cm
108.922 38.699 m 234.816 38.699 l 240.156 38.699 244.457 43 244.457 48.344
 c 244.457 116.461 l 244.457 121.805 240.156 126.105 234.816 126.105 c 108.922
 126.105 l 103.582 126.105 99.281 121.805 99.281 116.461 c 99.281 48.344
 l 99.281 43 103.582 38.699 108.922 38.699 c h
108.922 38.699 m S Q
35.742 400.152 33.73 8.238 re f
q 1 0 0 1 0 0 cm
35.742 400.152 33.73 8.238 re S Q
274.953 400.152 33.727 8.238 re f
q 1 0 0 1 0 0 cm
274.953 400.152 33.727 8.238 re S Q
279.809 483.277 m 279.809 484.609 278.727 485.691 277.398 485.691 c 276.066
 485.691 274.988 484.609 274.988 483.277 c 274.988 481.949 276.066 480.867
 277.398 480.867 c 278.727 480.867 279.809 481.949 279.809 483.277 c h
279.809 483.277 m f
124.574 543.781 m 124.574 545.113 123.492 546.195 122.164 546.195 c 120.832
 546.195 119.75 545.113 119.75 543.781 c 119.75 542.453 120.832 541.371 
122.164 541.371 c 123.492 541.371 124.574 542.453 124.574 543.781 c h
124.574 543.781 m f
101.734 436.082 m 101.734 437.414 100.652 438.492 99.32 438.492 c 97.992
 438.492 96.91 437.414 96.91 436.082 c 96.91 434.75 97.992 433.672 99.32
 433.672 c 100.652 433.672 101.734 434.75 101.734 436.082 c h
101.734 436.082 m f
261.75 453.762 m 261.75 455.094 260.668 456.172 259.34 456.172 c 258.008
 456.172 256.926 455.094 256.926 453.762 c 256.926 452.43 258.008 451.352
 259.34 451.352 c 260.668 451.352 261.75 452.43 261.75 453.762 c h
261.75 453.762 m f
168.812 518.281 m 168.812 519.613 167.734 520.691 166.402 520.691 c 165.07
 520.691 163.992 519.613 163.992 518.281 c 163.992 516.949 165.07 515.871
 166.402 515.871 c 167.734 515.871 168.812 516.949 168.812 518.281 c h
168.812 518.281 m f
249.551 494.238 m 249.551 495.57 248.469 496.652 247.137 496.652 c 245.809
 496.652 244.727 495.57 244.727 494.238 c 244.727 492.91 245.809 491.828
 247.137 491.828 c 248.469 491.828 249.551 492.91 249.551 494.238 c h
249.551 494.238 m f
232.629 543.234 m 232.629 544.566 231.551 545.645 230.219 545.645 c 228.887
 545.645 227.809 544.566 227.809 543.234 c 227.809 541.902 228.887 540.824
 230.219 540.824 c 231.551 540.824 232.629 541.902 232.629 543.234 c h
232.629 543.234 m f
97.203 426.211 m 97.203 427.543 96.121 428.621 94.793 428.621 c 93.461 
428.621 92.379 427.543 92.379 426.211 c 92.379 424.879 93.461 423.801 94.793
 423.801 c 96.121 423.801 97.203 424.879 97.203 426.211 c h
97.203 426.211 m f
262.75 490.301 m 262.75 491.633 261.668 492.711 260.34 492.711 c 259.008
 492.711 257.926 491.633 257.926 490.301 c 257.926 488.969 259.008 487.891
 260.34 487.891 c 261.668 487.891 262.75 488.969 262.75 490.301 c h
262.75 490.301 m f
237.543 531.637 m 237.543 532.969 236.465 534.047 235.133 534.047 c 233.801
 534.047 232.723 532.969 232.723 531.637 c 232.723 530.305 233.801 529.227
 235.133 529.227 c 236.465 529.227 237.543 530.305 237.543 531.637 c h
237.543 531.637 m f
99.145 447.125 m 99.145 448.457 98.062 449.535 96.73 449.535 c 95.402 449.535
 94.32 448.457 94.32 447.125 c 94.32 445.793 95.402 444.715 96.73 444.715
 c 98.062 444.715 99.145 445.793 99.145 447.125 c h
99.145 447.125 m f
84.125 504.75 m 84.125 506.082 83.047 507.16 81.715 507.16 c 80.383 507.16
 79.305 506.082 79.305 504.75 c 79.305 503.418 80.383 502.34 81.715 502.34
 c 83.047 502.34 84.125 503.418 84.125 504.75 c h
84.125 504.75 m f
279.266 507.141 m 279.266 508.473 278.188 509.551 276.855 509.551 c 275.523
 509.551 274.445 508.473 274.445 507.141 c 274.445 505.809 275.523 504.73
 276.855 504.73 c 278.188 504.73 279.266 505.809 279.266 507.141 c h
279.266 507.141 m f
239.574 539.742 m 239.574 541.074 238.492 542.152 237.16 542.152 c 235.832
 542.152 234.75 541.074 234.75 539.742 c 234.75 538.41 235.832 537.332 237.16
 537.332 c 238.492 537.332 239.574 538.41 239.574 539.742 c h
239.574 539.742 m f
88.965 505.965 m 88.965 507.297 87.887 508.375 86.555 508.375 c 85.223 
508.375 84.145 507.297 84.145 505.965 c 84.145 504.633 85.223 503.555 86.555
 503.555 c 87.887 503.555 88.965 504.633 88.965 505.965 c h
88.965 505.965 m f
201.312 442.977 m 201.312 444.309 200.234 445.387 198.902 445.387 c 197.57
 445.387 196.492 444.309 196.492 442.977 c 196.492 441.645 197.57 440.566
 198.902 440.566 c 200.234 440.566 201.312 441.645 201.312 442.977 c h
201.312 442.977 m f
168.574 433.805 m 168.574 435.137 167.496 436.215 166.164 436.215 c 164.832
 436.215 163.754 435.137 163.754 433.805 c 163.754 432.473 164.832 431.395
 166.164 431.395 c 167.496 431.395 168.574 432.473 168.574 433.805 c h
168.574 433.805 m f
268.16 455.723 m 268.16 457.055 267.082 458.133 265.75 458.133 c 264.418
 458.133 263.34 457.055 263.34 455.723 c 263.34 454.391 264.418 453.312 
265.75 453.312 c 267.082 453.312 268.16 454.391 268.16 455.723 c h
268.16 455.723 m f
121.754 482.059 m 121.754 483.391 120.676 484.469 119.344 484.469 c 118.012
 484.469 116.934 483.391 116.934 482.059 c 116.934 480.727 118.012 479.648
 119.344 479.648 c 120.676 479.648 121.754 480.727 121.754 482.059 c h
121.754 482.059 m f
80.699 443.727 m 80.699 445.059 79.621 446.137 78.289 446.137 c 76.961 
446.137 75.879 445.059 75.879 443.727 c 75.879 442.395 76.961 441.316 78.289
 441.316 c 79.621 441.316 80.699 442.395 80.699 443.727 c h
80.699 443.727 m f
66.219 549.898 m 66.219 551.23 65.141 552.309 63.809 552.309 c 62.477 552.309
 61.398 551.23 61.398 549.898 c 61.398 548.566 62.477 547.488 63.809 547.488
 c 65.141 547.488 66.219 548.566 66.219 549.898 c h
66.219 549.898 m f
227.941 448.98 m 227.941 450.312 226.863 451.391 225.531 451.391 c 224.199
 451.391 223.121 450.312 223.121 448.98 c 223.121 447.648 224.199 446.57
 225.531 446.57 c 226.863 446.57 227.941 447.648 227.941 448.98 c h
227.941 448.98 m f
125.441 548.609 m 125.441 549.941 124.363 551.02 123.031 551.02 c 121.699
 551.02 120.621 549.941 120.621 548.609 c 120.621 547.277 121.699 546.199
 123.031 546.199 c 124.363 546.199 125.441 547.277 125.441 548.609 c h
125.441 548.609 m f
151.75 439.914 m 151.75 441.242 150.672 442.324 149.34 442.324 c 148.008
 442.324 146.93 441.242 146.93 439.914 c 146.93 438.582 148.008 437.5 149.34
 437.5 c 150.672 437.5 151.75 438.582 151.75 439.914 c h
151.75 439.914 m f
118.598 551.566 m 118.598 552.895 117.52 553.977 116.188 553.977 c 114.855
 553.977 113.777 552.895 113.777 551.566 c 113.777 550.234 114.855 549.152
 116.188 549.152 c 117.52 549.152 118.598 550.234 118.598 551.566 c h
118.598 551.566 m f
90.781 489.613 m 90.781 490.945 89.703 492.023 88.371 492.023 c 87.039 
492.023 85.961 490.945 85.961 489.613 c 85.961 488.281 87.039 487.203 88.371
 487.203 c 89.703 487.203 90.781 488.281 90.781 489.613 c h
90.781 489.613 m f
278.418 463.941 m 278.418 465.273 277.336 466.355 276.008 466.355 c 274.676
 466.355 273.594 465.273 273.594 463.941 c 273.594 462.613 274.676 461.531
 276.008 461.531 c 277.336 461.531 278.418 462.613 278.418 463.941 c h
278.418 463.941 m f
92.871 446.398 m 92.871 447.727 91.793 448.809 90.461 448.809 c 89.129 
448.809 88.051 447.727 88.051 446.398 c 88.051 445.066 89.129 443.984 90.461
 443.984 c 91.793 443.984 92.871 445.066 92.871 446.398 c h
92.871 446.398 m f
212.812 527.824 m 212.812 529.156 211.734 530.234 210.402 530.234 c 209.07
 530.234 207.992 529.156 207.992 527.824 c 207.992 526.492 209.07 525.414
 210.402 525.414 c 211.734 525.414 212.812 526.492 212.812 527.824 c h
212.812 527.824 m f
251.883 434.039 m 251.883 435.371 250.801 436.449 249.473 436.449 c 248.141
 436.449 247.059 435.371 247.059 434.039 c 247.059 432.707 248.141 431.629
 249.473 431.629 c 250.801 431.629 251.883 432.707 251.883 434.039 c h
251.883 434.039 m f
160.559 456.633 m 160.559 457.965 159.48 459.047 158.148 459.047 c 156.816
 459.047 155.738 457.965 155.738 456.633 c 155.738 455.305 156.816 454.223
 158.148 454.223 c 159.48 454.223 160.559 455.305 160.559 456.633 c h
160.559 456.633 m f
209.684 463.859 m 209.684 465.191 208.605 466.27 207.273 466.27 c 205.941
 466.27 204.863 465.191 204.863 463.859 c 204.863 462.527 205.941 461.449
 207.273 461.449 c 208.605 461.449 209.684 462.527 209.684 463.859 c h
209.684 463.859 m f
174.309 438.852 m 174.309 440.184 173.23 441.262 171.898 441.262 c 170.566
 441.262 169.488 440.184 169.488 438.852 c 169.488 437.52 170.566 436.441
 171.898 436.441 c 173.23 436.441 174.309 437.52 174.309 438.852 c h
174.309 438.852 m f
169.277 509.547 m 169.277 510.879 168.195 511.957 166.867 511.957 c 165.535
 511.957 164.453 510.879 164.453 509.547 c 164.453 508.215 165.535 507.137
 166.867 507.137 c 168.195 507.137 169.277 508.215 169.277 509.547 c h
169.277 509.547 m f
167.043 487.832 m 167.043 489.164 165.965 490.242 164.633 490.242 c 163.301
 490.242 162.223 489.164 162.223 487.832 c 162.223 486.5 163.301 485.422
 164.633 485.422 c 165.965 485.422 167.043 486.5 167.043 487.832 c h
167.043 487.832 m f
164.707 524.469 m 164.707 525.801 163.625 526.879 162.293 526.879 c 160.965
 526.879 159.883 525.801 159.883 524.469 c 159.883 523.137 160.965 522.059
 162.293 522.059 c 163.625 522.059 164.707 523.137 164.707 524.469 c h
164.707 524.469 m f
207.047 496.336 m 207.047 497.664 205.965 498.746 204.633 498.746 c 203.305
 498.746 202.223 497.664 202.223 496.336 c 202.223 495.004 203.305 493.922
 204.633 493.922 c 205.965 493.922 207.047 495.004 207.047 496.336 c h
207.047 496.336 m f
241.992 559.344 m 241.992 560.672 240.914 561.754 239.582 561.754 c 238.25
 561.754 237.172 560.672 237.172 559.344 c 237.172 558.012 238.25 556.934
 239.582 556.934 c 240.914 556.934 241.992 558.012 241.992 559.344 c h
241.992 559.344 m f
94.996 502.68 m 94.996 504.012 93.914 505.09 92.586 505.09 c 91.254 505.09
 90.172 504.012 90.172 502.68 c 90.172 501.348 91.254 500.27 92.586 500.27
 c 93.914 500.27 94.996 501.348 94.996 502.68 c h
94.996 502.68 m f
174.031 446.473 m 174.031 447.805 172.953 448.883 171.621 448.883 c 170.289
 448.883 169.211 447.805 169.211 446.473 c 169.211 445.141 170.289 444.062
 171.621 444.062 c 172.953 444.062 174.031 445.141 174.031 446.473 c h
174.031 446.473 m f
148.258 544.883 m 148.258 546.215 147.18 547.293 145.848 547.293 c 144.516
 547.293 143.438 546.215 143.438 544.883 c 143.438 543.551 144.516 542.473
 145.848 542.473 c 147.18 542.473 148.258 543.551 148.258 544.883 c h
148.258 544.883 m f
177.305 512.598 m 177.305 513.93 176.223 515.008 174.891 515.008 c 173.562
 515.008 172.48 513.93 172.48 512.598 c 172.48 511.266 173.562 510.188 174.891
 510.188 c 176.223 510.188 177.305 511.266 177.305 512.598 c h
177.305 512.598 m f
97.109 507.281 m 97.109 508.609 96.031 509.691 94.699 509.691 c 93.367 
509.691 92.289 508.609 92.289 507.281 c 92.289 505.949 93.367 504.867 94.699
 504.867 c 96.031 504.867 97.109 505.949 97.109 507.281 c h
97.109 507.281 m f
242.168 472.621 m 242.168 473.953 241.09 475.035 239.758 475.035 c 238.426
 475.035 237.348 473.953 237.348 472.621 c 237.348 471.293 238.426 470.211
 239.758 470.211 c 241.09 470.211 242.168 471.293 242.168 472.621 c h
242.168 472.621 m f
276.32 499.629 m 276.32 500.961 275.238 502.039 273.91 502.039 c 272.578
 502.039 271.5 500.961 271.5 499.629 c 271.5 498.297 272.578 497.219 273.91
 497.219 c 275.238 497.219 276.32 498.297 276.32 499.629 c h
276.32 499.629 m f
84.309 484.312 m 84.309 485.645 83.23 486.723 81.898 486.723 c 80.566 486.723
 79.488 485.645 79.488 484.312 c 79.488 482.98 80.566 481.902 81.898 481.902
 c 83.23 481.902 84.309 482.98 84.309 484.312 c h
84.309 484.312 m f
183.078 538.852 m 183.078 540.184 181.996 541.262 180.668 541.262 c 179.336
 541.262 178.254 540.184 178.254 538.852 c 178.254 537.52 179.336 536.441
 180.668 536.441 c 181.996 536.441 183.078 537.52 183.078 538.852 c h
183.078 538.852 m f
242.996 466.352 m 242.996 467.68 241.918 468.762 240.586 468.762 c 239.254
 468.762 238.176 467.68 238.176 466.352 c 238.176 465.02 239.254 463.938
 240.586 463.938 c 241.918 463.938 242.996 465.02 242.996 466.352 c h
242.996 466.352 m f
118.457 521.242 m 118.457 522.574 117.379 523.652 116.047 523.652 c 114.715
 523.652 113.637 522.574 113.637 521.242 c 113.637 519.91 114.715 518.832
 116.047 518.832 c 117.379 518.832 118.457 519.91 118.457 521.242 c h
118.457 521.242 m f
266.316 545.105 m 266.316 546.438 265.238 547.516 263.906 547.516 c 262.574
 547.516 261.496 546.438 261.496 545.105 c 261.496 543.773 262.574 542.695
 263.906 542.695 c 265.238 542.695 266.316 543.773 266.316 545.105 c h
266.316 545.105 m f
87.812 516.43 m 87.812 517.758 86.734 518.84 85.402 518.84 c 84.07 518.84
 82.992 517.758 82.992 516.43 c 82.992 515.098 84.07 514.016 85.402 514.016
 c 86.734 514.016 87.812 515.098 87.812 516.43 c h
87.812 516.43 m f
180.926 503.93 m 180.926 505.262 179.848 506.34 178.516 506.34 c 177.184
 506.34 176.105 505.262 176.105 503.93 c 176.105 502.598 177.184 501.52 
178.516 501.52 c 179.848 501.52 180.926 502.598 180.926 503.93 c h
180.926 503.93 m f
114.324 439.137 m 114.324 440.469 113.246 441.547 111.914 441.547 c 110.582
 441.547 109.504 440.469 109.504 439.137 c 109.504 437.805 110.582 436.727
 111.914 436.727 c 113.246 436.727 114.324 437.805 114.324 439.137 c h
114.324 439.137 m f
68.113 460.691 m 68.113 462.023 67.035 463.105 65.703 463.105 c 64.371 
463.105 63.293 462.023 63.293 460.691 c 63.293 459.363 64.371 458.281 65.703
 458.281 c 67.035 458.281 68.113 459.363 68.113 460.691 c h
68.113 460.691 m f
120.75 536.234 m 120.75 537.562 119.672 538.645 118.34 538.645 c 117.008
 538.645 115.93 537.562 115.93 536.234 c 115.93 534.902 117.008 533.82 118.34
 533.82 c 119.672 533.82 120.75 534.902 120.75 536.234 c h
120.75 536.234 m f
188.145 426.348 m 188.145 427.68 187.066 428.758 185.734 428.758 c 184.402
 428.758 183.324 427.68 183.324 426.348 c 183.324 425.016 184.402 423.938
 185.734 423.938 c 187.066 423.938 188.145 425.016 188.145 426.348 c h
188.145 426.348 m f
169.637 466.512 m 169.637 467.844 168.555 468.922 167.223 468.922 c 165.895
 468.922 164.812 467.844 164.812 466.512 c 164.812 465.18 165.895 464.102
 167.223 464.102 c 168.555 464.102 169.637 465.18 169.637 466.512 c h
169.637 466.512 m f
235.844 524.25 m 235.844 525.582 234.766 526.66 233.434 526.66 c 232.102
 526.66 231.023 525.582 231.023 524.25 c 231.023 522.918 232.102 521.84 
233.434 521.84 c 234.766 521.84 235.844 522.918 235.844 524.25 c h
235.844 524.25 m f
250.047 502.879 m 250.047 504.211 248.969 505.289 247.637 505.289 c 246.305
 505.289 245.227 504.211 245.227 502.879 c 245.227 501.547 246.305 500.469
 247.637 500.469 c 248.969 500.469 250.047 501.547 250.047 502.879 c h
250.047 502.879 m f
254.547 444.715 m 254.547 446.047 253.469 447.125 252.137 447.125 c 250.805
 447.125 249.727 446.047 249.727 444.715 c 249.727 443.383 250.805 442.305
 252.137 442.305 c 253.469 442.305 254.547 443.383 254.547 444.715 c h
254.547 444.715 m f
249.68 441.586 m 249.68 442.918 248.598 444 247.266 444 c 245.938 444 244.855
 442.918 244.855 441.586 c 244.855 440.258 245.938 439.176 247.266 439.176
 c 248.598 439.176 249.68 440.258 249.68 441.586 c h
249.68 441.586 m f
92.727 494.191 m 92.727 495.523 91.648 496.602 90.316 496.602 c 88.984 
496.602 87.906 495.523 87.906 494.191 c 87.906 492.859 88.984 491.781 90.316
 491.781 c 91.648 491.781 92.727 492.859 92.727 494.191 c h
92.727 494.191 m f
243.93 486.023 m 243.93 487.352 242.852 488.434 241.52 488.434 c 240.188
 488.434 239.109 487.352 239.109 486.023 c 239.109 484.691 240.188 483.609
 241.52 483.609 c 242.852 483.609 243.93 484.691 243.93 486.023 c h
243.93 486.023 m f
263.969 430.242 m 263.969 431.574 262.887 432.652 261.559 432.652 c 260.227
 432.652 259.145 431.574 259.145 430.242 c 259.145 428.91 260.227 427.832
 261.559 427.832 c 262.887 427.832 263.969 428.91 263.969 430.242 c h
263.969 430.242 m f
220.688 506.941 m 220.688 508.273 219.605 509.355 218.273 509.355 c 216.945
 509.355 215.863 508.273 215.863 506.941 c 215.863 505.613 216.945 504.531
 218.273 504.531 c 219.605 504.531 220.688 505.613 220.688 506.941 c h
220.688 506.941 m f
157.676 436.812 m 157.676 438.145 156.594 439.223 155.262 439.223 c 153.934
 439.223 152.852 438.145 152.852 436.812 c 152.852 435.48 153.934 434.402
 155.262 434.402 c 156.594 434.402 157.676 435.48 157.676 436.812 c h
157.676 436.812 m f
253.555 472.52 m 253.555 473.852 252.477 474.934 251.145 474.934 c 249.812
 474.934 248.734 473.852 248.734 472.52 c 248.734 471.191 249.812 470.109
 251.145 470.109 c 252.477 470.109 253.555 471.191 253.555 472.52 c h
253.555 472.52 m f
280.828 488.203 m 280.828 489.535 279.746 490.613 278.414 490.613 c 277.086
 490.613 276.004 489.535 276.004 488.203 c 276.004 486.871 277.086 485.793
 278.414 485.793 c 279.746 485.793 280.828 486.871 280.828 488.203 c h
280.828 488.203 m f
81.664 473.379 m 81.664 474.711 80.586 475.793 79.254 475.793 c 77.922 
475.793 76.844 474.711 76.844 473.379 c 76.844 472.051 77.922 470.969 79.254
 470.969 c 80.586 470.969 81.664 472.051 81.664 473.379 c h
81.664 473.379 m f
138.887 529.766 m 138.887 531.098 137.809 532.176 136.477 532.176 c 135.145
 532.176 134.066 531.098 134.066 529.766 c 134.066 528.434 135.145 527.355
 136.477 527.355 c 137.809 527.355 138.887 528.434 138.887 529.766 c h
138.887 529.766 m f
141.812 437.645 m 141.812 438.977 140.73 440.055 139.402 440.055 c 138.07
 440.055 136.988 438.977 136.988 437.645 c 136.988 436.312 138.07 435.234
 139.402 435.234 c 140.73 435.234 141.812 436.312 141.812 437.645 c h
141.812 437.645 m f
128.082 432.445 m 128.082 433.777 127.004 434.855 125.672 434.855 c 124.34
 434.855 123.262 433.777 123.262 432.445 c 123.262 431.113 124.34 430.035
 125.672 430.035 c 127.004 430.035 128.082 431.113 128.082 432.445 c h
128.082 432.445 m f
178.121 485.504 m 178.121 486.836 177.043 487.918 175.711 487.918 c 174.383
 487.918 173.301 486.836 173.301 485.504 c 173.301 484.176 174.383 483.094
 175.711 483.094 c 177.043 483.094 178.121 484.176 178.121 485.504 c h
178.121 485.504 m f
253.242 425.629 m 253.242 426.961 252.164 428.039 250.832 428.039 c 249.5
 428.039 248.422 426.961 248.422 425.629 c 248.422 424.297 249.5 423.219
 250.832 423.219 c 252.164 423.219 253.242 424.297 253.242 425.629 c h
253.242 425.629 m f
178.004 539.242 m 178.004 540.574 176.926 541.652 175.594 541.652 c 174.262
 541.652 173.184 540.574 173.184 539.242 c 173.184 537.91 174.262 536.832
 175.594 536.832 c 176.926 536.832 178.004 537.91 178.004 539.242 c h
178.004 539.242 m f
257.328 517.629 m 257.328 518.961 256.246 520.039 254.918 520.039 c 253.586
 520.039 252.504 518.961 252.504 517.629 c 252.504 516.297 253.586 515.219
 254.918 515.219 c 256.246 515.219 257.328 516.297 257.328 517.629 c h
257.328 517.629 m f
73.582 451.094 m 73.582 452.426 72.504 453.504 71.172 453.504 c 69.84 453.504
 68.762 452.426 68.762 451.094 c 68.762 449.762 69.84 448.684 71.172 448.684
 c 72.504 448.684 73.582 449.762 73.582 451.094 c h
73.582 451.094 m f
272.898 522.996 m 272.898 524.328 271.82 525.406 270.488 525.406 c 269.156
 525.406 268.078 524.328 268.078 522.996 c 268.078 521.664 269.156 520.586
 270.488 520.586 c 271.82 520.586 272.898 521.664 272.898 522.996 c h
272.898 522.996 m f
249.594 483.473 m 249.594 484.805 248.512 485.883 247.184 485.883 c 245.852
 485.883 244.773 484.805 244.773 483.473 c 244.773 482.141 245.852 481.062
 247.184 481.062 c 248.512 481.062 249.594 482.141 249.594 483.473 c h
249.594 483.473 m f
187.574 474.098 m 187.574 475.426 186.496 476.508 185.164 476.508 c 183.832
 476.508 182.754 475.426 182.754 474.098 c 182.754 472.766 183.832 471.684
 185.164 471.684 c 186.496 471.684 187.574 472.766 187.574 474.098 c h
187.574 474.098 m f
176.625 553.246 m 176.625 554.574 175.547 555.656 174.215 555.656 c 172.883
 555.656 171.805 554.574 171.805 553.246 c 171.805 551.914 172.883 550.832
 174.215 550.832 c 175.547 550.832 176.625 551.914 176.625 553.246 c h
176.625 553.246 m f
192.402 472.656 m 192.402 473.988 191.324 475.066 189.992 475.066 c 188.66
 475.066 187.582 473.988 187.582 472.656 c 187.582 471.324 188.66 470.246
 189.992 470.246 c 191.324 470.246 192.402 471.324 192.402 472.656 c h
192.402 472.656 m f
220.832 555.012 m 220.832 556.344 219.754 557.422 218.422 557.422 c 217.09
 557.422 216.012 556.344 216.012 555.012 c 216.012 553.68 217.09 552.602
 218.422 552.602 c 219.754 552.602 220.832 553.68 220.832 555.012 c h
220.832 555.012 m f
126.473 490.445 m 126.473 491.777 125.391 492.855 124.059 492.855 c 122.73
 492.855 121.648 491.777 121.648 490.445 c 121.648 489.113 122.73 488.035
 124.059 488.035 c 125.391 488.035 126.473 489.113 126.473 490.445 c h
126.473 490.445 m f
262.629 464.312 m 262.629 465.645 261.547 466.723 260.219 466.723 c 258.887
 466.723 257.809 465.645 257.809 464.312 c 257.809 462.98 258.887 461.902
 260.219 461.902 c 261.547 461.902 262.629 462.98 262.629 464.312 c h
262.629 464.312 m f
139.68 487.562 m 139.68 488.895 138.598 489.973 137.27 489.973 c 135.938
 489.973 134.855 488.895 134.855 487.562 c 134.855 486.23 135.938 485.152
 137.27 485.152 c 138.598 485.152 139.68 486.23 139.68 487.562 c h
139.68 487.562 m f
106.457 559.398 m 106.457 560.73 105.379 561.812 104.047 561.812 c 102.715
 561.812 101.637 560.73 101.637 559.398 c 101.637 558.07 102.715 556.988
 104.047 556.988 c 105.379 556.988 106.457 558.07 106.457 559.398 c h
106.457 559.398 m f
281.914 458.992 m 281.914 460.324 280.836 461.402 279.504 461.402 c 278.172
 461.402 277.094 460.324 277.094 458.992 c 277.094 457.66 278.172 456.582
 279.504 456.582 c 280.836 456.582 281.914 457.66 281.914 458.992 c h
281.914 458.992 m f
144.523 472.543 m 144.523 473.875 143.445 474.957 142.113 474.957 c 140.781
 474.957 139.703 473.875 139.703 472.543 c 139.703 471.215 140.781 470.133
 142.113 470.133 c 143.445 470.133 144.523 471.215 144.523 472.543 c h
144.523 472.543 m f
160.961 549.98 m 160.961 551.312 159.883 552.391 158.551 552.391 c 157.219
 552.391 156.141 551.312 156.141 549.98 c 156.141 548.648 157.219 547.57
 158.551 547.57 c 159.883 547.57 160.961 548.648 160.961 549.98 c h
160.961 549.98 m f
244.5 425.684 m 244.5 427.016 243.422 428.094 242.09 428.094 c 240.758 
428.094 239.68 427.016 239.68 425.684 c 239.68 424.352 240.758 423.273 242.09
 423.273 c 243.422 423.273 244.5 424.352 244.5 425.684 c h
244.5 425.684 m f
268.312 446.418 m 268.312 447.75 267.23 448.832 265.898 448.832 c 264.57
 448.832 263.488 447.75 263.488 446.418 c 263.488 445.09 264.57 444.008 
265.898 444.008 c 267.23 444.008 268.312 445.09 268.312 446.418 c h
268.312 446.418 m f
247.836 529.246 m 247.836 530.578 246.758 531.656 245.426 531.656 c 244.094
 531.656 243.016 530.578 243.016 529.246 c 243.016 527.914 244.094 526.836
 245.426 526.836 c 246.758 526.836 247.836 527.914 247.836 529.246 c h
247.836 529.246 m f
233.227 543.281 m 233.227 544.613 232.148 545.691 230.816 545.691 c 229.484
 545.691 228.406 544.613 228.406 543.281 c 228.406 541.949 229.484 540.871
 230.816 540.871 c 232.148 540.871 233.227 541.949 233.227 543.281 c h
233.227 543.281 m f
81.766 491.426 m 81.766 492.758 80.684 493.84 79.352 493.84 c 78.023 493.84
 76.941 492.758 76.941 491.426 c 76.941 490.098 78.023 489.016 79.352 489.016
 c 80.684 489.016 81.766 490.098 81.766 491.426 c h
81.766 491.426 m f
130.625 505.852 m 130.625 507.184 129.547 508.262 128.215 508.262 c 126.883
 508.262 125.805 507.184 125.805 505.852 c 125.805 504.52 126.883 503.441
 128.215 503.441 c 129.547 503.441 130.625 504.52 130.625 505.852 c h
130.625 505.852 m f
194.766 519.965 m 194.766 521.297 193.684 522.375 192.352 522.375 c 191.023
 522.375 189.941 521.297 189.941 519.965 c 189.941 518.633 191.023 517.555
 192.352 517.555 c 193.684 517.555 194.766 518.633 194.766 519.965 c h
194.766 519.965 m f
192.73 493.883 m 192.73 495.215 191.648 496.293 190.32 496.293 c 188.988
 496.293 187.906 495.215 187.906 493.883 c 187.906 492.551 188.988 491.473
 190.32 491.473 c 191.648 491.473 192.73 492.551 192.73 493.883 c h
192.73 493.883 m f
280.512 540.609 m 280.512 541.941 279.434 543.02 278.102 543.02 c 276.77
 543.02 275.691 541.941 275.691 540.609 c 275.691 539.277 276.77 538.199
 278.102 538.199 c 279.434 538.199 280.512 539.277 280.512 540.609 c h
280.512 540.609 m f
267.535 532.953 m 267.535 534.285 266.457 535.363 265.125 535.363 c 263.793
 535.363 262.715 534.285 262.715 532.953 c 262.715 531.625 263.793 530.543
 265.125 530.543 c 266.457 530.543 267.535 531.625 267.535 532.953 c h
267.535 532.953 m f
245.062 434.137 m 245.062 435.469 243.98 436.547 242.652 436.547 c 241.32
 436.547 240.238 435.469 240.238 434.137 c 240.238 432.805 241.32 431.727
 242.652 431.727 c 243.98 431.727 245.062 432.805 245.062 434.137 c h
245.062 434.137 m f
98.223 553.965 m 98.223 555.297 97.145 556.375 95.812 556.375 c 94.48 556.375
 93.402 555.297 93.402 553.965 c 93.402 552.633 94.48 551.555 95.812 551.555
 c 97.145 551.555 98.223 552.633 98.223 553.965 c h
98.223 553.965 m f
88.625 545.027 m 88.625 546.359 87.547 547.438 86.215 547.438 c 84.883 
547.438 83.805 546.359 83.805 545.027 c 83.805 543.695 84.883 542.617 86.215
 542.617 c 87.547 542.617 88.625 543.695 88.625 545.027 c h
88.625 545.027 m f
178.73 458.602 m 178.73 459.934 177.648 461.012 176.32 461.012 c 174.988
 461.012 173.906 459.934 173.906 458.602 c 173.906 457.27 174.988 456.191
 176.32 456.191 c 177.648 456.191 178.73 457.27 178.73 458.602 c h
178.73 458.602 m f
189.559 485.578 m 189.559 486.91 188.477 487.988 187.145 487.988 c 185.816
 487.988 184.734 486.91 184.734 485.578 c 184.734 484.246 185.816 483.168
 187.145 483.168 c 188.477 483.168 189.559 484.246 189.559 485.578 c h
189.559 485.578 m f
93.117 482.648 m 93.117 483.98 92.039 485.062 90.707 485.062 c 89.375 485.062
 88.297 483.98 88.297 482.648 c 88.297 481.32 89.375 480.238 90.707 480.238
 c 92.039 480.238 93.117 481.32 93.117 482.648 c h
93.117 482.648 m f
257.523 437.926 m 257.523 439.258 256.445 440.336 255.113 440.336 c 253.781
 440.336 252.703 439.258 252.703 437.926 c 252.703 436.594 253.781 435.516
 255.113 435.516 c 256.445 435.516 257.523 436.594 257.523 437.926 c h
257.523 437.926 m f
131.18 428.484 m 131.18 429.816 130.102 430.895 128.77 430.895 c 127.438
 430.895 126.359 429.816 126.359 428.484 c 126.359 427.152 127.438 426.074
 128.77 426.074 c 130.102 426.074 131.18 427.152 131.18 428.484 c h
131.18 428.484 m f
65.688 519.266 m 65.688 520.598 64.605 521.676 63.277 521.676 c 61.945 
521.676 60.863 520.598 60.863 519.266 c 60.863 517.934 61.945 516.855 63.277
 516.855 c 64.605 516.855 65.688 517.934 65.688 519.266 c h
65.688 519.266 m f
224.957 539.508 m 224.957 540.84 223.875 541.918 222.543 541.918 c 221.215
 541.918 220.133 540.84 220.133 539.508 c 220.133 538.176 221.215 537.098
 222.543 537.098 c 223.875 537.098 224.957 538.176 224.957 539.508 c h
224.957 539.508 m f
61.965 545.836 m 61.965 547.168 60.883 548.246 59.555 548.246 c 58.223 
548.246 57.145 547.168 57.145 545.836 c 57.145 544.504 58.223 543.426 59.555
 543.426 c 60.883 543.426 61.965 544.504 61.965 545.836 c h
61.965 545.836 m f
189.098 434.277 m 189.098 435.609 188.02 436.688 186.688 436.688 c 185.355
 436.688 184.277 435.609 184.277 434.277 c 184.277 432.945 185.355 431.867
 186.688 431.867 c 188.02 431.867 189.098 432.945 189.098 434.277 c h
189.098 434.277 m f
173.73 507.336 m 173.73 508.668 172.648 509.746 171.32 509.746 c 169.988
 509.746 168.906 508.668 168.906 507.336 c 168.906 506.004 169.988 504.926
 171.32 504.926 c 172.648 504.926 173.73 506.004 173.73 507.336 c h
173.73 507.336 m f
160.262 554.992 m 160.262 556.324 159.184 557.402 157.852 557.402 c 156.52
 557.402 155.441 556.324 155.441 554.992 c 155.441 553.66 156.52 552.582
 157.852 552.582 c 159.184 552.582 160.262 553.66 160.262 554.992 c h
160.262 554.992 m f
100.547 456.137 m 100.547 457.469 99.469 458.547 98.137 458.547 c 96.805
 458.547 95.727 457.469 95.727 456.137 c 95.727 454.805 96.805 453.727 98.137
 453.727 c 99.469 453.727 100.547 454.805 100.547 456.137 c h
100.547 456.137 m f
86.434 488.926 m 86.434 490.258 85.355 491.336 84.023 491.336 c 82.691 
491.336 81.613 490.258 81.613 488.926 c 81.613 487.594 82.691 486.516 84.023
 486.516 c 85.355 486.516 86.434 487.594 86.434 488.926 c h
86.434 488.926 m f
138.148 492.312 m 138.148 493.645 137.07 494.727 135.738 494.727 c 134.406
 494.727 133.328 493.645 133.328 492.312 c 133.328 490.984 134.406 489.902
 135.738 489.902 c 137.07 489.902 138.148 490.984 138.148 492.312 c h
138.148 492.312 m f
88.406 497.227 m 88.406 498.559 87.328 499.637 85.996 499.637 c 84.664 
499.637 83.586 498.559 83.586 497.227 c 83.586 495.895 84.664 494.816 85.996
 494.816 c 87.328 494.816 88.406 495.895 88.406 497.227 c h
88.406 497.227 m f
117.316 502.285 m 117.316 503.613 116.238 504.695 114.906 504.695 c 113.574
 504.695 112.496 503.613 112.496 502.285 c 112.496 500.953 113.574 499.875
 114.906 499.875 c 116.238 499.875 117.316 500.953 117.316 502.285 c h
117.316 502.285 m f
92.398 451.445 m 92.398 452.777 91.32 453.855 89.988 453.855 c 88.656 453.855
 87.578 452.777 87.578 451.445 c 87.578 450.113 88.656 449.035 89.988 449.035
 c 91.32 449.035 92.398 450.113 92.398 451.445 c h
92.398 451.445 m f
126.031 463.023 m 126.031 464.355 124.953 465.434 123.621 465.434 c 122.289
 465.434 121.211 464.355 121.211 463.023 c 121.211 461.691 122.289 460.613
 123.621 460.613 c 124.953 460.613 126.031 461.691 126.031 463.023 c h
126.031 463.023 m f
253.008 530.984 m 253.008 532.316 251.93 533.395 250.598 533.395 c 249.266
 533.395 248.188 532.316 248.188 530.984 c 248.188 529.652 249.266 528.574
 250.598 528.574 c 251.93 528.574 253.008 529.652 253.008 530.984 c h
253.008 530.984 m f
207.996 512.117 m 207.996 513.449 206.918 514.527 205.586 514.527 c 204.254
 514.527 203.176 513.449 203.176 512.117 c 203.176 510.785 204.254 509.707
 205.586 509.707 c 206.918 509.707 207.996 510.785 207.996 512.117 c h
207.996 512.117 m f
121.148 516.82 m 121.148 518.152 120.07 519.23 118.738 519.23 c 117.406
 519.23 116.328 518.152 116.328 516.82 c 116.328 515.488 117.406 514.41 
118.738 514.41 c 120.07 514.41 121.148 515.488 121.148 516.82 c h
121.148 516.82 m f
218.586 471.754 m 218.586 473.082 217.504 474.164 216.176 474.164 c 214.844
 474.164 213.762 473.082 213.762 471.754 c 213.762 470.422 214.844 469.34
 216.176 469.34 c 217.504 469.34 218.586 470.422 218.586 471.754 c h
218.586 471.754 m f
174.527 431.758 m 174.527 433.09 173.449 434.168 172.117 434.168 c 170.785
 434.168 169.707 433.09 169.707 431.758 c 169.707 430.426 170.785 429.348
 172.117 429.348 c 173.449 429.348 174.527 430.426 174.527 431.758 c h
174.527 431.758 m f
77.645 538.051 m 77.645 539.383 76.562 540.461 75.234 540.461 c 73.902 
540.461 72.82 539.383 72.82 538.051 c 72.82 536.719 73.902 535.641 75.234
 535.641 c 76.562 535.641 77.645 536.719 77.645 538.051 c h
77.645 538.051 m f
73.41 490.414 m 73.41 491.746 72.328 492.824 70.996 492.824 c 69.668 492.824
 68.586 491.746 68.586 490.414 c 68.586 489.082 69.668 488.004 70.996 488.004
 c 72.328 488.004 73.41 489.082 73.41 490.414 c h
73.41 490.414 m f
148.348 447.047 m 148.348 448.379 147.27 449.457 145.938 449.457 c 144.605
 449.457 143.527 448.379 143.527 447.047 c 143.527 445.715 144.605 444.637
 145.938 444.637 c 147.27 444.637 148.348 445.715 148.348 447.047 c h
148.348 447.047 m f
273.531 550.504 m 273.531 551.832 272.453 552.914 271.121 552.914 c 269.789
 552.914 268.711 551.832 268.711 550.504 c 268.711 549.172 269.789 548.09
 271.121 548.09 c 272.453 548.09 273.531 549.172 273.531 550.504 c h
273.531 550.504 m f
93.293 554.254 m 93.293 555.586 92.215 556.664 90.883 556.664 c 89.551 
556.664 88.473 555.586 88.473 554.254 c 88.473 552.922 89.551 551.844 90.883
 551.844 c 92.215 551.844 93.293 552.922 93.293 554.254 c h
93.293 554.254 m f
225.141 558.051 m 225.141 559.383 224.062 560.465 222.73 560.465 c 221.398
 560.465 220.32 559.383 220.32 558.051 c 220.32 556.723 221.398 555.641 
222.73 555.641 c 224.062 555.641 225.141 556.723 225.141 558.051 c h
225.141 558.051 m f
111.969 487.875 m 111.969 489.207 110.887 490.285 109.555 490.285 c 108.227
 490.285 107.145 489.207 107.145 487.875 c 107.145 486.543 108.227 485.465
 109.555 485.465 c 110.887 485.465 111.969 486.543 111.969 487.875 c h
111.969 487.875 m f
261.086 458.957 m 261.086 460.289 260.004 461.367 258.672 461.367 c 257.344
 461.367 256.262 460.289 256.262 458.957 c 256.262 457.625 257.344 456.547
 258.672 456.547 c 260.004 456.547 261.086 457.625 261.086 458.957 c h
261.086 458.957 m f
79.238 483.023 m 79.238 484.355 78.156 485.438 76.824 485.438 c 75.496 
485.438 74.414 484.355 74.414 483.023 c 74.414 481.695 75.496 480.613 76.824
 480.613 c 78.156 480.613 79.238 481.695 79.238 483.023 c h
79.238 483.023 m f
154.191 495.531 m 154.191 496.863 153.113 497.941 151.781 497.941 c 150.449
 497.941 149.371 496.863 149.371 495.531 c 149.371 494.199 150.449 493.121
 151.781 493.121 c 153.113 493.121 154.191 494.199 154.191 495.531 c h
154.191 495.531 m f
202.531 493.586 m 202.531 494.914 201.449 495.996 200.121 495.996 c 198.789
 495.996 197.707 494.914 197.707 493.586 c 197.707 492.254 198.789 491.172
 200.121 491.172 c 201.449 491.172 202.531 492.254 202.531 493.586 c h
202.531 493.586 m f
140.711 553.223 m 140.711 554.555 139.633 555.633 138.301 555.633 c 136.969
 555.633 135.891 554.555 135.891 553.223 c 135.891 551.891 136.969 550.812
 138.301 550.812 c 139.633 550.812 140.711 551.891 140.711 553.223 c h
140.711 553.223 m f
87.832 554.133 m 87.832 555.465 86.754 556.543 85.422 556.543 c 84.09 556.543
 83.012 555.465 83.012 554.133 c 83.012 552.801 84.09 551.723 85.422 551.723
 c 86.754 551.723 87.832 552.801 87.832 554.133 c h
87.832 554.133 m f
81.664 496.5 m 81.664 497.832 80.582 498.91 79.25 498.91 c 77.922 498.91
 76.84 497.832 76.84 496.5 c 76.84 495.168 77.922 494.09 79.25 494.09 c 
80.582 494.09 81.664 495.168 81.664 496.5 c h
81.664 496.5 m f
194.742 443.039 m 194.742 444.367 193.664 445.449 192.332 445.449 c 191
 445.449 189.922 444.367 189.922 443.039 c 189.922 441.707 191 440.625 192.332
 440.625 c 193.664 440.625 194.742 441.707 194.742 443.039 c h
194.742 443.039 m f
104.82 466.77 m 104.82 468.098 103.742 469.18 102.41 469.18 c 101.078 469.18
 100 468.098 100 466.77 c 100 465.438 101.078 464.355 102.41 464.355 c 103.742
 464.355 104.82 465.438 104.82 466.77 c h
104.82 466.77 m f
251.844 466.762 m 251.844 468.094 250.766 469.172 249.434 469.172 c 248.102
 469.172 247.023 468.094 247.023 466.762 c 247.023 465.43 248.102 464.352
 249.434 464.352 c 250.766 464.352 251.844 465.43 251.844 466.762 c h
251.844 466.762 m f
219.914 539.316 m 219.914 540.648 218.836 541.73 217.504 541.73 c 216.172
 541.73 215.094 540.648 215.094 539.316 c 215.094 537.988 216.172 536.906
 217.504 536.906 c 218.836 536.906 219.914 537.988 219.914 539.316 c h
219.914 539.316 m f
267.605 488.414 m 267.605 489.746 266.527 490.828 265.195 490.828 c 263.863
 490.828 262.785 489.746 262.785 488.414 c 262.785 487.086 263.863 486.004
 265.195 486.004 c 266.527 486.004 267.605 487.086 267.605 488.414 c h
267.605 488.414 m f
189.605 511.227 m 189.605 512.559 188.527 513.641 187.195 513.641 c 185.863
 513.641 184.785 512.559 184.785 511.227 c 184.785 509.898 185.863 508.816
 187.195 508.816 c 188.527 508.816 189.605 509.898 189.605 511.227 c h
189.605 511.227 m f
95.352 525.125 m 95.352 526.453 94.273 527.535 92.941 527.535 c 91.609 
527.535 90.531 526.453 90.531 525.125 c 90.531 523.793 91.609 522.711 92.941
 522.711 c 94.273 522.711 95.352 523.793 95.352 525.125 c h
95.352 525.125 m f
200.996 541.715 m 200.996 543.043 199.918 544.125 198.586 544.125 c 197.254
 544.125 196.176 543.043 196.176 541.715 c 196.176 540.383 197.254 539.301
 198.586 539.301 c 199.918 539.301 200.996 540.383 200.996 541.715 c h
200.996 541.715 m f
189.621 510.977 m 189.621 512.309 188.543 513.391 187.211 513.391 c 185.879
 513.391 184.801 512.309 184.801 510.977 c 184.801 509.648 185.879 508.566
 187.211 508.566 c 188.543 508.566 189.621 509.648 189.621 510.977 c h
189.621 510.977 m f
127.078 485.516 m 127.078 486.848 126 487.926 124.668 487.926 c 123.336
 487.926 122.258 486.848 122.258 485.516 c 122.258 484.184 123.336 483.105
 124.668 483.105 c 126 483.105 127.078 484.184 127.078 485.516 c h
127.078 485.516 m f
160.648 521.312 m 160.648 522.641 159.57 523.723 158.238 523.723 c 156.906
 523.723 155.828 522.641 155.828 521.312 c 155.828 519.98 156.906 518.902
 158.238 518.902 c 159.57 518.902 160.648 519.98 160.648 521.312 c h
160.648 521.312 m f
131.328 456.293 m 131.328 457.621 130.25 458.703 128.918 458.703 c 127.586
 458.703 126.508 457.621 126.508 456.293 c 126.508 454.961 127.586 453.879
 128.918 453.879 c 130.25 453.879 131.328 454.961 131.328 456.293 c h
131.328 456.293 m f
104.105 506.379 m 104.105 507.711 103.023 508.789 101.691 508.789 c 100.363
 508.789 99.281 507.711 99.281 506.379 c 99.281 505.047 100.363 503.969 
101.691 503.969 c 103.023 503.969 104.105 505.047 104.105 506.379 c h
104.105 506.379 m f
258.223 559.047 m 258.223 560.375 257.145 561.457 255.812 561.457 c 254.48
 561.457 253.402 560.375 253.402 559.047 c 253.402 557.715 254.48 556.633
 255.812 556.633 c 257.145 556.633 258.223 557.715 258.223 559.047 c h
258.223 559.047 m f
256.746 462.023 m 256.746 463.352 255.668 464.434 254.336 464.434 c 253.004
 464.434 251.926 463.352 251.926 462.023 c 251.926 460.691 253.004 459.609
 254.336 459.609 c 255.668 459.609 256.746 460.691 256.746 462.023 c h
256.746 462.023 m f
250.574 456.918 m 250.574 458.25 249.496 459.328 248.164 459.328 c 246.832
 459.328 245.754 458.25 245.754 456.918 c 245.754 455.586 246.832 454.508
 248.164 454.508 c 249.496 454.508 250.574 455.586 250.574 456.918 c h
250.574 456.918 m f
114.418 483.215 m 114.418 484.547 113.34 485.625 112.008 485.625 c 110.676
 485.625 109.598 484.547 109.598 483.215 c 109.598 481.883 110.676 480.805
 112.008 480.805 c 113.34 480.805 114.418 481.883 114.418 483.215 c h
114.418 483.215 m f
274.645 504.438 m 274.645 505.766 273.566 506.848 272.234 506.848 c 270.902
 506.848 269.824 505.766 269.824 504.438 c 269.824 503.105 270.902 502.023
 272.234 502.023 c 273.566 502.023 274.645 503.105 274.645 504.438 c h
274.645 504.438 m f
120.055 477.363 m 120.055 478.695 118.977 479.773 117.645 479.773 c 116.312
 479.773 115.234 478.695 115.234 477.363 c 115.234 476.031 116.312 474.953
 117.645 474.953 c 118.977 474.953 120.055 476.031 120.055 477.363 c h
120.055 477.363 m f
258.211 432.27 m 258.211 433.602 257.133 434.684 255.801 434.684 c 254.469
 434.684 253.391 433.602 253.391 432.27 c 253.391 430.941 254.469 429.859
 255.801 429.859 c 257.133 429.859 258.211 430.941 258.211 432.27 c h
258.211 432.27 m f
267.156 507.555 m 267.156 508.887 266.078 509.965 264.746 509.965 c 263.414
 509.965 262.336 508.887 262.336 507.555 c 262.336 506.223 263.414 505.145
 264.746 505.145 c 266.078 505.145 267.156 506.223 267.156 507.555 c h
267.156 507.555 m f
130.637 521.641 m 130.637 522.973 129.555 524.051 128.223 524.051 c 126.895
 524.051 125.812 522.973 125.812 521.641 c 125.812 520.309 126.895 519.23
 128.223 519.23 c 129.555 519.23 130.637 520.309 130.637 521.641 c h
130.637 521.641 m f
196.934 515.57 m 196.934 516.902 195.852 517.98 194.52 517.98 c 193.191
 517.98 192.109 516.902 192.109 515.57 c 192.109 514.238 193.191 513.16 
194.52 513.16 c 195.852 513.16 196.934 514.238 196.934 515.57 c h
196.934 515.57 m f
66.566 556.824 m 66.566 558.156 65.488 559.234 64.156 559.234 c 62.824 
559.234 61.746 558.156 61.746 556.824 c 61.746 555.492 62.824 554.414 64.156
 554.414 c 65.488 554.414 66.566 555.492 66.566 556.824 c h
66.566 556.824 m f
109.562 454.609 m 109.562 455.938 108.48 457.02 107.148 457.02 c 105.82
 457.02 104.738 455.938 104.738 454.609 c 104.738 453.277 105.82 452.195
 107.148 452.195 c 108.48 452.195 109.562 453.277 109.562 454.609 c h
109.562 454.609 m f
260.668 509.055 m 260.668 510.383 259.586 511.465 258.254 511.465 c 256.926
 511.465 255.844 510.383 255.844 509.055 c 255.844 507.723 256.926 506.641
 258.254 506.641 c 259.586 506.641 260.668 507.723 260.668 509.055 c h
260.668 509.055 m f
248.312 488.336 m 248.312 489.668 247.234 490.746 245.902 490.746 c 244.57
 490.746 243.492 489.668 243.492 488.336 c 243.492 487.004 244.57 485.926
 245.902 485.926 c 247.234 485.926 248.312 487.004 248.312 488.336 c h
248.312 488.336 m f
157.688 427.172 m 157.688 428.504 156.609 429.582 155.277 429.582 c 153.945
 429.582 152.867 428.504 152.867 427.172 c 152.867 425.84 153.945 424.762
 155.277 424.762 c 156.609 424.762 157.688 425.84 157.688 427.172 c h
157.688 427.172 m f
182.371 455.309 m 182.371 456.637 181.293 457.719 179.961 457.719 c 178.629
 457.719 177.551 456.637 177.551 455.309 c 177.551 453.977 178.629 452.895
 179.961 452.895 c 181.293 452.895 182.371 453.977 182.371 455.309 c h
182.371 455.309 m f
236.68 509.434 m 236.68 510.766 235.602 511.844 234.27 511.844 c 232.938
 511.844 231.859 510.766 231.859 509.434 c 231.859 508.102 232.938 507.023
 234.27 507.023 c 235.602 507.023 236.68 508.102 236.68 509.434 c h
236.68 509.434 m f
264.648 527.727 m 264.648 529.059 263.566 530.137 262.238 530.137 c 260.906
 530.137 259.824 529.059 259.824 527.727 c 259.824 526.395 260.906 525.316
 262.238 525.316 c 263.566 525.316 264.648 526.395 264.648 527.727 c h
264.648 527.727 m f
180.402 433.164 m 180.402 434.496 179.32 435.574 177.988 435.574 c 176.66
 435.574 175.578 434.496 175.578 433.164 c 175.578 431.832 176.66 430.754
 177.988 430.754 c 179.32 430.754 180.402 431.832 180.402 433.164 c h
180.402 433.164 m f
239.836 431.852 m 239.836 433.184 238.758 434.262 237.426 434.262 c 236.094
 434.262 235.016 433.184 235.016 431.852 c 235.016 430.52 236.094 429.441
 237.426 429.441 c 238.758 429.441 239.836 430.52 239.836 431.852 c h
239.836 431.852 m f
192.219 546.109 m 192.219 547.441 191.137 548.52 189.805 548.52 c 188.477
 548.52 187.395 547.441 187.395 546.109 c 187.395 544.777 188.477 543.699
 189.805 543.699 c 191.137 543.699 192.219 544.777 192.219 546.109 c h
192.219 546.109 m f
264.984 437.586 m 264.984 438.918 263.906 439.996 262.574 439.996 c 261.242
 439.996 260.164 438.918 260.164 437.586 c 260.164 436.254 261.242 435.176
 262.574 435.176 c 263.906 435.176 264.984 436.254 264.984 437.586 c h
264.984 437.586 m f
95.566 531.438 m 95.566 532.77 94.488 533.848 93.156 533.848 c 91.824 533.848
 90.746 532.77 90.746 531.438 c 90.746 530.105 91.824 529.027 93.156 529.027
 c 94.488 529.027 95.566 530.105 95.566 531.438 c h
95.566 531.438 m f
256.414 505.965 m 256.414 507.297 255.336 508.379 254.004 508.379 c 252.672
 508.379 251.594 507.297 251.594 505.965 c 251.594 504.637 252.672 503.555
 254.004 503.555 c 255.336 503.555 256.414 504.637 256.414 505.965 c h
256.414 505.965 m f
65.883 467.727 m 65.883 469.059 64.801 470.137 63.469 470.137 c 62.141 
470.137 61.059 469.059 61.059 467.727 c 61.059 466.395 62.141 465.316 63.469
 465.316 c 64.801 465.316 65.883 466.395 65.883 467.727 c h
65.883 467.727 m f
183.23 427.254 m 183.23 428.586 182.152 429.668 180.82 429.668 c 179.488
 429.668 178.41 428.586 178.41 427.254 c 178.41 425.926 179.488 424.844 
180.82 424.844 c 182.152 424.844 183.23 425.926 183.23 427.254 c h
183.23 427.254 m f
174.102 498.297 m 174.102 499.629 173.023 500.707 171.691 500.707 c 170.359
 500.707 169.281 499.629 169.281 498.297 c 169.281 496.965 170.359 495.887
 171.691 495.887 c 173.023 495.887 174.102 496.965 174.102 498.297 c h
174.102 498.297 m f
153.938 431.797 m 153.938 433.129 152.859 434.207 151.527 434.207 c 150.195
 434.207 149.117 433.129 149.117 431.797 c 149.117 430.465 150.195 429.387
 151.527 429.387 c 152.859 429.387 153.938 430.465 153.938 431.797 c h
153.938 431.797 m f
187.328 466 m 187.328 467.332 186.246 468.41 184.918 468.41 c 183.586 468.41
 182.504 467.332 182.504 466 c 182.504 464.668 183.586 463.59 184.918 463.59
 c 186.246 463.59 187.328 464.668 187.328 466 c h
187.328 466 m f
152.223 471.352 m 152.223 472.684 151.145 473.762 149.812 473.762 c 148.48
 473.762 147.402 472.684 147.402 471.352 c 147.402 470.02 148.48 468.941
 149.812 468.941 c 151.145 468.941 152.223 470.02 152.223 471.352 c h
152.223 471.352 m f
133.617 485.121 m 133.617 486.453 132.539 487.535 131.207 487.535 c 129.875
 487.535 128.797 486.453 128.797 485.121 c 128.797 483.793 129.875 482.711
 131.207 482.711 c 132.539 482.711 133.617 483.793 133.617 485.121 c h
133.617 485.121 m f
198.238 428.727 m 198.238 430.055 197.16 431.137 195.828 431.137 c 194.496
 431.137 193.418 430.055 193.418 428.727 c 193.418 427.395 194.496 426.312
 195.828 426.312 c 197.16 426.312 198.238 427.395 198.238 428.727 c h
198.238 428.727 m f
110.117 509.535 m 110.117 510.863 109.035 511.945 107.707 511.945 c 106.375
 511.945 105.293 510.863 105.293 509.535 c 105.293 508.203 106.375 507.121
 107.707 507.121 c 109.035 507.121 110.117 508.203 110.117 509.535 c h
110.117 509.535 m f
224.531 523.547 m 224.531 524.879 223.449 525.957 222.121 525.957 c 220.789
 525.957 219.707 524.879 219.707 523.547 c 219.707 522.215 220.789 521.137
 222.121 521.137 c 223.449 521.137 224.531 522.215 224.531 523.547 c h
224.531 523.547 m f
81.078 551.051 m 81.078 552.383 80 553.465 78.668 553.465 c 77.336 553.465
 76.258 552.383 76.258 551.051 c 76.258 549.723 77.336 548.641 78.668 548.641
 c 80 548.641 81.078 549.723 81.078 551.051 c h
81.078 551.051 m f
205.691 539.938 m 205.691 541.27 204.613 542.348 203.281 542.348 c 201.949
 542.348 200.871 541.27 200.871 539.938 c 200.871 538.605 201.949 537.527
 203.281 537.527 c 204.613 537.527 205.691 538.605 205.691 539.938 c h
205.691 539.938 m f
198.23 491.395 m 198.23 492.727 197.152 493.805 195.82 493.805 c 194.488
 493.805 193.41 492.727 193.41 491.395 c 193.41 490.062 194.488 488.984 
195.82 488.984 c 197.152 488.984 198.23 490.062 198.23 491.395 c h
198.23 491.395 m f
277.574 446.012 m 277.574 447.344 276.492 448.422 275.16 448.422 c 273.832
 448.422 272.75 447.344 272.75 446.012 c 272.75 444.68 273.832 443.602 275.16
 443.602 c 276.492 443.602 277.574 444.68 277.574 446.012 c h
277.574 446.012 m f
97.129 437.383 m 97.129 438.715 96.047 439.793 94.715 439.793 c 93.387 
439.793 92.305 438.715 92.305 437.383 c 92.305 436.051 93.387 434.973 94.715
 434.973 c 96.047 434.973 97.129 436.051 97.129 437.383 c h
97.129 437.383 m f
78.121 477.172 m 78.121 478.504 77.043 479.582 75.711 479.582 c 74.383 
479.582 73.301 478.504 73.301 477.172 c 73.301 475.84 74.383 474.762 75.711
 474.762 c 77.043 474.762 78.121 475.84 78.121 477.172 c h
78.121 477.172 m f
1.417323 w
0 J
q 1 0 0 1 0 0 cm
356.508 466.984 m 327.906 468.398 299.309 469.812 275.336 472.93 c 251.363
 476.047 232.02 480.867 212.672 485.688 c S Q
226.426 482.262 m 230.555 475.387 l 212.672 485.688 l 233.297 486.391 l
 h
226.426 482.262 m f*
1.466966 w
q 1 -0.249148 0.249148 1 0 0 cm
100.06 507.191 m 105.56 501.687 l 86.306 507.191 l 105.561 512.691 l h
100.06 507.191 m S Q
1.417323 w
q 1 0 0 1 0 0 cm
356.508 413.086 m 349.074 412.91 341.645 412.73 334.312 411.586 c 326.984
 410.441 319.758 408.332 312.527 406.219 c S Q
326.133 410.195 m 333.164 406.344 l 312.527 406.219 l 329.984 417.227 l
 h
326.133 410.195 m f*
1.451104 w
q 1 0.292267 -0.292267 1 0 0 cm
410.919 290.097 m 416.359 284.656 l 397.313 290.097 l 416.36 295.538 l 
h
410.919 290.097 m S Q
1.417323 w
q 1 0 0 1 0 0 cm
356.508 352.656 m 327.855 350.988 299.199 349.32 275.012 358.398 c 250.828
 367.477 231.109 387.301 211.395 407.125 c S Q
221.387 397.074 m 221.367 389.059 l 211.395 407.125 l 229.406 397.055 l
 h
221.387 397.074 m f*
1.071879 w
q 0.994643 -1 1 0.994643 0 0 cm
-88.912 309.822 m -84.892 305.805 l -98.96 309.825 l -84.892 313.844 l 
h
-88.912 309.822 m S Q
1.417323 w
q 1 0 0 1 0 0 cm
356.508 295.984 m 331.484 286.055 306.465 276.129 277.52 275.918 c 248.578
 275.707 215.715 285.215 182.848 294.727 c S Q
196.465 290.785 m 200.336 283.766 l 182.848 294.727 l 203.484 294.656 l
 h
196.465 290.785 m f*
1.452244 w
q 1 -0.289338 0.289338 1 0 0 cm
103.652 320.776 m 109.098 315.332 l 90.035 320.777 l 109.096 326.222 l 
h
103.652 320.776 m S Q
1.417323 w
q 1 0 0 1 0 0 cm
101.695 181.387 m 101.695 256.578 101.695 331.777 101.695 406.973 c S Q
101.695 187.055 m 104.531 189.891 l 101.695 179.969 l 98.859 189.891 l 
h
101.695 187.055 m f*
0.755906 w
q 0 1 -1 0 0 0 cm
187.055 -101.695 m 189.891 -104.531 l 179.969 -101.695 l 189.891 -98.859
 l h
187.055 -101.695 m S Q
101.695 401.305 m 98.859 398.469 l 101.695 408.391 l 104.531 398.469 l 
h
101.695 401.305 m f*
q 0 -1 1 0 0 0 cm
-401.305 101.695 m -398.469 98.859 l -408.391 101.695 l -398.469 104.531
 l h
-401.305 101.695 m S Q
1 g
94.156 283.09 15.078 22.18 re f
0 g
1.417323 w
q 1 0 0 1 0 0 cm
356.508 69.539 m 335.59 62.285 314.672 55.035 296.707 54.227 c 278.746 
53.422 263.738 59.059 248.73 64.699 c S Q
262 59.711 m 265.312 52.41 l 248.73 64.699 l 269.301 63.023 l h
262 59.711 m f*
1.415206 w
q 1 -0.375746 0.375746 1 0 0 cm
209.926 138.59 m 215.232 133.283 l 196.655 138.592 l 215.232 143.896 l 
h
209.926 138.59 m S Q
1.417323 w
q 1 0 0 1 0 0 cm
356.508 124.504 m 342.23 121.879 327.949 119.25 314.117 120.57 c 300.289
 121.887 286.906 127.148 273.523 132.414 c S Q
286.715 127.227 m 289.914 119.875 l 273.523 132.414 l 294.066 130.426 l
 h
286.715 127.227 m f*
1.406883 w
q 1 -0.393352 0.393352 1 0 0 cm
204.958 207.847 m 210.233 202.57 l 191.767 207.846 l 210.235 213.122 l 
h
204.958 207.847 m S Q
1.417323 w
q 1 0 0 1 0 0 cm
356.508 182.051 m 346.957 179.863 337.41 177.672 327.32 178.477 c 317.227
 179.277 306.598 183.07 295.965 186.867 c S Q
309.312 182.102 m 312.746 174.855 l 295.965 186.867 l 316.559 185.535 l
 h
309.312 182.102 m f*
1.423824 w
q 1 -0.356947 0.356947 1 0 0 cm
216.702 259.453 m 222.041 254.112 l 203.354 259.454 l 222.042 264.792 l
 h
216.702 259.453 m S Q
1.417323 w
q 1 0 0 1 0 0 cm
356.508 239.141 m 339.906 234.324 323.301 229.512 303.09 229.906 c 282.879
 230.305 259.059 235.91 235.238 241.52 c S Q
249.035 238.27 m 253.254 231.453 l 235.238 241.52 l 255.852 242.488 l h
249.035 238.27 m f*
1.471583 w
q 1 -0.235415 0.235415 1 0 0 cm
182.811 281.306 m 188.329 275.789 l 169.014 281.308 l 188.329 286.824 l
 h
182.811 281.306 m S Q
162.301 86.676 m 162.215 87.074 162.082 87.695 162.082 87.828 c 162.082
 88.316 162.434 88.582 162.879 88.582 c 163.188 88.582 163.676 88.359 163.852
 87.828 c 163.898 87.738 164.207 86.453 164.383 85.789 c 164.562 84.949 
164.781 84.152 165.004 83.355 c 165.137 82.734 165.312 82.113 165.445 81.496
 c 165.578 81.051 165.758 80.254 165.801 80.121 c 166.199 79.281 167.66 
76.801 170.23 76.801 c 171.469 76.801 171.734 77.816 171.734 78.703 c 171.734
 79.414 171.516 80.164 171.293 81.008 c 170.984 82.379 170.852 82.91 170.539
 84.152 c 170.273 85.172 170.23 85.305 170.008 86.234 c 169.875 86.766 169.656
 87.695 169.656 87.828 c 169.656 88.316 170.055 88.582 170.453 88.582 c 
171.293 88.582 171.469 87.871 171.648 87.031 c 172.047 85.48 173.066 81.496
 173.285 80.43 c 173.375 80.078 174.836 76.801 177.805 76.801 c 179 76.801
 179.266 77.73 179.266 78.703 c 179.266 80.297 178.113 83.398 177.582 84.816
 c 177.359 85.48 177.227 85.789 177.227 86.32 c 177.227 87.605 178.203 88.582
 179.488 88.582 c 182.055 88.582 183.031 84.594 183.031 84.375 c 183.031
 84.105 182.809 84.105 182.719 84.105 c 182.453 84.105 182.453 84.195 182.32
 84.594 c 181.879 86.012 181.039 87.961 179.531 87.961 c 179.043 87.961 
178.867 87.695 178.867 87.074 c 178.867 86.367 179.133 85.746 179.355 85.125
 c 179.887 83.707 181.039 80.695 181.039 79.148 c 181.039 77.375 179.93 
76.223 177.895 76.223 c 175.855 76.223 174.438 77.418 173.465 78.836 c 173.418
 78.48 173.332 77.598 172.578 76.934 c 171.871 76.355 171.027 76.223 170.32
 76.223 c 167.883 76.223 166.555 77.949 166.066 78.57 c 165.934 77.02 164.781
 76.223 163.586 76.223 c 162.301 76.223 161.816 77.285 161.551 77.773 c 
161.062 78.703 160.707 80.344 160.707 80.43 c 160.707 80.695 160.973 80.695
 161.02 80.695 c 161.285 80.695 161.328 80.652 161.504 80.078 c 161.949 
78.129 162.523 76.801 163.5 76.801 c 163.941 76.801 164.34 77.02 164.34 
78.082 c 164.34 78.66 164.25 78.926 163.898 80.344 c h
162.301 86.676 m f
107.875 285.344 m 107.875 285.297 107.875 285.031 107.562 285.031 c 107.164
 285.031 104.684 285.297 104.242 285.344 c 104.066 285.344 103.887 285.477
 103.887 285.828 c 103.887 286.141 104.109 286.141 104.508 286.141 c 105.75
 286.141 105.793 286.316 105.793 286.582 c 105.75 287.113 l 104.199 293.227
 l 103.711 292.297 102.957 291.586 101.805 291.586 c 98.75 291.586 95.516
 295.398 95.516 299.207 c 95.516 301.641 96.977 303.324 98.973 303.324 c
 99.504 303.324 100.789 303.234 102.383 301.375 c 102.559 302.484 103.488
 303.324 104.73 303.324 c 105.617 303.324 106.234 302.75 106.633 301.906
 c 107.078 300.977 107.43 299.383 107.43 299.34 c 107.43 299.074 107.211
 299.074 107.121 299.074 c 106.855 299.074 106.812 299.207 106.766 299.559
 c 106.324 301.242 105.836 302.793 104.773 302.793 c 104.066 302.793 103.977
 302.086 103.977 301.598 c 103.977 300.977 104.066 300.758 104.152 300.312
 c h
102.469 299.957 m 102.383 300.445 102.383 300.488 101.984 300.934 c 100.832
 302.352 99.77 302.793 99.059 302.793 c 97.73 302.793 97.379 301.332 97.379
 300.312 c 97.379 299.027 98.219 295.84 98.793 294.645 c 99.59 293.137 100.789
 292.164 101.805 292.164 c 103.488 292.164 103.887 294.289 103.887 294.422
 c 103.887 294.598 103.801 294.73 103.801 294.863 c h
102.469 299.957 m f
372.98 62.441 m 372.98 61.73 372.98 61.688 372.316 61.688 c 370.59 63.504
 368.109 63.504 367.223 63.504 c 367.223 64.344 l 367.758 64.344 369.438
 64.344 370.902 63.637 c 370.902 78.207 l 370.902 79.227 370.812 79.539 
368.289 79.539 c 367.355 79.539 l 367.355 80.422 l 368.375 80.336 370.812
 80.336 371.918 80.336 c 373.07 80.336 375.508 80.336 376.48 80.422 c 376.48
 79.539 l 375.594 79.539 l 373.07 79.539 372.98 79.227 372.98 78.207 c h
372.98 62.441 m f
374.18 184.121 m 376.48 183.367 378.121 181.418 378.121 179.203 c 378.121
 176.902 375.641 175.309 372.938 175.309 c 370.102 175.309 367.977 176.988
 367.977 179.117 c 367.977 180.047 368.598 180.578 369.395 180.578 c 370.281
 180.578 370.855 180 370.855 179.16 c 370.855 177.742 369.527 177.742 369.086
 177.742 c 369.969 176.371 371.832 176.016 372.848 176.016 c 374 176.016
 375.551 176.637 375.551 179.16 c 375.551 179.516 375.461 181.152 374.754
 182.348 c 373.914 183.723 372.938 183.812 372.23 183.812 c 372.008 183.855
 371.344 183.898 371.168 183.898 c 370.902 183.945 370.723 183.988 370.723
 184.254 c 370.723 184.562 370.902 184.562 371.387 184.562 c 372.629 184.562
 l 374.93 184.562 375.992 186.469 375.992 189.215 c 375.992 193.066 374.047
 193.863 372.805 193.863 c 371.609 193.863 369.484 193.379 368.508 191.738
 c 369.484 191.871 370.367 191.25 370.367 190.188 c 370.367 189.172 369.617
 188.594 368.773 188.594 c 368.109 188.594 367.223 188.992 367.223 190.234
 c 367.223 192.801 369.836 194.66 372.895 194.66 c 376.305 194.66 378.875
 192.094 378.875 189.215 c 378.875 186.91 377.102 184.742 374.18 184.121
 c h
374.18 184.121 m f
367.223 246.82 m 374.711 246.82 l 374.711 249.258 l 374.711 250.277 374.621
 250.586 372.539 250.586 c 371.965 250.586 l 371.965 251.473 l 373.113 251.383
 374.578 251.383 375.773 251.383 c 376.926 251.383 378.43 251.383 379.582
 251.473 c 379.582 250.586 l 379.008 250.586 l 376.926 250.586 376.879 250.277
 376.879 249.258 c 376.879 246.82 l 379.672 246.82 l 379.672 245.98 l 376.879
 245.98 l 376.879 233.18 l 376.879 232.602 376.879 232.426 376.395 232.426
 c 376.172 232.426 376.082 232.426 375.859 232.781 c 367.223 245.98 l h
374.844 245.98 m 368.023 245.98 l 374.844 235.48 l h
374.844 245.98 m f
377.59 302.035 m 377.59 298.938 375.461 296.367 372.672 296.367 c 371.434
 296.367 370.281 296.766 369.352 297.695 c 369.352 292.602 l 369.883 292.777
 370.723 292.957 371.566 292.957 c 374.754 292.957 376.57 290.609 376.57
 290.254 c 376.57 290.121 376.527 289.988 376.305 289.988 c 376.305 289.988
 376.262 289.988 376.129 290.031 c 375.594 290.297 374.312 290.785 372.582
 290.785 c 371.566 290.785 370.367 290.609 369.129 290.078 c 368.906 289.988
 368.863 289.988 368.82 289.988 c 368.555 289.988 368.555 290.211 368.555
 290.609 c 368.555 298.316 l 368.555 298.758 368.555 298.98 368.906 298.98
 c 369.086 298.98 369.172 298.891 369.262 298.758 c 369.527 298.316 370.504
 296.941 372.629 296.941 c 373.957 296.941 374.621 298.137 374.797 298.582
 c 375.242 299.555 375.285 300.574 375.285 301.859 c 375.285 302.789 375.285
 304.34 374.664 305.402 c 374.047 306.422 373.07 307.086 371.875 307.086
 c 369.969 307.086 368.508 305.711 368.066 304.207 c 368.156 304.207 368.242
 304.25 368.508 304.25 c 369.352 304.25 369.793 303.586 369.793 302.965 
c 369.793 302.348 369.352 301.727 368.508 301.727 c 368.156 301.727 367.223
 301.902 367.223 303.098 c 367.223 305.312 369.039 307.84 371.918 307.84
 c 374.93 307.84 377.59 305.359 377.59 302.035 c h
377.59 302.035 m f
369.75 355.723 m 369.75 355.016 l 369.75 347.926 373.25 346.91 374.664 
346.91 c 375.328 346.91 376.527 347.086 377.145 348.016 c 376.703 348.016
 375.594 348.016 375.594 349.301 c 375.594 350.188 376.262 350.586 376.879
 350.586 c 377.324 350.586 378.164 350.32 378.164 349.258 c 378.164 347.574
 376.926 346.199 374.621 346.199 c 370.988 346.199 367.223 349.832 367.223
 356.031 c 367.223 363.562 370.457 365.555 373.07 365.555 c 376.215 365.555
 378.875 362.898 378.875 359.176 c 378.875 355.633 376.395 352.934 373.25
 352.934 c 371.344 352.934 370.324 354.352 369.75 355.723 c h
373.07 364.758 m 371.301 364.758 370.457 363.074 370.324 362.676 c 369.793
 361.348 369.793 359.09 369.793 358.559 c 369.793 356.387 370.68 353.551
 373.25 353.551 c 373.691 353.551 374.977 353.551 375.859 355.324 c 376.348
 356.344 376.348 357.805 376.348 359.176 c 376.348 360.508 376.348 361.922
 375.859 362.941 c 375.02 364.625 373.734 364.758 373.07 364.758 c h
373.07 364.758 m f
379.008 404.891 m 379.273 404.582 379.273 404.492 379.273 403.918 c 372.449
 403.918 l 368.996 403.918 368.953 403.562 368.82 403.031 c 368.156 403.031
 l 367.223 408.836 l 367.891 408.836 l 367.977 408.348 368.242 406.574 368.598
 406.266 c 368.82 406.09 370.988 406.09 371.387 406.09 c 377.191 406.09 
l 376.879 406.531 374.664 409.586 374.047 410.516 c 371.52 414.328 370.59
 418.223 370.59 421.102 c 370.59 421.367 370.59 422.652 371.875 422.652 
c 373.16 422.652 373.16 421.367 373.16 421.102 c 373.16 419.684 l 373.16
 418.137 373.25 416.586 373.469 415.078 c 373.602 414.414 374 411.98 375.242
 410.25 c h
379.008 404.891 m f
370.637 466.02 m 369.305 465.18 369.219 464.203 369.219 463.719 c 369.219
 462.035 371.035 460.84 373.027 460.84 c 375.062 460.84 376.879 462.301 
376.879 464.336 c 376.879 465.93 375.773 467.262 374.09 468.277 c h
374.711 468.676 m 376.746 467.66 378.121 466.195 378.121 464.336 c 378.121
 461.723 375.641 460.129 373.07 460.129 c 370.234 460.129 367.977 462.211
 367.977 464.824 c 367.977 465.355 368.023 466.598 369.219 467.926 c 369.527
 468.277 370.547 468.941 371.254 469.43 c 369.617 470.273 367.223 471.82
 367.223 474.613 c 367.223 477.582 370.059 479.484 373.027 479.484 c 376.215
 479.484 378.875 477.137 378.875 474.125 c 378.875 473.105 378.562 471.867
 377.5 470.672 c 376.969 470.094 376.527 469.828 374.711 468.676 c h
371.918 469.875 m 372.672 470.359 374 471.203 375.375 472.043 c 376.172
 472.574 377.457 473.418 377.457 475.145 c 377.457 477.227 375.375 478.688
 373.07 478.688 c 370.637 478.688 368.598 476.961 368.598 474.613 c 368.598
 472.973 369.527 471.203 371.918 469.875 c h
371.918 469.875 m f
378.43 132.516 m 377.723 132.516 l 377.59 133.355 377.41 134.598 377.102
 134.996 c 376.926 135.219 375.062 135.219 374.445 135.219 c 369.395 135.219
 l 372.363 132.34 l 376.746 128.441 378.43 126.934 378.43 124.102 c 378.43
 120.91 375.906 118.652 372.449 118.652 c 369.305 118.652 367.223 121.266
 367.223 123.746 c 367.223 125.34 368.598 125.34 368.688 125.34 c 369.172
 125.34 370.148 124.984 370.148 123.836 c 370.148 123.082 369.66 122.371
 368.688 122.371 c 368.465 122.371 368.375 122.371 368.332 122.418 c 368.953
 120.559 370.457 119.539 372.098 119.539 c 374.664 119.539 375.859 121.797
 375.859 124.102 c 375.859 126.359 374.488 128.574 372.938 130.344 c 367.535
 136.367 l 367.223 136.633 367.223 136.723 367.223 137.387 c 377.633 137.387
 l h
378.43 132.516 m f
Q Q
showpage
%%Trailer
end
%%EOF
