%!PS-Adobe-3.0 EPSF-3.0
%%Creator: cairo 1.16.0 (https://cairographics.org)
%%CreationDate: Wed Sep  9 21:00:04 2020
%%Pages: 1
%%DocumentData: Clean7Bit
%%LanguageLevel: 2
%%BoundingBox: 24 25 787 554
%%EndComments
%%BeginProlog
50 dict begin
/q { gsave } bind def
/Q { grestore } bind def
/cm { 6 array astore concat } bind def
/w { setlinewidth } bind def
/J { setlinecap } bind def
/j { setlinejoin } bind def
/M { setmiterlimit } bind def
/d { setdash } bind def
/m { moveto } bind def
/l { lineto } bind def
/c { curveto } bind def
/h { closepath } bind def
/re { exch dup neg 3 1 roll 5 3 roll moveto 0 rlineto
      0 exch rlineto 0 rlineto closepath } bind def
/S { stroke } bind def
/f { fill } bind def
/f* { eofill } bind def
/n { newpath } bind def
/W { clip } bind def
/W* { eoclip } bind def
/BT { } bind def
/ET { } bind def
/BDC { mark 3 1 roll /BDC pdfmark } bind def
/EMC { mark /EMC pdfmark } bind def
/cairo_store_point { /cairo_point_y exch def /cairo_point_x exch def } def
/Tj { show currentpoint cairo_store_point } bind def
/TJ {
  {
    dup
    type /stringtype eq
    { show } { -0.001 mul 0 cairo_font_matrix dtransform rmoveto } ifelse
  } forall
  currentpoint cairo_store_point
} bind def
/cairo_selectfont { cairo_font_matrix aload pop pop pop 0 0 6 array astore
    cairo_font exch selectfont cairo_point_x cairo_point_y moveto } bind def
/Tf { pop /cairo_font exch def /cairo_font_matrix where
      { pop cairo_selectfont } if } bind def
/Td { matrix translate cairo_font_matrix matrix concatmatrix dup
      /cairo_font_matrix exch def dup 4 get exch 5 get cairo_store_point
      /cairo_font where { pop cairo_selectfont } if } bind def
/Tm { 2 copy 8 2 roll 6 array astore /cairo_font_matrix exch def
      cairo_store_point /cairo_font where { pop cairo_selectfont } if } bind def
/g { setgray } bind def
/rg { setrgbcolor } bind def
/d1 { setcachedevice } bind def
/cairo_data_source {
  CairoDataIndex CairoData length lt
    { CairoData CairoDataIndex get /CairoDataIndex CairoDataIndex 1 add def }
    { () } ifelse
} def
/cairo_flush_ascii85_file { cairo_ascii85_file status { cairo_ascii85_file flushfile } if } def
/cairo_image { image cairo_flush_ascii85_file } def
/cairo_imagemask { imagemask cairo_flush_ascii85_file } def
%%EndProlog
%%BeginSetup
%%EndSetup
%%Page: 1 1
%%BeginPageSetup
%%PageBoundingBox: 24 25 787 554
%%EndPageSetup
q 24 25 763 529 rectclip
1 0 0 -1 0 596 cm q
0 g
1 w
0 J
0 j
[] 0.0 d
4 M q 1 0 0 1 0 0 cm
58.93 526.703 m 300.715 526.703 542.5 526.703 784.285 526.703 c S Q
774.285 526.703 m 770.285 530.703 l 784.285 526.703 l 770.285 522.703 l
 h
774.285 526.703 m f*
1.066667 w
q -1 0 0 -1 0 0 cm
-774.285 -526.703 m -770.285 -530.703 l -784.285 -526.703 l -770.285 -522.703
 l h
-774.285 -526.703 m S Q
1 w
q 0 -1 1 0 0 0 cm
-526.703 58.93 m -365.988 58.93 -205.273 58.93 -44.562 58.93 c S Q
58.93 54.562 m 62.93 58.562 l 58.93 44.562 l 54.93 58.562 l h
58.93 54.562 m f*
1.066667 w
q 0 1 -1 0 0 0 cm
54.562 -58.93 m 58.562 -62.93 l 44.562 -58.93 l 58.562 -54.93 l h
54.562 -58.93 m S Q
36.168 275.422 m 36.375 274.184 36.926 273.492 39.754 273.492 c 42.094 
273.492 44.301 274.25 44.301 277.695 c 44.301 278.316 44.23 279.004 44.094
 279.762 c 43.195 284.242 40.715 286.031 36.926 286.031 c 35.895 286.031
 34.586 285.965 34.172 285.824 c h
28.938 296.16 m 28.73 297.262 28.039 297.742 26.387 297.883 c 25.355 297.949
 l 25.148 297.949 25.078 298.09 25.008 298.293 c 24.871 299.051 l 24.941
 299.121 l 26.387 299.121 28.316 299.051 29.969 299.051 c 31.555 299.051
 33.551 299.121 35.41 299.121 c 35.48 299.051 l 35.617 298.293 l 35.688 
298.09 35.551 297.949 35.41 297.949 c 33.965 297.883 l 32.656 297.812 32.035
 297.469 32.035 296.641 c 32.035 296.504 32.105 296.367 32.105 296.16 c 
33.898 286.996 l 34.723 287.34 35.41 287.41 36.859 287.41 c 44.023 287.41
 47.055 282.52 47.676 279.004 c 47.742 278.66 47.812 278.18 47.812 277.766
 c 47.812 275.285 46.434 272.117 40.305 272.117 c 39.27 272.117 36.723 272.461
 35.137 272.461 c 33.551 272.461 31.555 272.461 30.109 272.391 c 29.969 
272.461 l 29.832 273.355 l 29.762 273.492 29.902 273.562 30.039 273.562 
c 31.555 273.699 l 32.105 273.699 32.934 274.047 32.934 275.008 c 32.934
 275.148 32.934 275.285 32.934 275.422 c h
28.938 296.16 m f
454.242 546.863 m 456.238 543.695 457.891 543.559 459.406 543.488 c 459.891
 543.418 459.957 542.73 459.957 542.73 c 459.957 542.387 459.754 542.25 
459.406 542.25 c 458.375 542.25 457.203 542.387 456.102 542.387 c 454.793
 542.387 453.414 542.25 452.105 542.25 c 451.828 542.25 451.348 542.25 451.348
 543.008 c 451.348 543.418 451.691 543.488 451.969 543.488 c 453.07 543.559
 453.828 543.969 453.828 544.797 c 453.828 545.418 453.207 546.312 453.207
 546.383 c 440.809 566.086 l 438.121 544.727 l 438.121 544.039 439.016 543.488
 440.875 543.488 c 441.426 543.488 441.91 543.488 441.91 542.66 c 441.91
 542.316 441.566 542.25 441.289 542.25 c 439.703 542.25 437.984 542.387 
436.328 542.387 c 435.57 542.387 434.812 542.316 434.125 542.316 c 433.367
 542.316 432.609 542.25 431.922 542.25 c 431.645 542.25 431.164 542.25 431.164
 543.008 c 431.164 543.488 431.508 543.488 432.129 543.488 c 434.398 543.488
 434.469 543.832 434.605 544.867 c 437.777 569.734 l 437.914 570.562 438.051
 570.699 438.602 570.699 c 439.223 570.699 439.359 570.492 439.703 569.941
 c h
454.242 546.863 m f
1 w
q 1 0 0 1 0 0 cm
607.984 94.664 m 559.242 103.395 510.5 112.121 451.672 144.66 c 392.84 
177.195 323.93 233.539 268.906 287.582 c 213.879 341.625 172.746 393.363
 131.613 445.102 c S Q
460.422 139.82 m 461.984 134.383 l 451.672 144.66 l 465.859 141.383 l h
460.422 139.82 m f*
0.933415 w
q 1 -0.553078 0.553078 1 0 0 cm
293.355 302.068 m 296.854 298.566 l 284.604 302.069 l 296.857 305.568 l
 h
293.355 302.068 m S Q
276.039 280.574 m 276.09 274.918 l 268.906 287.582 l 281.695 280.625 l 
h
276.039 280.574 m f*
0.761008 w
q 1 -0.982153 0.982153 1 0 0 cm
0.24 280.81 m 3.094 277.957 l -6.894 280.812 l 3.094 283.664 l h
0.24 280.81 m S Q
1 w
q -1 0 0 1 0 0 cm
-131.613 445.102 m -156.863 341.32 -182.109 237.543 -214.602 187.367 c 
-247.09 137.191 -286.816 140.625 -312.328 128.469 c -337.844 116.309 -349.141
 88.562 -396.047 80.332 c -442.949 72.102 -525.469 83.383 -607.984 94.664
 c S Q
209.164 195.762 m 203.633 196.945 l 214.602 187.367 l 210.348 201.293 l
 h
209.164 195.762 m f*
0.895355 w
q -0.647515 1 1 0.647515 0 0 cm
42.504 236.686 m 45.861 233.329 l 34.109 236.687 l 45.861 240.043 l h
42.504 236.686 m S Q
303.301 132.77 m 297.969 130.879 l 312.328 128.469 l 301.41 138.102 l h
303.301 132.77 m f*
0.962933 w
q -1 0.476507 0.476507 1 0 0 cm
-195.618 225.983 m -192.007 222.372 l -204.645 225.984 l -192.007 229.594
 l h
-195.618 225.983 m S Q
386.195 82.059 m 381.566 78.812 l 396.047 80.332 l 382.949 86.691 l h
386.195 82.059 m f*
1.05061 w
q -1 0.175498 0.175498 1 0 0 cm
-360.685 145.358 m -356.747 141.421 l -370.536 145.361 l -356.747 149.3
 l h
-360.685 145.358 m S Q
1 w
q -1 0 0 1 0 0 cm
-131.613 445.102 m -190.086 442.645 -248.559 440.188 -322.426 413.434 c
 -396.293 386.68 -485.547 335.633 -535.703 278.453 c -585.863 221.273 -596.922
 157.969 -607.984 94.664 c S Q
313.023 416.84 m 307.902 414.441 l 322.426 413.434 l 310.625 421.961 l 
h
313.023 416.84 m f*
1.00291 w
q -1 0.362195 0.362195 1 0 0 cm
-143.253 468.726 m -139.494 464.965 l -152.656 468.725 l -139.493 472.485
 l h
-143.253 468.726 m S Q
529.109 285.969 m 523.465 286.34 l 535.703 278.453 l 529.48 291.613 l h
529.109 285.969 m f*
0.801861 w
q -0.877231 1 1 0.877231 0 0 cm
-100.695 440.777 m -97.687 437.771 l -108.211 440.777 l -97.689 443.785
 l h
-100.695 440.777 m S Q
134.711 445.102 m 134.711 446.812 133.324 448.199 131.613 448.199 c 129.902
 448.199 128.516 446.812 128.516 445.102 c 128.516 443.391 129.902 442.004
 131.613 442.004 c 133.324 442.004 134.711 443.391 134.711 445.102 c h
134.711 445.102 m f
611.082 94.664 m 611.082 96.375 609.695 97.762 607.984 97.762 c 606.273
 97.762 604.887 96.375 604.887 94.664 c 604.887 92.953 606.273 91.566 607.984
 91.566 c 609.695 91.566 611.082 92.953 611.082 94.664 c h
611.082 94.664 m f
256.359 149.781 m 256.359 151.492 254.973 152.879 253.262 152.879 c 251.551
 152.879 250.16 151.492 250.16 149.781 c 250.16 148.07 251.551 146.684 253.262
 146.684 c 254.973 146.684 256.359 148.07 256.359 149.781 c h
256.359 149.781 m f
366.316 204.625 m 366.316 206.336 364.93 207.723 363.219 207.723 c 361.508
 207.723 360.121 206.336 360.121 204.625 c 360.121 202.914 361.508 201.527
 363.219 201.527 c 364.93 201.527 366.316 202.914 366.316 204.625 c h
366.316 204.625 m f
487.867 325.262 m 487.867 326.973 486.48 328.359 484.77 328.359 c 483.059
 328.359 481.672 326.973 481.672 325.262 c 481.672 323.551 483.059 322.164
 484.77 322.164 c 486.48 322.164 487.867 323.551 487.867 325.262 c h
487.867 325.262 m f
117.887 426.977 m 117.129 425.395 115.891 424.293 113.961 424.293 c 109
 424.293 103.766 430.492 103.766 436.691 c 103.766 440.688 106.105 443.512
 109.414 443.512 c 110.242 443.512 112.375 443.305 114.926 440.344 c 115.27
 442.066 116.715 443.512 118.785 443.512 c 120.23 443.512 121.195 442.547
 121.883 441.168 c 122.641 439.652 123.191 437.035 123.191 436.969 c 123.191
 436.555 122.777 436.555 122.641 436.555 c 122.227 436.555 122.227 436.691
 122.09 437.312 c 121.332 440.066 120.574 442.547 118.852 442.547 c 117.68
 442.547 117.543 441.445 117.543 440.617 c 117.543 439.652 117.68 439.309
 118.094 437.449 c 118.578 435.66 118.645 435.246 119.059 433.66 c 119.746
 430.906 119.953 430.148 120.574 427.734 c 120.918 426.496 120.918 426.426
 120.918 426.289 c 120.918 425.531 120.367 425.117 119.68 425.117 c 118.645
 425.117 118.027 426.082 117.887 426.977 c h
115.133 438 m 114.926 438.758 114.926 438.828 114.238 439.516 c 112.375
 441.859 110.652 442.547 109.484 442.547 c 107.348 442.547 106.727 440.207
 106.727 438.551 c 106.727 436.484 108.105 431.25 109.07 429.25 c 110.379
 426.773 112.309 425.188 114.031 425.188 c 116.785 425.188 117.336 428.699
 117.336 428.906 c 117.336 429.184 117.27 429.457 117.27 429.664 c h
115.133 438 m f
622.793 64.023 m 622.793 63.953 622.793 63.539 622.242 63.539 c 621.348
 63.539 618.387 63.887 617.352 63.953 c 617.008 64.023 616.594 64.023 616.594
 64.781 c 616.594 65.262 616.938 65.262 617.559 65.262 c 619.488 65.262 
619.555 65.539 619.555 65.953 c 619.555 66.227 619.211 67.605 619.004 68.434
 c 615.699 81.59 l 615.215 83.656 615.078 84.277 615.078 85.656 c 615.078
 89.512 617.215 91.992 620.176 91.992 c 624.93 91.992 629.891 86 629.891
 80.211 c 629.891 76.492 627.754 73.738 624.516 73.738 c 622.656 73.738 
621.004 74.906 619.832 76.148 c h
619.004 79.246 m 619.211 78.352 619.211 78.285 619.625 77.871 c 621.555
 75.254 623.414 74.633 624.449 74.633 c 625.895 74.633 626.996 75.805 626.996
 78.422 c 626.996 80.832 625.688 85.449 624.93 86.965 c 623.621 89.648 621.762
 91.164 620.176 91.164 c 618.797 91.164 617.488 90.062 617.488 87.031 c 
617.488 86.273 617.488 85.516 618.109 82.969 c h
619.004 79.246 m f
248.746 125.418 m 248.059 125.418 247.438 125.418 246.887 126.039 c 246.199
 126.656 246.129 127.348 246.129 127.691 c 246.129 128.656 246.887 129.137
 247.715 129.137 c 248.883 129.137 250.055 128.105 250.055 126.449 c 250.055
 124.383 248.059 122.801 245.027 122.801 c 239.309 122.801 233.66 128.863
 233.66 134.855 c 233.66 138.645 236.141 142.02 240.551 142.02 c 246.613
 142.02 250.195 137.473 250.195 136.992 c 250.195 136.715 249.918 136.441
 249.641 136.441 c 249.438 136.441 249.367 136.508 249.09 136.852 c 245.785
 141.055 241.168 141.055 240.617 141.055 c 237.93 141.055 236.828 138.988
 236.828 136.441 c 236.828 134.719 237.656 130.586 239.102 127.965 c 240.41
 125.555 242.754 123.695 245.098 123.695 c 246.543 123.695 248.125 124.246
 248.746 125.418 c h
248.746 125.418 m f
362.344 172.734 m 362.344 172.664 362.344 172.25 361.859 172.25 c 361.242
 172.25 357.383 172.664 356.695 172.734 c 356.418 172.734 356.145 172.941
 356.145 173.492 c 356.145 173.973 356.488 173.973 357.109 173.973 c 359.035
 173.973 359.105 174.25 359.105 174.664 c 359.035 175.488 l 356.625 184.996
 l 355.867 183.551 354.695 182.449 352.906 182.449 c 348.152 182.449 343.121
 188.371 343.121 194.297 c 343.121 198.086 345.395 200.703 348.496 200.703
 c 349.324 200.703 351.32 200.566 353.801 197.672 c 354.078 199.395 355.523
 200.703 357.453 200.703 c 358.828 200.703 359.793 199.809 360.414 198.5
 c 361.102 197.051 361.656 194.574 361.656 194.504 c 361.656 194.09 361.309
 194.09 361.172 194.09 c 360.758 194.09 360.691 194.297 360.621 194.848 
c 359.934 197.465 359.176 199.879 357.52 199.879 c 356.418 199.879 356.281
 198.773 356.281 198.016 c 356.281 197.051 356.418 196.707 356.555 196.02
 c h
353.938 195.469 m 353.801 196.227 353.801 196.293 353.18 196.984 c 351.391
 199.188 349.734 199.879 348.633 199.879 c 346.566 199.879 346.016 197.605
 346.016 196.02 c 346.016 194.02 347.324 189.062 348.219 187.199 c 349.461
 184.859 351.32 183.344 352.906 183.344 c 355.523 183.344 356.145 186.648
 356.145 186.855 c 356.145 187.133 356.004 187.34 356.004 187.547 c h
353.938 195.469 m f
473.914 309.691 m 475.152 309.691 478.32 309.555 480.387 308.727 c 483.418
 307.418 483.625 304.941 483.625 304.32 c 483.625 302.461 481.973 300.738
 479.078 300.738 c 474.324 300.738 467.918 304.801 467.918 312.242 c 467.918
 316.582 470.469 319.957 474.602 319.957 c 480.664 319.957 484.246 315.41
 484.246 314.93 c 484.246 314.652 483.969 314.379 483.695 314.379 c 483.488
 314.379 483.418 314.445 483.145 314.789 c 479.836 318.992 475.223 318.992
 474.672 318.992 c 471.363 318.992 471.02 315.41 471.02 314.102 c 471.02
 313.551 471.02 312.242 471.707 309.691 c h
471.914 308.727 m 473.566 302.32 477.977 301.633 479.078 301.633 c 481.078
 301.633 482.18 302.871 482.18 304.32 c 482.18 308.727 475.43 308.727 473.637
 308.727 c h
471.914 308.727 m f
Q Q
showpage
%%Trailer
end
%%EOF
