%!PS-Adobe-3.0 EPSF-3.0
%%Creator: cairo 1.16.0 (https://cairographics.org)
%%CreationDate: Wed Sep 16 01:41:26 2020
%%Pages: 1
%%DocumentData: Clean7Bit
%%LanguageLevel: 2
%%BoundingBox: 24 25 787 554
%%EndComments
%%BeginProlog
50 dict begin
/q { gsave } bind def
/Q { grestore } bind def
/cm { 6 array astore concat } bind def
/w { setlinewidth } bind def
/J { setlinecap } bind def
/j { setlinejoin } bind def
/M { setmiterlimit } bind def
/d { setdash } bind def
/m { moveto } bind def
/l { lineto } bind def
/c { curveto } bind def
/h { closepath } bind def
/re { exch dup neg 3 1 roll 5 3 roll moveto 0 rlineto
      0 exch rlineto 0 rlineto closepath } bind def
/S { stroke } bind def
/f { fill } bind def
/f* { eofill } bind def
/n { newpath } bind def
/W { clip } bind def
/W* { eoclip } bind def
/BT { } bind def
/ET { } bind def
/BDC { mark 3 1 roll /BDC pdfmark } bind def
/EMC { mark /EMC pdfmark } bind def
/cairo_store_point { /cairo_point_y exch def /cairo_point_x exch def } def
/Tj { show currentpoint cairo_store_point } bind def
/TJ {
  {
    dup
    type /stringtype eq
    { show } { -0.001 mul 0 cairo_font_matrix dtransform rmoveto } ifelse
  } forall
  currentpoint cairo_store_point
} bind def
/cairo_selectfont { cairo_font_matrix aload pop pop pop 0 0 6 array astore
    cairo_font exch selectfont cairo_point_x cairo_point_y moveto } bind def
/Tf { pop /cairo_font exch def /cairo_font_matrix where
      { pop cairo_selectfont } if } bind def
/Td { matrix translate cairo_font_matrix matrix concatmatrix dup
      /cairo_font_matrix exch def dup 4 get exch 5 get cairo_store_point
      /cairo_font where { pop cairo_selectfont } if } bind def
/Tm { 2 copy 8 2 roll 6 array astore /cairo_font_matrix exch def
      cairo_store_point /cairo_font where { pop cairo_selectfont } if } bind def
/g { setgray } bind def
/rg { setrgbcolor } bind def
/d1 { setcachedevice } bind def
/cairo_data_source {
  CairoDataIndex CairoData length lt
    { CairoData CairoDataIndex get /CairoDataIndex CairoDataIndex 1 add def }
    { () } ifelse
} def
/cairo_flush_ascii85_file { cairo_ascii85_file status { cairo_ascii85_file flushfile } if } def
/cairo_image { image cairo_flush_ascii85_file } def
/cairo_imagemask { imagemask cairo_flush_ascii85_file } def
%%EndProlog
%%BeginSetup
%%EndSetup
%%Page: 1 1
%%BeginPageSetup
%%PageBoundingBox: 24 25 787 554
%%EndPageSetup
q 24 25 763 529 rectclip
1 0 0 -1 0 596 cm q
0 g
1 w
0 J
0 j
[] 0.0 d
4 M q 1 0 0 1 0 0 cm
58.93 526.703 m 300.715 526.703 542.5 526.703 784.285 526.703 c S Q
774.285 526.703 m 770.285 530.703 l 784.285 526.703 l 770.285 522.703 l
 h
774.285 526.703 m f*
1.066667 w
q -1 0 0 -1 0 0 cm
-774.285 -526.703 m -770.285 -530.703 l -784.285 -526.703 l -770.285 -522.703
 l h
-774.285 -526.703 m S Q
1 w
q 0 -1 1 0 0 0 cm
-526.703 58.93 m -365.988 58.93 -205.273 58.93 -44.562 58.93 c S Q
58.93 54.562 m 62.93 58.562 l 58.93 44.562 l 54.93 58.562 l h
58.93 54.562 m f*
1.066667 w
q 0 1 -1 0 0 0 cm
54.562 -58.93 m 58.562 -62.93 l 44.562 -58.93 l 58.562 -54.93 l h
54.562 -58.93 m S Q
36.168 275.422 m 36.375 274.184 36.926 273.492 39.754 273.492 c 42.094 
273.492 44.301 274.25 44.301 277.695 c 44.301 278.316 44.23 279.004 44.094
 279.762 c 43.195 284.242 40.715 286.031 36.926 286.031 c 35.895 286.031
 34.586 285.965 34.172 285.824 c h
28.938 296.16 m 28.73 297.262 28.039 297.742 26.387 297.883 c 25.355 297.949
 l 25.148 297.949 25.078 298.09 25.008 298.293 c 24.871 299.051 l 24.941
 299.121 l 26.387 299.121 28.316 299.051 29.969 299.051 c 31.555 299.051
 33.551 299.121 35.41 299.121 c 35.48 299.051 l 35.617 298.293 l 35.688 
298.09 35.551 297.949 35.41 297.949 c 33.965 297.883 l 32.656 297.812 32.035
 297.469 32.035 296.641 c 32.035 296.504 32.105 296.367 32.105 296.16 c 
33.898 286.996 l 34.723 287.34 35.41 287.41 36.859 287.41 c 44.023 287.41
 47.055 282.52 47.676 279.004 c 47.742 278.66 47.812 278.18 47.812 277.766
 c 47.812 275.285 46.434 272.117 40.305 272.117 c 39.27 272.117 36.723 272.461
 35.137 272.461 c 33.551 272.461 31.555 272.461 30.109 272.391 c 29.969 
272.461 l 29.832 273.355 l 29.762 273.492 29.902 273.562 30.039 273.562 
c 31.555 273.699 l 32.105 273.699 32.934 274.047 32.934 275.008 c 32.934
 275.148 32.934 275.285 32.934 275.422 c h
28.938 296.16 m f
454.242 546.863 m 456.238 543.695 457.891 543.559 459.406 543.488 c 459.891
 543.418 459.957 542.73 459.957 542.73 c 459.957 542.387 459.754 542.25 
459.406 542.25 c 458.375 542.25 457.203 542.387 456.102 542.387 c 454.793
 542.387 453.414 542.25 452.105 542.25 c 451.828 542.25 451.348 542.25 451.348
 543.008 c 451.348 543.418 451.691 543.488 451.969 543.488 c 453.07 543.559
 453.828 543.969 453.828 544.797 c 453.828 545.418 453.207 546.312 453.207
 546.383 c 440.809 566.086 l 438.121 544.727 l 438.121 544.039 439.016 543.488
 440.875 543.488 c 441.426 543.488 441.91 543.488 441.91 542.66 c 441.91
 542.316 441.566 542.25 441.289 542.25 c 439.703 542.25 437.984 542.387 
436.328 542.387 c 435.57 542.387 434.812 542.316 434.125 542.316 c 433.367
 542.316 432.609 542.25 431.922 542.25 c 431.645 542.25 431.164 542.25 431.164
 543.008 c 431.164 543.488 431.508 543.488 432.129 543.488 c 434.398 543.488
 434.469 543.832 434.605 544.867 c 437.777 569.734 l 437.914 570.562 438.051
 570.699 438.602 570.699 c 439.223 570.699 439.359 570.492 439.703 569.941
 c h
454.242 546.863 m f
657.57 442.062 m 657.57 444.27 655.781 446.062 653.57 446.062 c 651.363
 446.062 649.57 444.27 649.57 442.062 c 649.57 439.852 651.363 438.062 653.57
 438.062 c 655.781 438.062 657.57 439.852 657.57 442.062 c h
657.57 442.062 m f
672.398 451.566 m 671.641 449.984 670.398 448.879 668.469 448.879 c 663.512
 448.879 658.273 455.082 658.273 461.281 c 658.273 465.277 660.617 468.102
 663.926 468.102 c 664.75 468.102 666.887 467.895 669.434 464.934 c 669.781
 466.652 671.227 468.102 673.293 468.102 c 674.738 468.102 675.703 467.137
 676.395 465.758 c 677.152 464.242 677.703 461.625 677.703 461.555 c 677.703
 461.145 677.289 461.145 677.152 461.145 c 676.738 461.145 676.738 461.281
 676.602 461.902 c 675.844 464.656 675.086 467.137 673.363 467.137 c 672.191
 467.137 672.055 466.035 672.055 465.207 c 672.055 464.242 672.191 463.898
 672.605 462.039 c 673.086 460.246 673.156 459.836 673.57 458.25 c 674.258
 455.492 674.465 454.734 675.086 452.324 c 675.43 451.086 675.43 451.016
 675.43 450.879 c 675.43 450.121 674.879 449.707 674.188 449.707 c 673.156
 449.707 672.535 450.672 672.398 451.566 c h
669.641 462.59 m 669.434 463.348 669.434 463.418 668.746 464.105 c 666.887
 466.449 665.164 467.137 663.992 467.137 c 661.855 467.137 661.238 464.793
 661.238 463.141 c 661.238 461.074 662.613 455.84 663.578 453.84 c 664.887
 451.359 666.816 449.777 668.539 449.777 c 671.297 449.777 671.848 453.289
 671.848 453.496 c 671.848 453.773 671.777 454.047 671.777 454.254 c h
669.641 462.59 m f
147.375 448.707 m 147.375 448.637 147.375 448.223 146.824 448.223 c 145.93
 448.223 142.969 448.566 141.934 448.637 c 141.59 448.707 141.176 448.707
 141.176 449.465 c 141.176 449.945 141.52 449.945 142.141 449.945 c 144.07
 449.945 144.137 450.223 144.137 450.633 c 144.137 450.91 143.793 452.289
 143.586 453.113 c 140.281 466.273 l 139.797 468.34 139.66 468.961 139.66
 470.336 c 139.66 474.195 141.797 476.676 144.758 476.676 c 149.512 476.676
 154.473 470.684 154.473 464.895 c 154.473 461.176 152.336 458.418 149.098
 458.418 c 147.238 458.418 145.586 459.59 144.414 460.832 c h
143.586 463.93 m 143.793 463.035 143.793 462.965 144.207 462.555 c 146.137
 459.934 147.996 459.316 149.031 459.316 c 150.477 459.316 151.578 460.484
 151.578 463.105 c 151.578 465.516 150.27 470.129 149.512 471.645 c 148.203
 474.332 146.344 475.848 144.758 475.848 c 143.379 475.848 142.07 474.746
 142.07 471.715 c 142.07 470.957 142.07 470.199 142.691 467.652 c h
143.586 463.93 m f
673.57 152.293 m 672.883 152.293 672.262 152.293 671.711 152.914 c 671.023
 153.535 670.953 154.223 670.953 154.566 c 670.953 155.531 671.711 156.016
 672.539 156.016 c 673.711 156.016 674.883 154.98 674.883 153.328 c 674.883
 151.262 672.883 149.676 669.852 149.676 c 664.133 149.676 658.484 155.738
 658.484 161.73 c 658.484 165.52 660.965 168.898 665.375 168.898 c 671.438
 168.898 675.02 164.352 675.02 163.867 c 675.02 163.594 674.742 163.316 
674.469 163.316 c 674.262 163.316 674.191 163.387 673.918 163.73 c 670.609
 167.934 665.992 167.934 665.441 167.934 c 662.758 167.934 661.652 165.867
 661.652 163.316 c 661.652 161.594 662.48 157.461 663.926 154.844 c 665.234
 152.434 667.578 150.57 669.922 150.57 c 671.367 150.57 672.953 151.125 
673.57 152.293 c h
673.57 152.293 m f
154.238 138.988 m 154.238 138.918 154.238 138.504 153.758 138.504 c 153.137
 138.504 149.277 138.918 148.59 138.988 c 148.312 138.988 148.039 139.195
 148.039 139.746 c 148.039 140.227 148.383 140.227 149.004 140.227 c 150.93
 140.227 151 140.504 151 140.914 c 150.93 141.742 l 148.52 151.25 l 147.762
 149.801 146.59 148.699 144.801 148.699 c 140.047 148.699 135.02 154.625
 135.02 160.551 c 135.02 164.34 137.293 166.957 140.391 166.957 c 141.219
 166.957 143.215 166.82 145.695 163.926 c 145.973 165.648 147.418 166.957
 149.348 166.957 c 150.727 166.957 151.688 166.062 152.309 164.75 c 153 
163.305 153.551 160.824 153.551 160.758 c 153.551 160.344 153.203 160.344
 153.066 160.344 c 152.652 160.344 152.586 160.551 152.516 161.102 c 151.828
 163.719 151.07 166.129 149.414 166.129 c 148.312 166.129 148.176 165.027
 148.176 164.27 c 148.176 163.305 148.312 162.961 148.453 162.273 c h
145.832 161.719 m 145.695 162.477 145.695 162.547 145.074 163.234 c 143.285
 165.441 141.633 166.129 140.527 166.129 c 138.461 166.129 137.91 163.855
 137.91 162.273 c 137.91 160.273 139.219 155.312 140.117 153.453 c 141.355
 151.113 143.215 149.598 144.801 149.598 c 147.418 149.598 148.039 152.902
 148.039 153.109 c 148.039 153.387 147.898 153.59 147.898 153.797 c h
145.832 161.719 m f
0 0 1 rg
1 w
[ 6 6] 0 d
q 1 0 0 1 0 0 cm
653.57 442.062 m 490 442.062 326.43 442.062 162.855 442.062 c S Q
172.855 442.062 m 176.855 438.062 l 162.855 442.062 l 176.855 446.062 l
 h
172.855 442.062 m f*
1.066667 w
[] 0.0 d
q 1 0 0 1 0 0 cm
172.855 442.062 m 176.855 438.062 l 162.855 442.062 l 176.855 446.062 l
 h
172.855 442.062 m S Q
1 w
[ 6 6] 0 d
q 0 1 -1 0 0 0 cm
442.062 -162.855 m 353.09 -162.855 264.117 -162.855 175.145 -162.855 c S Q
162.855 185.145 m 166.855 189.145 l 162.855 175.145 l 158.855 189.145 l
 h
162.855 185.145 m f*
1.066667 w
[] 0.0 d
q 0 1 -1 0 0 0 cm
185.145 -162.855 m 189.145 -166.855 l 175.145 -162.855 l 189.145 -158.855
 l h
185.145 -162.855 m S Q
0 g
166.855 175.145 m 166.855 177.355 165.066 179.145 162.855 179.145 c 160.648
 179.145 158.855 177.355 158.855 175.145 c 158.855 172.938 160.648 171.145
 162.855 171.145 c 165.066 171.145 166.855 172.938 166.855 175.145 c h
166.855 175.145 m f
0 0.729412 0 rg
1 w
[ 8 2 1 2] 0 d
q 0 1 -1 0 0 0 cm
442.063 -653.57 m 353.09 -653.57 264.117 -653.57 175.145 -653.57 c S Q
653.57 185.145 m 657.57 189.145 l 653.57 175.145 l 649.57 189.145 l h
653.57 185.145 m f*
1.066667 w
[] 0.0 d
q 0 1 -1 0 0 0 cm
185.145 -653.57 m 189.145 -657.57 l 175.145 -653.57 l 189.145 -649.57 l
 h
185.145 -653.57 m S Q
1 w
[ 8 2 1 2] 0 d
q 1 0 0 1 0 0 cm
653.57 175.145 m 490 175.145 326.43 175.145 162.855 175.145 c S Q
172.855 175.145 m 176.855 171.145 l 162.855 175.145 l 176.855 179.145 l
 h
172.855 175.145 m f*
1.066667 w
[] 0.0 d
q 1 0 0 1 0 0 cm
172.855 175.145 m 176.855 171.145 l 162.855 175.145 l 176.855 179.145 l
 h
172.855 175.145 m S Q
0 g
657.57 175.145 m 657.57 177.355 655.781 179.145 653.57 179.145 c 651.363
 179.145 649.57 177.355 649.57 175.145 c 649.57 172.938 651.363 171.145 
653.57 171.145 c 655.781 171.145 657.57 172.938 657.57 175.145 c h
657.57 175.145 m f
166.855 442.062 m 166.855 444.27 165.066 446.062 162.855 446.062 c 160.648
 446.062 158.855 444.27 158.855 442.062 c 158.855 439.852 160.648 438.062
 162.855 438.062 c 165.066 438.062 166.855 439.852 166.855 442.062 c h
166.855 442.062 m f
659.453 540.07 m 660.688 538.141 661.68 537.941 662.668 537.895 c 662.918
 537.895 663.016 537.645 663.016 537.398 c 663.016 537.348 662.965 537.051
 662.668 537.051 c 662.371 537.051 662.473 537.148 660.641 537.148 c 659.055
 537.148 658.363 537.051 658.262 537.051 c 658.164 537.051 657.77 537.051
 657.77 537.547 c 657.77 537.895 658.113 537.895 658.215 537.895 c 658.906
 537.941 659.203 538.191 659.203 538.637 c 659.203 539.031 659.004 539.379
 658.855 539.578 c 650.738 551.906 l 648.656 539.031 l 648.609 538.785 648.609
 538.684 648.609 538.586 c 648.609 538.289 649.004 537.895 650.242 537.895
 c 650.539 537.895 650.887 537.895 650.887 537.398 c 650.887 537.297 650.785
 537.051 650.488 537.051 c 650.242 537.051 649.25 537.102 649.055 537.148
 c 647.469 537.148 l 645.242 537.148 644.895 537.051 644.648 537.051 c 644.547
 537.051 644.203 537.051 644.203 537.547 c 644.203 537.895 644.5 537.895
 644.895 537.895 c 646.184 537.895 646.184 538.141 646.281 538.734 c 648.758
 553.984 l 648.805 554.527 648.855 554.727 649.352 554.727 c 649.746 554.727
 649.895 554.48 650.094 554.23 c h
659.453 540.07 m f
663.742 545.117 m 663.742 544.523 663.695 544.523 663.148 544.523 c 661.863
 545.762 659.98 545.762 659.289 545.762 c 659.289 546.457 l 659.781 546.457
 661.02 546.457 662.16 545.961 c 662.16 555.465 l 662.16 556.062 662.16 
556.309 660.23 556.309 c 659.387 556.309 l 659.387 557.051 l 660.426 556.953
 661.914 556.953 662.953 556.953 c 663.992 556.953 665.477 556.953 666.516
 557.051 c 666.516 556.309 l 665.723 556.309 l 663.742 556.309 663.742 556.062
 663.742 555.465 c h
663.742 545.117 m f
0.75 w
[ 0.75 6] 0 d
q 1 0 0 1 0 0 cm
653.57 442.062 m 653.57 470.273 653.57 498.488 653.57 526.703 c S Q
1 w
[] 0.0 d
q 1 0 0 1 0 0 cm
653.57 522.297 m 653.57 525.234 653.57 528.172 653.57 531.109 c S Q
0.75 w
[ 0.75 6] 0 d
q 1 0 0 1 0 0 cm
162.855 442.062 m 162.855 470.273 162.855 498.488 162.855 526.703 c S Q
1 w
[] 0.0 d
q 1 0 0 1 0 0 cm
162.855 522.297 m 162.855 525.234 162.855 528.172 162.855 531.109 c S Q
0.75 w
[ 0.75 6] 0 d
q 0 1 -1 0 0 0 cm
442.062 -162.855 m 442.062 -128.215 442.062 -93.57 442.062 -58.93 c S Q
1 w
[] 0.0 d
q 0 1 -1 0 0 0 cm
442.062 -63.336 m 442.062 -60.398 442.062 -57.461 442.062 -54.523 c S Q
0.75 w
[ 0.75 6] 0 d
q 0 1 -1 0 0 0 cm
175.145 -162.855 m 175.145 -128.215 175.145 -93.57 175.145 -58.93 c S Q
1 w
[] 0.0 d
q 0 1 -1 0 0 0 cm
175.145 -63.336 m 175.145 -60.398 175.145 -57.461 175.145 -54.523 c S Q
167.434 540.035 m 168.672 538.105 169.66 537.906 170.652 537.855 c 170.898
 537.855 171 537.609 171 537.363 c 171 537.312 170.949 537.016 170.652 537.016
 c 170.355 537.016 170.453 537.113 168.621 537.113 c 167.039 537.113 166.344
 537.016 166.246 537.016 c 166.148 537.016 165.75 537.016 165.75 537.512
 c 165.75 537.855 166.098 537.855 166.195 537.855 c 166.891 537.906 167.188
 538.156 167.188 538.602 c 167.188 538.996 166.988 539.344 166.84 539.539
 c 158.719 551.871 l 156.641 538.996 l 156.59 538.75 156.59 538.648 156.59
 538.551 c 156.59 538.254 156.988 537.855 158.223 537.855 c 158.523 537.855
 158.867 537.855 158.867 537.363 c 158.867 537.262 158.77 537.016 158.473
 537.016 c 158.223 537.016 157.234 537.066 157.035 537.113 c 155.453 537.113
 l 153.223 537.113 152.879 537.016 152.629 537.016 c 152.531 537.016 152.184
 537.016 152.184 537.512 c 152.184 537.855 152.48 537.855 152.879 537.855
 c 154.164 537.855 154.164 538.105 154.262 538.699 c 156.738 553.949 l 156.789
 554.492 156.84 554.691 157.332 554.691 c 157.73 554.691 157.879 554.445
 158.074 554.195 c h
167.434 540.035 m f
175.094 553.5 m 174.398 553.5 l 174.398 553.746 174.203 554.984 173.906
 555.234 c 173.758 555.332 172.27 555.332 171.973 555.332 c 168.457 555.332
 l 169.004 554.887 170.34 553.797 170.887 553.352 c 171.527 552.855 173.211
 551.668 173.758 551.074 c 174.352 550.531 175.094 549.59 175.094 548.25
 c 175.094 545.875 173.016 544.488 170.488 544.488 c 168.062 544.488 166.328
 546.121 166.328 547.855 c 166.328 548.848 167.172 548.945 167.371 548.945
 c 167.816 548.945 168.359 548.598 168.359 547.906 c 168.359 547.508 168.113
 546.914 167.32 546.914 c 167.715 545.973 168.906 545.23 170.191 545.23 
c 172.172 545.23 173.211 546.719 173.211 548.25 c 173.211 549.59 172.32 
550.926 171.035 552.164 c 166.578 556.223 l 166.379 556.422 166.328 556.422
 166.328 557.016 c 174.551 557.016 l h
175.094 553.5 m f
33.469 438.668 m 38.023 438.668 l 41.637 438.668 45.402 436.191 45.402 
433.219 c 45.402 431.09 43.422 429.359 40.152 429.359 c 31.734 429.359 l
 31.289 429.359 30.941 429.359 30.941 429.855 c 30.941 430.199 31.289 430.199
 31.688 430.199 c 32.527 430.199 33.219 430.199 33.219 430.598 c 33.219 
430.695 33.219 430.746 33.121 431.043 c 29.805 444.508 l 29.555 445.449 
29.508 445.648 27.727 445.648 c 27.129 445.648 26.883 445.648 26.883 446.145
 c 26.883 446.242 26.934 446.488 27.277 446.488 c 27.773 446.488 28.367 
446.441 28.812 446.391 c 30.449 446.391 l 32.824 446.391 33.469 446.488 
33.668 446.488 c 33.816 446.488 34.16 446.488 34.16 445.996 c 34.16 445.648
 33.816 445.648 33.418 445.648 c 33.32 445.648 32.875 445.648 32.477 445.598
 c 31.934 445.551 31.883 445.5 31.883 445.254 c 31.883 445.152 31.934 445.004
 31.984 444.855 c h
35.301 431.141 m 35.547 430.301 35.547 430.199 36.586 430.199 c 39.359 
430.199 l 41.391 430.199 42.973 430.793 42.973 432.676 c 42.973 432.973 
42.875 435.199 41.441 436.586 c 41.094 436.984 39.855 437.926 37.43 437.926
 c 33.617 437.926 l h
35.301 431.141 m f
48.586 437.426 m 48.586 436.832 48.535 436.832 47.992 436.832 c 46.703 
438.07 44.824 438.07 44.129 438.07 c 44.129 438.762 l 44.625 438.762 45.863
 438.762 47 438.27 c 47 447.773 l 47 448.367 47 448.617 45.07 448.617 c 
44.23 448.617 l 44.23 449.359 l 45.27 449.258 46.754 449.258 47.793 449.258
 c 48.832 449.258 50.32 449.258 51.359 449.359 c 51.359 448.617 l 50.566
 448.617 l 48.586 448.617 48.586 448.367 48.586 447.773 c h
48.586 437.426 m f
32.531 172.441 m 37.086 172.441 l 40.699 172.441 44.465 169.965 44.465 
166.996 c 44.465 164.867 42.484 163.133 39.215 163.133 c 30.797 163.133 
l 30.352 163.133 30.008 163.133 30.008 163.629 c 30.008 163.973 30.352 163.973
 30.75 163.973 c 31.59 163.973 32.285 163.973 32.285 164.371 c 32.285 164.469
 32.285 164.52 32.184 164.816 c 28.867 178.285 l 28.621 179.223 28.57 179.422
 26.789 179.422 c 26.195 179.422 25.945 179.422 25.945 179.918 c 25.945 
180.016 25.996 180.266 26.344 180.266 c 26.836 180.266 27.43 180.215 27.879
 180.164 c 29.512 180.164 l 31.887 180.164 32.531 180.266 32.73 180.266 
c 32.879 180.266 33.223 180.266 33.223 179.77 c 33.223 179.422 32.879 179.422
 32.48 179.422 c 32.383 179.422 31.938 179.422 31.539 179.371 c 30.996 179.324
 30.945 179.273 30.945 179.027 c 30.945 178.926 30.996 178.777 31.047 178.629
 c h
34.363 164.914 m 34.609 164.074 34.609 163.973 35.652 163.973 c 38.422 
163.973 l 40.453 163.973 42.039 164.57 42.039 166.449 c 42.039 166.746 41.938
 168.977 40.504 170.363 c 40.156 170.758 38.918 171.699 36.492 171.699 c
 32.68 171.699 l h
34.363 164.914 m f
51.016 179.617 m 50.324 179.617 l 50.324 179.863 50.125 181.102 49.828 
181.352 c 49.68 181.449 48.195 181.449 47.895 181.449 c 44.383 181.449 l
 44.926 181.004 46.262 179.914 46.809 179.469 c 47.449 178.973 49.133 177.785
 49.68 177.191 c 50.273 176.648 51.016 175.707 51.016 174.371 c 51.016 171.992
 48.938 170.605 46.41 170.605 c 43.984 170.605 42.25 172.238 42.25 173.973
 c 42.25 174.965 43.094 175.062 43.293 175.062 c 43.738 175.062 44.281 174.715
 44.281 174.023 c 44.281 173.625 44.035 173.031 43.242 173.031 c 43.637 
172.09 44.828 171.348 46.113 171.348 c 48.094 171.348 49.133 172.836 49.133
 174.371 c 49.133 175.707 48.242 177.043 46.957 178.281 c 42.5 182.34 l 
42.301 182.539 42.25 182.539 42.25 183.133 c 50.473 183.133 l h
51.016 179.617 m f
Q Q
showpage
%%Trailer
end
%%EOF
