<?xml version="1.0" encoding="UTF-8" standalone="no"?>
<svg
   xmlns:dc="http://purl.org/dc/elements/1.1/"
   xmlns:cc="http://creativecommons.org/ns#"
   xmlns:rdf="http://www.w3.org/1999/02/22-rdf-syntax-ns#"
   xmlns:svg="http://www.w3.org/2000/svg"
   xmlns="http://www.w3.org/2000/svg"
   xmlns:xlink="http://www.w3.org/1999/xlink"
   xmlns:sodipodi="http://sodipodi.sourceforge.net/DTD/sodipodi-0.dtd"
   xmlns:inkscape="http://www.inkscape.org/namespaces/inkscape"
   version="1.1"
   width="100%"
   height="100%"
   viewBox="-58 -631 768 648"
   id="svg153288"
   sodipodi:docname="ch2ex5_fig..Phase_diagram_of_water.svg"
   inkscape:version="0.92.4 (5da689c313, 2019-01-14)">
  <metadata
     id="metadata153292">
    <rdf:RDF>
      <cc:Work
         rdf:about="">
        <dc:format>image/svg+xml</dc:format>
        <dc:type
           rdf:resource="http://purl.org/dc/dcmitype/StillImage" />
        <dc:title>Phase diagram of water</dc:title>
        <cc:license
           rdf:resource="http://creativecommons.org/licenses/by-sa/4.0/" />
        <dc:creator>
          <cc:Agent>
            <dc:title>Cmglee ( https://commons.wikimedia.org/wiki/User:Cmglee )</dc:title>
          </cc:Agent>
        </dc:creator>
        <dc:date>2018-10-12</dc:date>
        <dc:description></dc:description>
        <dc:source>https://commons.wikimedia.org/wiki/File:Phase_diagram_of_water.svg</dc:source>
      </cc:Work>
      <cc:License
         rdf:about="http://creativecommons.org/licenses/by-sa/4.0/">
        <cc:permits
           rdf:resource="http://creativecommons.org/ns#Reproduction" />
        <cc:permits
           rdf:resource="http://creativecommons.org/ns#Distribution" />
        <cc:requires
           rdf:resource="http://creativecommons.org/ns#Notice" />
        <cc:requires
           rdf:resource="http://creativecommons.org/ns#Attribution" />
        <cc:permits
           rdf:resource="http://creativecommons.org/ns#DerivativeWorks" />
        <cc:requires
           rdf:resource="http://creativecommons.org/ns#ShareAlike" />
      </cc:License>
    </rdf:RDF>
  </metadata>
  <sodipodi:namedview
     pagecolor="#ffffff"
     bordercolor="#666666"
     borderopacity="1"
     objecttolerance="10"
     gridtolerance="10"
     guidetolerance="10"
     inkscape:pageopacity="0"
     inkscape:pageshadow="2"
     inkscape:window-width="1920"
     inkscape:window-height="1013"
     id="namedview153290"
     showgrid="false"
     inkscape:zoom="0.89588683"
     inkscape:cx="392.3428"
     inkscape:cy="280.68164"
     inkscape:window-x="0"
     inkscape:window-y="30"
     inkscape:window-maximized="1"
     inkscape:current-layer="svg153288" />
  <title
     id="title152604">Phase diagram of water</title>
  <desc
     id="desc152606">Phase diagram of water as a log-lin chart with pressure from 1 Pa to 1 TPa and temperature from 0 K to 650 K, compiled from data in http://www.lsbu.ac.uk/water/phase.html and http://ergodic.ugr.es/termo/lecciones/water1.html by CMG Lee. Note that the phases of Ice X and XI (hexagonal) differ from the diagram in https://chem331001fall09.pbworks.com/w/page/15647320/LECTURE-10 .</desc>
  <defs
     id="defs153284">
    <radialGradient
       id="solid"
       cx="50%"
       cy="50%"
       r="80%"
       fx="0%"
       fy="0%">
      <stop
         stop-color="rgb(0, 153, 255)"
         stop-opacity="0"
         offset="0%"
         id="stop152608" />
      <stop
         stop-color="rgb(0, 153, 255)"
         stop-opacity="0.5"
         offset="100%"
         id="stop152610" />
    </radialGradient>
    <radialGradient
       id="liquid"
       cx="50%"
       cy="50%"
       r="80%"
       fx="100%"
       fy="20%">
      <stop
         stop-color="rgb(0, 204, 0)"
         stop-opacity="0"
         offset="0%"
         id="stop152613" />
      <stop
         stop-color="rgb(0, 204, 0)"
         stop-opacity="0.5"
         offset="100%"
         id="stop152615" />
    </radialGradient>
    <radialGradient
       id="gas"
       cx="50%"
       cy="50%"
       r="80%"
       fx="100%"
       fy="0%">
      <stop
         stop-color="rgb(255, 153, 0)"
         stop-opacity="0"
         offset="0%"
         id="stop152618" />
      <stop
         stop-color="rgb(255, 153, 0)"
         stop-opacity="0.5"
         offset="100%"
         id="stop152620" />
    </radialGradient>
    <g
       id="grid_x"
       stroke-opacity="0.2">
      <line
         stroke-opacity="0.4"
         x1="0"
         y1="0"
         x2="0"
         y2="-605"
         id="line152623" />
      <line
         x1="10"
         y1="0"
         x2="10"
         y2="-600"
         id="line152625" />
      <line
         x1="20"
         y1="0"
         x2="20"
         y2="-600"
         id="line152627" />
      <line
         x1="30"
         y1="0"
         x2="30"
         y2="-600"
         id="line152629" />
      <line
         x1="40"
         y1="0"
         x2="40"
         y2="-600"
         id="line152631" />
    </g>
    <g
       id="grid_y"
       stroke-opacity="0.15">
      <line
         stroke-opacity="0.4"
         x1="-5"
         y1="0"
         x2="655"
         y2="0"
         id="line152634" />
      <line
         x1="0"
         y1="-15.051"
         x2="650"
         y2="-15.051"
         id="line152636" />
      <line
         x1="0"
         y1="-23.856"
         x2="650"
         y2="-23.856"
         id="line152638" />
      <line
         x1="0"
         y1="-30.103"
         x2="650"
         y2="-30.103"
         id="line152640" />
      <line
         stroke-opacity="0.3"
         x1="0"
         y1="-34.949"
         x2="650"
         y2="-34.949"
         id="line152642" />
      <line
         x1="0"
         y1="-38.908"
         x2="650"
         y2="-38.908"
         id="line152644" />
      <line
         x1="0"
         y1="-42.255"
         x2="650"
         y2="-42.255"
         id="line152646" />
      <line
         x1="0"
         y1="-45.154"
         x2="650"
         y2="-45.154"
         id="line152648" />
      <line
         x1="0"
         y1="-47.712"
         x2="650"
         y2="-47.712"
         id="line152650" />
    </g>
    <g
       id="grid"
       letter-spacing="-1px">
      <g
         id="line_grid"
         stroke="#666666">
        <use
           xlink:href="#grid_x"
           id="use152653" />
        <use
           transform="translate(50)"
           xlink:href="#grid_x"
           id="use152655" />
        <use
           transform="translate(100)"
           xlink:href="#grid_x"
           id="use152657" />
        <use
           transform="translate(150)"
           xlink:href="#grid_x"
           id="use152659" />
        <use
           transform="translate(200)"
           xlink:href="#grid_x"
           id="use152661" />
        <use
           transform="translate(250)"
           xlink:href="#grid_x"
           id="use152663" />
        <use
           transform="translate(300)"
           xlink:href="#grid_x"
           id="use152665" />
        <use
           transform="translate(350)"
           xlink:href="#grid_x"
           id="use152667" />
        <use
           transform="translate(400)"
           xlink:href="#grid_x"
           id="use152669" />
        <use
           transform="translate(450)"
           xlink:href="#grid_x"
           id="use152671" />
        <use
           transform="translate(500)"
           xlink:href="#grid_x"
           id="use152673" />
        <use
           transform="translate(550)"
           xlink:href="#grid_x"
           id="use152675" />
        <use
           transform="translate(600)"
           xlink:href="#grid_x"
           id="use152677" />
        <use
           xlink:href="#grid_y"
           id="use152679" />
        <use
           transform="translate(0 -50)"
           xlink:href="#grid_y"
           id="use152681" />
        <use
           transform="translate(0 -100)"
           xlink:href="#grid_y"
           id="use152683" />
        <use
           transform="translate(0 -150)"
           xlink:href="#grid_y"
           id="use152685" />
        <use
           transform="translate(0 -200)"
           xlink:href="#grid_y"
           id="use152687" />
        <use
           transform="translate(0 -250)"
           xlink:href="#grid_y"
           id="use152689" />
        <use
           transform="translate(0 -300)"
           xlink:href="#grid_y"
           id="use152691" />
        <use
           transform="translate(0 -350)"
           xlink:href="#grid_y"
           id="use152693" />
        <use
           transform="translate(0 -400)"
           xlink:href="#grid_y"
           id="use152695" />
        <use
           transform="translate(0 -450)"
           xlink:href="#grid_y"
           id="use152697" />
        <use
           transform="translate(0 -500)"
           xlink:href="#grid_y"
           id="use152699" />
        <use
           transform="translate(0 -550)"
           xlink:href="#grid_y"
           id="use152701" />
        <line
           stroke-opacity="0.4"
           x1="-5"
           y1="-600"
           x2="655"
           y2="-600"
           id="line152703" />
        <line
           stroke-opacity="0.4"
           x1="650"
           y1="-605"
           x2="650"
           y2="0"
           id="line152705" />
        <rect
           fill="none"
           x="0"
           y="-600"
           width="650"
           height="600"
           id="rect152707" />
      </g>
      <g
         id="text_grid_unit"
         letter-spacing="0px"
         font-size="12px"
         font-weight="bold"
         fill="#000000"
         text-anchor="middle">
        <g
           transform="rotate(-90) translate(300,-48)"
           id="g152724">
          <switch
             id="switch152722">
            <text
               systemLanguage="de"
               id="text152710">Druck</text>
            <text
               systemLanguage="fr"
               id="text152712">Pression</text>
            <text
               systemLanguage="it"
               id="text152714">Pressione</text>
            <text
               systemLanguage="pl"
               id="text152716">Ciśnienie</text>
            <text
               systemLanguage="pt"
               id="text152718">Pressão</text>
            <text
               id="text152720">Pressure</text>
          </switch>
        </g>
        <g
           transform="translate(323.15,-620)"
           id="g152740">
          <switch
             id="switch152738">
            <text
               systemLanguage="de"
               id="text152726">Temperatur</text>
            <text
               systemLanguage="fr"
               id="text152728">Température</text>
            <text
               systemLanguage="it"
               id="text152730">Temperatura</text>
            <text
               systemLanguage="pl"
               id="text152732">Temperatura</text>
            <text
               systemLanguage="pt"
               id="text152734">Temperatura</text>
            <text
               id="text152736">Temperature</text>
          </switch>
        </g>
      </g>
      <g
         id="text_grid_pa"
         font-size="12px"
         fill="#000000"
         text-anchor="end">
        <text
           x="-5"
           y="0"
           dy="0.5em"
           id="text152743">1 Pa</text>
        <text
           x="-5"
           y="-50"
           dy="0.5em"
           id="text152745">10 Pa</text>
        <text
           x="-5"
           y="-100"
           dy="0.5em"
           id="text152747">100 Pa</text>
        <text
           x="-5"
           y="-150"
           dy="0.5em"
           id="text152749">1 kPa</text>
        <text
           x="-5"
           y="-200"
           dy="0.5em"
           id="text152751">10 kPa</text>
        <text
           x="-5"
           y="-250"
           dy="0.5em"
           id="text152753">100 kPa</text>
        <text
           x="-5"
           y="-300"
           dy="0.5em"
           id="text152755">1 MPa</text>
        <text
           x="-5"
           y="-350"
           dy="0.5em"
           id="text152757">10 MPa</text>
        <text
           x="-5"
           y="-400"
           dy="0.5em"
           id="text152759">100 MPa</text>
        <text
           x="-5"
           y="-450"
           dy="0.5em"
           id="text152761">1 GPa</text>
        <text
           x="-5"
           y="-500"
           dy="0.5em"
           id="text152763">10 GPa</text>
        <text
           x="-5"
           y="-550"
           dy="0.5em"
           id="text152765">100 GPa</text>
        <text
           x="-5"
           y="-600"
           dy="0.5em"
           id="text152767">1 TPa</text>
      </g>
      <g
         id="text_grid_bar"
         font-size="12px"
         fill="#ff0000"
         text-anchor="start">
        <text
           x="655"
           y="0"
           dy="0.5em"
           id="text152770">10 µbar</text>
        <text
           x="655"
           y="-50"
           dy="0.5em"
           id="text152772">100 µbar</text>
        <text
           x="655"
           y="-100"
           dy="0.5em"
           id="text152774">1 mbar</text>
        <text
           x="655"
           y="-150"
           dy="0.5em"
           id="text152776">10 mbar</text>
        <text
           x="655"
           y="-200"
           dy="0.5em"
           id="text152778">100 mbar</text>
        <text
           x="655"
           y="-250"
           dy="0.5em"
           id="text152780">1 bar</text>
        <text
           x="655"
           y="-300"
           dy="0.5em"
           id="text152782">10 bar</text>
        <text
           x="655"
           y="-350"
           dy="0.5em"
           id="text152784">100 bar</text>
        <text
           x="655"
           y="-400"
           dy="0.5em"
           id="text152786">1 kbar</text>
        <text
           x="655"
           y="-450"
           dy="0.5em"
           id="text152788">10 kbar</text>
        <text
           x="655"
           y="-500"
           dy="0.5em"
           id="text152790">100 kbar</text>
        <text
           x="655"
           y="-550"
           dy="0.5em"
           id="text152792">1 Mbar</text>
        <text
           x="655"
           y="-600"
           dy="0.5em"
           id="text152794">10 Mbar</text>
      </g>
      <g
         id="text_grid_k"
         font-size="12px"
         fill="#000000"
         text-anchor="middle">
        <text
           x="0"
           y="-606"
           id="text152797">0 K</text>
        <text
           x="50"
           y="-606"
           id="text152799">50 K</text>
        <text
           x="100"
           y="-606"
           id="text152801">100 K</text>
        <text
           x="150"
           y="-606"
           id="text152803">150 K</text>
        <text
           x="200"
           y="-606"
           id="text152805">200 K</text>
        <text
           x="250"
           y="-606"
           id="text152807">250 K</text>
        <text
           x="300"
           y="-606"
           id="text152809">300 K</text>
        <text
           x="350"
           y="-606"
           id="text152811">350 K</text>
        <text
           x="400"
           y="-606"
           id="text152813">400 K</text>
        <text
           x="450"
           y="-606"
           id="text152815">450 K</text>
        <text
           x="500"
           y="-606"
           id="text152817">500 K</text>
        <text
           x="550"
           y="-606"
           id="text152819">550 K</text>
        <text
           x="600"
           y="-606"
           id="text152821">600 K</text>
        <text
           x="650"
           y="-606"
           id="text152823">650 K</text>
      </g>
      <g
         id="text_grid_c"
         font-size="12px"
         fill="#ff0000"
         text-anchor="middle">
        <text
           x="23.15"
           y="16"
           id="text152826">-250 °C</text>
        <text
           x="73.15"
           y="16"
           id="text152828">-200 °C</text>
        <text
           x="123.15"
           y="16"
           id="text152830">-150 °C</text>
        <text
           x="173.15"
           y="16"
           id="text152832">-100 °C</text>
        <text
           x="223.15"
           y="16"
           id="text152834">-50 °C</text>
        <text
           x="273.15"
           y="16"
           id="text152836">0 °C</text>
        <text
           x="323.15"
           y="16"
           id="text152838">50 °C</text>
        <text
           x="373.15"
           y="16"
           id="text152840">100 °C</text>
        <text
           x="423.15"
           y="16"
           id="text152842">150 °C</text>
        <text
           x="473.15"
           y="16"
           id="text152844">200 °C</text>
        <text
           x="523.15"
           y="16"
           id="text152846">250 °C</text>
        <text
           x="573.15"
           y="16"
           id="text152848">300 °C</text>
        <text
           x="623.15"
           y="16"
           id="text152850">350 °C</text>
      </g>
      <g
         id="tick_c"
         stroke="#ff0000">
        <line
           x1="23.15"
           y1="0"
           x2="23.15"
           y2="5"
           id="line152853" />
        <line
           x1="73.15"
           y1="0"
           x2="73.15"
           y2="5"
           id="line152855" />
        <line
           x1="123.15"
           y1="0"
           x2="123.15"
           y2="5"
           id="line152857" />
        <line
           x1="173.15"
           y1="0"
           x2="173.15"
           y2="5"
           id="line152859" />
        <line
           x1="223.15"
           y1="0"
           x2="223.15"
           y2="5"
           id="line152861" />
        <line
           x1="273.15"
           y1="0"
           x2="273.15"
           y2="5"
           id="line152863" />
        <line
           x1="323.15"
           y1="0"
           x2="323.15"
           y2="5"
           id="line152865" />
        <line
           x1="373.15"
           y1="0"
           x2="373.15"
           y2="5"
           id="line152867" />
        <line
           x1="423.15"
           y1="0"
           x2="423.15"
           y2="5"
           id="line152869" />
        <line
           x1="473.15"
           y1="0"
           x2="473.15"
           y2="5"
           id="line152871" />
        <line
           x1="523.15"
           y1="0"
           x2="523.15"
           y2="5"
           id="line152873" />
        <line
           x1="573.15"
           y1="0"
           x2="573.15"
           y2="5"
           id="line152875" />
        <line
           x1="623.15"
           y1="0"
           x2="623.15"
           y2="5"
           id="line152877" />
      </g>
    </g>
    <g
       id="main"
       font-family="Helvetica,Arial,sans-serif">
      <rect
         fill="#ffffff"
         x="-58"
         y="-631"
         width="768"
         height="648"
         id="rect152881" />
      <g
         id="shade"
         stroke="none">
        <path
           id="S"
           fill="url(#solid)"
           d="M 650 -600 L 0 -600 L 0 0 L 212 0 Q 240 -85 273.16 -139.328 L 273.15 -250.286 C 273 -380 270 -400 251.17 -416.101 L 256.15 -427.21 L 272.99 -440.05 L 355 -467.278 C 400 -470 550 -490 650 -506" />
        <path
           id="L"
           fill="url(#liquid)"
           d="M 650 -368 L 647 -367.184 Q 480 -330 373.15 -250.286 Q 310 -200 273.16 -139.328 L 273.15 -250.286 C 273 -380 270 -400 251.17 -416.101 L 256.15 -427.21 L 272.99 -440.05 L 355 -467.278 C 400 -470 550 -490 650 -506" />
        <path
           id="G"
           fill="url(#gas)"
           d="M 650 -368 L 647 -367.184 Q 480 -330 373.15 -250.286 Q 310 -200 273.16 -139.328 Q 240 -85 212 0 L 650 0" />
      </g>
      <use
         xlink:href="#grid"
         id="use152887" />
      <g
         id="boundary_phase"
         fill="none"
         stroke="#000000"
         stroke-width="2">
        <path
           id="GL"
           d="M 647 -367.184 Q 480 -330 373.15 -250.286 Q 310 -200 273.16 -139.328" />
        <path
           id="GS"
           d="M 273.16 -139.328 Q 240 -85 212 0" />
        <path
           id="SL"
           d="M 273.16 -139.328 L 273.15 -250.286 C 273 -380 270 -400 251.17 -416.101 L 256.15 -427.21 L 272.99 -440.05 L 355 -467.278 C 400 -470 550 -490 650 -506" />
      </g>
      <g
         id="boundary_solid"
         fill="none"
         stroke="#3366ff"
         stroke-width="2">
        <path
           id="IhIc"
           stroke-dasharray="7, 4"
           stroke-width="2"
           d="M 168 -343 L 170 -160" />
        <path
           id="Ih2"
           d="M 251.17 -416.101 L 238.45 -416.409 L 0 -413" />
        <path
           id="IcI11"
           d="M 72 -414 L 72 0" />
        <path
           id="I2I9"
           d="M 162 -415 Q 200 -428 0 -428" />
        <path
           id="I2I3"
           d="M 238.45 -416.409 L 248.85 -426.847" />
        <path
           id="I3I5"
           d="M 256.15 -427.21 L 248.85 -426.847 L 218.15 -440" />
        <path
           id="I2I6"
           d="M 272.99 -440.05 L 218.15 -440 L 130 -440 L 0 -440" />
        <path
           id="I6I15"
           d="M 130 -440 L 130 -458.8" />
        <path
           id="I6I8"
           d="M 355 -467.278 L 278.15 -466.111 Q 200 -460 130 -458.8 L 0 -459" />
        <path
           id="I7I8"
           d="M 278.15 -466.111 Q 278 -530 100.15 -539.62" />
        <path
           id="I10I7"
           d="M 650 -540 L 100.15 -539.62 L 0 -540" />
        <path
           id="I11I10"
           d="M 650 -575 L 0 -580" />
      </g>
      <g
         id="text_point_1atm"
         font-size="12px"
         font-weight="bold"
         fill="#ff0000"
         stroke="#ff0000">
        <line
           x1="0"
           y1="-250.286"
           x2="650"
           y2="-250.286"
           id="line152906" />
        <line
           x1="273.15"
           y1="0"
           x2="273.15"
           y2="-600"
           id="line152908" />
        <line
           x1="373.15"
           y1="0"
           x2="373.15"
           y2="-600"
           id="line152910" />
        <g
           text-anchor="end"
           transform="translate(273.15 -250.286)"
           id="g152932">
          <ellipse
             fill="none"
             cx="0"
             cy="0"
             rx="5"
             ry="5"
             id="ellipse152912" />
          <g
             transform="translate(-10,15)"
             font-size="16px"
             stroke="none"
             id="g152928">
            <switch
               id="switch152926">
              <text
                 systemLanguage="de"
                 id="text152914">Schmelzpunkt bei 1 atm</text>
              <text
                 systemLanguage="fr"
                 id="text152916">Point de fusion à 1 atm</text>
              <text
                 systemLanguage="it"
                 id="text152918">Punto di fusione a 1 atm</text>
              <text
                 systemLanguage="pl"
                 id="text152920">Punkt zamarzania przy 1 atm</text>
              <text
                 systemLanguage="pt"
                 id="text152922">Ponto de fusão a 1 atm</text>
              <text
                 id="text152924">Freezing point at 1 atm</text>
            </switch>
          </g>
          <text
             stroke="none"
             x="-10"
             y="0"
             dy="2.5em"
             id="text152930">273.15 K (0 °C), 101.325 kPa</text>
        </g>
        <g
           text-anchor="start"
           transform="translate(373.15 -250.286)"
           id="g152954">
          <ellipse
             fill="none"
             cx="0"
             cy="0"
             rx="5"
             ry="5"
             id="ellipse152934" />
          <g
             transform="translate(5,15)"
             font-size="16px"
             stroke="none"
             id="g152950">
            <switch
               id="switch152948">
              <text
                 systemLanguage="de"
                 id="text152936">Siedepunkt bei 1 atm</text>
              <text
                 systemLanguage="fr"
                 id="text152938">Point d'ébullition à 1 atm</text>
              <text
                 systemLanguage="it"
                 id="text152940">Punto di ebollizione a 1 atm</text>
              <text
                 systemLanguage="pl"
                 id="text152942">Punkt wrzenia przy 1 atm</text>
              <text
                 systemLanguage="pt"
                 id="text152944">Ponto de ebulição a 1 atm</text>
              <text
                 id="text152946">Boiling point at 1 atm</text>
            </switch>
          </g>
          <text
             stroke="none"
             x="5"
             y="0"
             dy="2.5em"
             id="text152952">373.15 K (100 °C), 101.325 kPa</text>
        </g>
        <g
           fill="#cc66ff"
           stroke="#cc00ff"
           id="g152996">
          <g
             transform="translate(273.15,-250)"
             id="g152966">
            <ellipse
               cx="0"
               cy="0"
               rx="3"
               ry="3"
               fill="none"
               id="ellipse152956" />
            <text
               transform="translate(-5,-10)"
               y="-3em"
               text-anchor="end"
               stroke="none"
               id="text152964">
              <tspan
                 x="0"
                 dy="1em"
                 font-size="16"
                 id="tspan152958">STP</tspan>
              <tspan
                 x="0"
                 dy="1em"
                 id="tspan152960">273.15 K (0 °C),</tspan>
              <tspan
                 x="0"
                 dy="1em"
                 id="tspan152962">100 kPa  </tspan>
            </text>
          </g>
          <g
             transform="translate(293.15,-250.286)"
             id="g152980">
            <ellipse
               cx="0"
               cy="0"
               rx="3"
               ry="3"
               fill="none"
               id="ellipse152968" />
            <text
               transform="translate(-3,-10)"
               y="-4em"
               text-anchor="start"
               stroke="none"
               id="text152978">
              <tspan
                 x="0"
                 dy="1em"
                 font-size="16"
                 id="tspan152970">NTP</tspan>
              <tspan
                 x="0"
                 dy="1em"
                 id="tspan152972">293.15 K</tspan>
              <tspan
                 x="0"
                 dy="1em"
                 id="tspan152974">(20 °C),</tspan>
              <tspan
                 x="0"
                 dy="1em"
                 id="tspan152976">101.325 kPa</tspan>
            </text>
          </g>
          <g
             transform="translate(298.15,-250.286)"
             id="g152994">
            <ellipse
               cx="0"
               cy="0"
               rx="3"
               ry="3"
               fill="none"
               id="ellipse152982" />
            <text
               transform="translate(0,-10)"
               y="1em"
               text-anchor="start"
               stroke="none"
               id="text152992">
              <tspan
                 x="0"
                 dy="1em"
                 font-size="16"
                 id="tspan152984">SATP</tspan>
              <tspan
                 x="0"
                 dy="1em"
                 id="tspan152986">298.15 K</tspan>
              <tspan
                 x="0"
                 dy="1em"
                 id="tspan152988">(25 °C),</tspan>
              <tspan
                 x="0"
                 dy="1em"
                 id="tspan152990">101.325 kPa</tspan>
            </text>
          </g>
        </g>
      </g>
      <g
         id="text_point"
         font-size="12px"
         fill="#000000"
         stroke="#000000">
        <g
           font-weight="bold"
           text-anchor="end"
           transform="translate(647.096 -367.184)"
           id="g153025">
          <ellipse
             fill="none"
             cx="0"
             cy="0"
             rx="5"
             ry="5"
             id="ellipse152999" />
          <g
             transform="translate(-5,-40)"
             font-size="16px"
             stroke="none"
             id="g153015">
            <switch
               id="switch153013">
              <text
                 systemLanguage="de"
                 id="text153001">Kritischer Punkt</text>
              <text
                 systemLanguage="fr"
                 id="text153003">Point critique</text>
              <text
                 systemLanguage="it"
                 id="text153005">Punto critico</text>
              <text
                 systemLanguage="pl"
                 id="text153007">Punkt krytyczny</text>
              <text
                 systemLanguage="pt"
                 id="text153009">Ponto crítico</text>
              <text
                 id="text153011">Critical point</text>
            </switch>
          </g>
          <text
             stroke="none"
             x="0"
             y="0"
             dy="-2em"
             id="text153023">
            <tspan
               id="tspan153017">647.096 K</tspan>
            <tspan
               x="0"
               dy="1em"
               id="tspan153019">(373.946 °C),</tspan>
            <tspan
               x="0"
               dy="1em"
               id="tspan153021">22.064 MPa  </tspan>
          </text>
        </g>
        <g
           font-weight="bold"
           text-anchor="start"
           transform="translate(273.16 -139.325)"
           id="g153047">
          <ellipse
             fill="none"
             cx="0"
             cy="0"
             rx="5"
             ry="5"
             id="ellipse153027" />
          <g
             transform="translate(5,16)"
             font-size="16px"
             stroke="none"
             id="g153043">
            <switch
               id="switch153041">
              <text
                 systemLanguage="de"
                 id="text153029">Tripelpunkt</text>
              <text
                 systemLanguage="fr"
                 id="text153031">Point triple solide/liquide/vapeur</text>
              <text
                 systemLanguage="it"
                 id="text153033">Punto triplo</text>
              <text
                 systemLanguage="pl"
                 id="text153035">Punkt potrójny ciało stałe/ciecz/para</text>
              <text
                 systemLanguage="pt"
                 id="text153037">Ponto triplo sólido/líquido/vapor</text>
              <text
                 id="text153039">Solid/Liquid/Vapour triple point</text>
            </switch>
          </g>
          <text
             stroke="none"
             x="5"
             y="0"
             dy="2.5em"
             id="text153045">273.16 K (0.01 °C), 611.657 Pa</text>
        </g>
        <g
           transform="translate(251.17 -416.101)"
           id="g153053">
          <ellipse
             fill="none"
             cx="0"
             cy="0"
             rx="3"
             ry="3"
             id="ellipse153049" />
          <text
             stroke="none"
             text-anchor="start"
             x="10"
             y="0.7em"
             id="text153051">251.165 K, 209.9 MPa</text>
        </g>
        <g
           transform="translate(256.15 -427.21)"
           id="g153059">
          <ellipse
             fill="none"
             cx="0"
             cy="0"
             rx="3"
             ry="3"
             id="ellipse153055" />
          <text
             stroke="none"
             text-anchor="start"
             x="10"
             y="0.5em"
             id="text153057">256.164 K, 350.1 MPa</text>
        </g>
        <g
           transform="translate(272.99 -440.05)"
           id="g153065">
          <ellipse
             fill="none"
             cx="0"
             cy="0"
             rx="3"
             ry="3"
             id="ellipse153061" />
          <text
             stroke="none"
             text-anchor="start"
             x="10"
             y="0.5em"
             id="text153063">272.99 K, 632.4 MPa</text>
        </g>
        <g
           transform="translate(355 -467.278)"
           id="g153071">
          <ellipse
             fill="none"
             cx="0"
             cy="0"
             rx="3"
             ry="3"
             id="ellipse153067" />
          <text
             stroke="none"
             text-anchor="start"
             x="5"
             y="1em"
             id="text153069">355.00 K, 2.216 GPa</text>
        </g>
        <g
           transform="translate(238.45 -416.409)"
           id="g153077">
          <ellipse
             fill="none"
             cx="0"
             cy="0"
             rx="3"
             ry="3"
             id="ellipse153073" />
          <text
             stroke="none"
             text-anchor="end"
             x="0"
             y="1em"
             id="text153075">238.5 K, 212.9 MPa</text>
        </g>
        <g
           transform="translate(248.85 -426.847)"
           id="g153083">
          <ellipse
             fill="none"
             cx="0"
             cy="0"
             rx="3"
             ry="3"
             id="ellipse153079" />
          <text
             stroke="none"
             text-anchor="end"
             x="-10"
             y="0.3em"
             id="text153081">248.85 K, 344.3 MPa</text>
        </g>
        <g
           transform="translate(218.15 -440)"
           id="g153089">
          <ellipse
             fill="none"
             cx="0"
             cy="0"
             rx="3"
             ry="3"
             id="ellipse153085" />
          <text
             stroke="none"
             text-anchor="end"
             x="20"
             y="-5"
             id="text153087">218 K, 620 MPa</text>
        </g>
        <g
           transform="translate(278.15 -466.111)"
           id="g153095">
          <ellipse
             fill="none"
             cx="0"
             cy="0"
             rx="3"
             ry="3"
             id="ellipse153091" />
          <text
             stroke="none"
             text-anchor="start"
             x="5"
             y="-5"
             id="text153093">278 K, 2.1 GPa</text>
        </g>
        <g
           transform="translate(100.15 -539.62)"
           id="g153101">
          <ellipse
             fill="none"
             cx="0"
             cy="0"
             rx="3"
             ry="3"
             id="ellipse153097" />
          <text
             stroke="none"
             text-anchor="start"
             x="5"
             y="-5"
             id="text153099">100 K, 62 GPa</text>
        </g>
      </g>
      <g
         id="text_phase"
         font-size="24px"
         text-anchor="middle">
        <g
           fill="#0000ff"
           id="g153248">
          <g
             transform="translate(48,-360)"
             text-anchor="start"
             font-weight="bold"
             id="g153118">
            <switch
               id="switch153116">
              <text
                 systemLanguage="de"
                 id="text153104">Eis</text>
              <text
                 systemLanguage="fr"
                 id="text153106">Solide</text>
              <text
                 systemLanguage="it"
                 id="text153108">Solido</text>
              <text
                 systemLanguage="pl"
                 id="text153110">Ciało stałe</text>
              <text
                 systemLanguage="pt"
                 id="text153112">Sólido</text>
              <text
                 id="text153114">Solid</text>
            </switch>
          </g>
          <text
             x="125"
             y="-305"
             id="text153124">
            <tspan
               id="tspan153120">I</tspan>
            <tspan
               dy="0.1em"
               id="tspan153122">c</tspan>
          </text>
          <text
             x="225"
             y="-305"
             id="text153130">
            <tspan
               id="tspan153126">I</tspan>
            <tspan
               dy="0.1em"
               id="tspan153128">h</tspan>
          </text>
          <g
             transform="translate(365,-580)"
             id="g153168">
            <switch
               id="switch153166">
              <text
                 systemLanguage="de"
                 id="text153136">
                <tspan
                   id="tspan153132">XI</tspan>
                <tspan
                   font-size="16px"
                   id="tspan153134"> (hexagonal)</tspan>
              </text>
              <text
                 systemLanguage="fr"
                 id="text153142">
                <tspan
                   id="tspan153138">XI</tspan>
                <tspan
                   font-size="16px"
                   id="tspan153140"> (hexagonal)</tspan>
              </text>
              <text
                 systemLanguage="it"
                 id="text153148">
                <tspan
                   id="tspan153144">XI</tspan>
                <tspan
                   font-size="16px"
                   id="tspan153146"> (esagonale)</tspan>
              </text>
              <text
                 systemLanguage="pl"
                 id="text153152">
                <tspan
                   font-size="16px"
                   id="tspan153150">Pbcm (przewidywana)</tspan>
              </text>
              <text
                 systemLanguage="pt"
                 id="text153158">
                <tspan
                   id="tspan153154">XI</tspan>
                <tspan
                   font-size="16px"
                   id="tspan153156"> (hexagonal)</tspan>
              </text>
              <text
                 id="text153164">
                <tspan
                   id="tspan153160">XI</tspan>
                <tspan
                   font-size="16px"
                   id="tspan153162"> (hexagonal)</tspan>
              </text>
            </switch>
          </g>
          <text
             x="325"
             y="-550"
             id="text153170">X</text>
          <text
             x="325"
             y="-510"
             id="text153172">VII</text>
          <text
             x="295"
             y="-450"
             id="text153174">VI</text>
          <text
             x="37"
             y="-510"
             id="text153176">VIII</text>
          <text
             x="37"
             y="-441"
             id="text153178">XV</text>
          <text
             x="37"
             y="-414"
             id="text153180">IX</text>
          <g
             transform="translate(37,-305)"
             id="g153228">
            <switch
               id="switch153226">
              <text
                 systemLanguage="de"
                 id="text153188">
                <tspan
                   id="tspan153182">XI</tspan>
                <tspan
                   font-size="16px"
                   x="0"
                   dy="2em"
                   id="tspan153184">(ortho-</tspan>
                <tspan
                   font-size="16px"
                   x="0"
                   dy="1em"
                   id="tspan153186">rhomb.)</tspan>
              </text>
              <text
                 systemLanguage="fr"
                 id="text153196">
                <tspan
                   id="tspan153190">XI</tspan>
                <tspan
                   font-size="16px"
                   x="0"
                   dy="2em"
                   id="tspan153192">(ortho-</tspan>
                <tspan
                   font-size="16px"
                   x="0"
                   dy="1em"
                   id="tspan153194">rhomb.)</tspan>
              </text>
              <text
                 systemLanguage="it"
                 id="text153204">
                <tspan
                   id="tspan153198">XI</tspan>
                <tspan
                   font-size="16px"
                   x="0"
                   dy="2em"
                   id="tspan153200">(orto-</tspan>
                <tspan
                   font-size="16px"
                   x="0"
                   dy="1em"
                   id="tspan153202">rombico)</tspan>
              </text>
              <text
                 systemLanguage="pl"
                 id="text153208">
                <tspan
                   id="tspan153206">XI</tspan>
              </text>
              <text
                 systemLanguage="pt"
                 id="text153216">
                <tspan
                   id="tspan153210">XI</tspan>
                <tspan
                   font-size="16px"
                   x="0"
                   dy="2em"
                   id="tspan153212">(ortor-</tspan>
                <tspan
                   font-size="16px"
                   x="0"
                   dy="1em"
                   id="tspan153214">rômbico)</tspan>
              </text>
              <text
                 id="text153224">
                <tspan
                   id="tspan153218">XI</tspan>
                <tspan
                   font-size="16px"
                   x="0"
                   dy="2em"
                   id="tspan153220">(ortho-</tspan>
                <tspan
                   font-size="16px"
                   x="0"
                   dy="1em"
                   id="tspan153222">rhombic)</tspan>
              </text>
            </switch>
          </g>
          <line
             stroke="#0099ff"
             stroke-width="2"
             x1="140"
             y1="-435"
             x2="140"
             y2="-473"
             id="line153230" />
          <ellipse
             fill="#66ccff"
             stroke="#0099ff"
             cx="140"
             cy="-488"
             rx="15"
             ry="15"
             id="ellipse153232" />
          <text
             x="140"
             y="-480"
             id="text153234">II</text>
          <line
             stroke="#0099ff"
             stroke-width="2"
             x1="245"
             y1="-435"
             x2="245"
             y2="-473"
             id="line153236" />
          <ellipse
             fill="#66ccff"
             stroke="#0099ff"
             cx="245"
             cy="-488"
             rx="15"
             ry="15"
             id="ellipse153238" />
          <text
             x="245"
             y="-480"
             id="text153240">V</text>
          <line
             stroke="#0099ff"
             stroke-width="2"
             x1="245"
             y1="-420"
             x2="245"
             y2="-382"
             id="line153242" />
          <ellipse
             fill="#66ccff"
             stroke="#0099ff"
             cx="245"
             cy="-367"
             rx="15"
             ry="15"
             id="ellipse153244" />
          <text
             x="245"
             y="-360"
             id="text153246">III</text>
        </g>
        <g
           transform="translate(450,-360)"
           font-weight="bold"
           fill="#009900"
           id="g153264">
          <switch
             id="switch153262">
            <text
               systemLanguage="de"
               id="text153250">Wasser</text>
            <text
               systemLanguage="fr"
               id="text153252">Liquide</text>
            <text
               systemLanguage="it"
               id="text153254">Liquido</text>
            <text
               systemLanguage="pl"
               id="text153256">Ciecz</text>
            <text
               systemLanguage="pt"
               id="text153258">Líquido</text>
            <text
               id="text153260">Liquid</text>
          </switch>
        </g>
        <g
           transform="translate(500,-70)"
           font-weight="bold"
           fill="#996600"
           id="g153280">
          <switch
             id="switch153278">
            <text
               systemLanguage="de"
               id="text153266">Dampf</text>
            <text
               systemLanguage="fr"
               id="text153268">Vapeur</text>
            <text
               systemLanguage="it"
               id="text153270">Vapore</text>
            <text
               systemLanguage="pl"
               id="text153272">Para</text>
            <text
               systemLanguage="pt"
               id="text153274">Vapor</text>
            <text
               id="text153276">Vapour</text>
          </switch>
        </g>
      </g>
    </g>
  </defs>
  <use
     xlink:href="#main"
     id="use153286" />
</svg>
